# 3ds Max Wavefront OBJ Exporter v0.97b - (c)2007 guruware
# File Created: 19.10.2020 13:42:36

#
# object enemy_turret_main
#

v  -6.2918 -12.2809 9.4977
v  -6.2918 -6.6682 9.4977
v  -6.2918 -6.6682 -9.4976
v  -6.2918 -12.2809 -9.4976
v  -6.2918 -1.0556 9.4977
v  0.0000 -1.0556 9.4977
v  0.0000 -1.0556 -9.4976
v  -6.2918 -1.0556 -9.4976
v  0.0000 6.6682 -0.0000
v  0.0000 3.3341 -5.7748
v  -7.7890 3.3341 -5.7748
v  -7.7890 6.6682 -0.0000
v  0.0000 -3.3341 -5.7748
v  -7.7890 -3.3341 -5.7748
v  0.0000 -6.6682 -0.0000
v  -7.7890 -6.6682 -0.0000
v  0.0000 -3.3341 5.7749
v  -7.7890 -3.3341 5.7749
v  0.0000 3.3341 5.7749
v  -7.7890 3.3341 5.7749
v  -7.7890 0.0000 -0.0000
v  0.0000 -6.6682 -9.4976
v  0.0000 -6.6682 9.4977
v  0.0000 -12.2809 9.4977
v  0.0000 -12.2809 -9.4976
v  -5.6228 -6.6622 23.7562
v  -2.8114 -1.7928 23.7562
v  -2.8114 -1.7928 9.4977
v  -5.6228 -6.6622 9.4977
v  0.0000 -1.7928 23.7562
v  0.0000 -1.7928 9.4977
v  -2.8114 -11.5317 23.7562
v  -2.8114 -11.5317 9.4977
v  0.0000 -6.6623 23.7562
v  0.0000 -11.5317 23.7562
v  0.0000 -11.5317 9.4977
v  6.2918 -12.2809 9.4977
v  6.2918 -12.2809 -9.4976
v  6.2918 -6.6682 -9.4976
v  6.2918 -6.6682 9.4977
v  6.2918 -1.0556 9.4977
v  6.2918 -1.0556 -9.4976
v  7.7890 6.6682 -0.0000
v  7.7890 3.3341 -5.7748
v  7.7890 -3.3341 -5.7748
v  7.7890 -6.6682 -0.0000
v  7.7890 -3.3341 5.7749
v  7.7890 3.3341 5.7749
v  7.7890 0.0000 -0.0000
v  5.6228 -6.6622 23.7562
v  5.6228 -6.6622 9.4977
v  2.8114 -1.7928 9.4977
v  2.8114 -1.7928 23.7562
v  2.8114 -11.5317 23.7562
v  2.8114 -11.5317 9.4977
# 55 vertices

vn -0.5774 -0.5774 0.5774
vn -0.7071 0.0000 0.7071
vn -0.7071 0.0000 -0.7071
vn -0.5774 -0.5774 -0.5774
vn -0.5774 0.5774 0.5774
vn 0.0000 0.7071 0.7071
vn 0.0000 0.7071 -0.7071
vn -0.5774 0.5774 -0.5774
vn 0.0000 1.0000 -0.0000
vn -0.0000 0.5000 -0.8660
vn -0.6100 0.3963 -0.6862
vn -0.6100 0.7924 -0.0001
vn -0.0000 -0.5000 -0.8660
vn -0.6100 -0.3962 -0.6862
vn 0.0000 -1.0000 -0.0000
vn -0.6100 -0.7924 -0.0000
vn 0.0000 -0.5000 0.8660
vn -0.6100 -0.3962 0.6862
vn 0.0000 0.5000 0.8660
vn -0.6100 0.3962 0.6862
vn -1.0000 0.0000 -0.0000
vn 0.0000 0.0000 -1.0000
vn 0.0000 0.0000 1.0000
vn 0.0000 -0.7071 0.7071
vn 0.0000 -0.7071 -0.7071
vn -0.7924 -0.0000 0.6100
vn -0.3961 0.6862 0.6100
vn -0.4999 0.8661 -0.0000
vn -1.0000 -0.0001 -0.0000
vn -0.3962 -0.6862 0.6100
vn -0.5000 -0.8660 -0.0000
vn 0.5774 -0.5774 0.5774
vn 0.5774 -0.5774 -0.5774
vn 0.7071 0.0000 -0.7071
vn 0.7071 0.0000 0.7071
vn 0.5774 0.5774 0.5774
vn 0.5774 0.5774 -0.5774
vn 0.6100 0.7924 -0.0000
vn 0.6100 0.3962 -0.6862
vn 0.6100 -0.3962 -0.6862
vn 0.6100 -0.7924 -0.0000
vn 0.6100 -0.3962 0.6862
vn 0.6100 0.3962 0.6862
vn 1.0000 0.0000 -0.0000
vn 0.7924 -0.0000 0.6100
vn 1.0000 -0.0001 -0.0000
vn 0.4999 0.8661 -0.0000
vn 0.3961 0.6862 0.6100
vn 0.3962 -0.6862 0.6100
vn 0.5000 -0.8660 -0.0000
# 50 vertex normals

vt 0.7028 0.7772 0.0000
vt 0.7028 0.8475 0.0000
vt 0.4648 0.8474 0.0000
vt 0.4648 0.7771 0.0000
vt 0.7028 0.9178 0.0000
vt 0.7028 0.9966 0.0000
vt 0.4648 0.9966 0.0000
vt 0.4648 0.9177 0.0000
vt 0.7786 0.7372 0.0000
vt 0.7063 0.6954 0.0000
vt 0.7551 0.6109 0.0000
vt 0.8274 0.6526 0.0000
vt 0.6575 0.6109 0.0000
vt 0.6575 0.5273 0.0000
vt 0.7551 0.5273 0.0000
vt 0.7063 0.4428 0.0000
vt 0.7786 0.4011 0.0000
vt 0.8274 0.4856 0.0000
vt 0.8762 0.4011 0.0000
vt 0.9485 0.4428 0.0000
vt 0.8998 0.5273 0.0000
vt 0.9974 0.5273 0.0000
vt 0.9974 0.6109 0.0000
vt 0.8998 0.6109 0.0000
vt 0.9485 0.6954 0.0000
vt 0.8762 0.7372 0.0000
vt 0.8274 0.5691 0.0000
vt 0.3860 0.8474 0.0000
vt 0.3860 0.9177 0.0000
vt 0.7816 0.8475 0.0000
vt 0.7816 0.7772 0.0000
vt 0.7028 0.6983 0.0000
vt 0.4648 0.6983 0.0000
vt 0.3860 0.7771 0.0000
vt 0.7816 0.9178 0.0000
vt 0.1804 0.7995 0.0000
vt 0.1804 0.8700 0.0000
vt 0.0018 0.8700 0.0000
vt 0.0018 0.7996 0.0000
vt 0.1804 0.9052 0.0000
vt 0.0018 0.9052 0.0000
vt 0.1804 0.7291 0.0000
vt 0.0018 0.7291 0.0000
vt 0.2414 0.7643 0.0000
vt 0.2414 0.8347 0.0000
vt 0.2109 0.8876 0.0000
vt 0.1804 0.6939 0.0000
vt 0.0018 0.6939 0.0000
vt 0.2109 0.7115 0.0000
# 49 texture coords

o enemy_turret_main
g enemy_turret_main
f 1/1/1 2/2/2 3/3/3 4/4/4 
f 5/5/5 6/6/6 7/7/7 8/8/8 
f 9/9/9 10/10/10 11/11/11 12/12/12 
f 10/13/10 13/14/13 14/15/14 11/11/11 
f 13/16/13 15/17/15 16/18/16 14/15/14 
f 15/19/15 17/20/17 18/21/18 16/18/16 
f 17/22/17 19/23/19 20/24/20 18/21/18 
f 19/25/19 9/26/9 12/12/12 20/24/20 
f 12/12/12 11/11/11 21/27/21 
f 11/11/11 14/15/14 21/27/21 
f 14/15/14 16/18/16 21/27/21 
f 16/18/16 18/21/18 21/27/21 
f 18/21/18 20/24/20 21/27/21 
f 20/24/20 12/12/12 21/27/21 
f 22/28/22 3/3/3 8/8/8 7/29/7 
f 23/30/23 2/2/2 1/1/1 24/31/24 
f 24/32/24 1/1/1 4/4/4 25/33/25 
f 2/2/2 5/5/5 8/8/8 3/3/3 
f 22/28/22 25/34/25 4/4/4 3/3/3 
f 23/30/23 6/35/6 5/5/5 2/2/2 
f 26/36/26 27/37/27 28/38/28 29/39/29 
f 27/37/27 30/40/6 31/41/9 28/38/28 
f 32/42/30 26/36/26 29/39/29 33/43/31 
f 32/42/30 34/44/23 26/36/26 
f 26/36/26 34/45/23 27/37/27 
f 27/37/27 34/45/23 30/46/6 
f 35/47/24 32/42/30 33/43/31 36/48/15 
f 35/49/24 34/44/23 32/42/30 
f 37/1/32 38/4/33 39/3/34 40/2/35 
f 41/5/36 42/8/37 7/7/7 6/6/6 
f 9/9/9 43/12/38 44/11/39 10/10/10 
f 10/13/10 44/11/39 45/15/40 13/14/13 
f 13/16/13 45/15/40 46/18/41 15/17/15 
f 15/19/15 46/18/41 47/21/42 17/20/17 
f 17/22/17 47/21/42 48/24/43 19/23/19 
f 19/25/19 48/24/43 43/12/38 9/26/9 
f 43/12/38 49/27/44 44/11/39 
f 44/11/39 49/27/44 45/15/40 
f 45/15/40 49/27/44 46/18/41 
f 46/18/41 49/27/44 47/21/42 
f 47/21/42 49/27/44 48/24/43 
f 48/24/43 49/27/44 43/12/38 
f 22/28/22 7/29/7 42/8/37 39/3/34 
f 23/30/23 24/31/24 37/1/32 40/2/35 
f 24/32/24 25/33/25 38/4/33 37/1/32 
f 40/2/35 39/3/34 42/8/37 41/5/36 
f 22/28/22 39/3/34 38/4/33 25/34/25 
f 23/30/23 40/2/35 41/5/36 6/35/6 
f 50/36/45 51/39/46 52/38/47 53/37/48 
f 53/37/48 52/38/47 31/41/9 30/40/6 
f 54/42/49 55/43/50 51/39/46 50/36/45 
f 54/42/49 50/36/45 34/44/23 
f 50/36/45 53/37/48 34/45/23 
f 53/37/48 30/46/6 34/45/23 
f 35/47/24 36/48/15 55/43/50 54/42/49 
f 35/49/24 54/42/49 34/44/23 
# 36 polygons - 20 triangles

#
# object enemy_turret_attachment
#

v  -2.3678 31.6587 2.5919
v  -2.3678 31.6587 -2.5918
v  -2.3678 3.0247 -2.5918
v  -2.3678 3.0247 2.5919
v  0.0000 31.6587 -2.5918
v  0.0000 3.0247 -2.5918
v  0.0000 31.6587 2.5919
v  0.0000 3.0247 2.5919
v  2.3678 31.6587 2.5919
v  2.3678 3.0247 2.5919
v  2.3678 3.0247 -2.5918
v  2.3678 31.6587 -2.5918
# 12 vertices

vn -0.7071 0.0000 0.7071
vn -0.7071 0.0000 -0.7071
vn -0.0000 0.0000 -1.0000
vn 0.0000 0.0000 1.0000
vn 0.7071 0.0000 0.7071
vn 0.7071 0.0000 -0.7071
# 6 vertex normals

vt 0.9668 0.3605 0.0000
vt 0.9019 0.3605 0.0000
vt 0.9019 0.0018 0.0000
vt 0.9668 0.0018 0.0000
vt 0.8722 0.3605 0.0000
vt 0.8722 0.0018 0.0000
vt 0.9965 0.3605 0.0000
vt 0.9965 0.0018 0.0000
# 8 texture coords

o enemy_turret_attachment
g enemy_turret_attachment
f 56/50/51 57/51/52 58/52/52 59/53/51 
f 57/51/52 60/54/53 61/55/53 58/52/52 
f 62/56/54 56/50/51 59/53/51 63/57/54 
f 64/50/55 65/53/55 66/52/56 67/51/56 
f 67/51/56 66/52/56 61/55/53 60/54/53 
f 62/56/54 63/57/54 65/53/55 64/50/55 
# 6 polygons

