%YAML 1.1
%TAG !u! tag:unity3d.com,2011:
--- !u!65 &4788619968550619109
BoxCollider:
  m_ObjectHideFlags: 0
  m_CorrespondingSourceObject: {fileID: 0}
  m_PrefabInstance: {fileID: 0}
  m_PrefabAsset: {fileID: 0}
  m_GameObject: {fileID: 664473628372712473}
  m_Material: {fileID: 0}
  m_IsTrigger: 0
  m_Enabled: 1
  serializedVersion: 2
  m_Size: {x: 4.6, y: 6, z: 4.6}
  m_Center: {x: 0, y: 0, z: 0}
--- !u!1 &1361643001323612551
GameObject:
  m_ObjectHideFlags: 0
  m_CorrespondingSourceObject: {fileID: 0}
  m_PrefabInstance: {fileID: 0}
  m_PrefabAsset: {fileID: 0}
  serializedVersion: 6
  m_Component:
  - component: {fileID: 6345626925651135920}
  m_Layer: 0
  m_Name: deco_column_pipe
  m_TagString: Untagged
  m_Icon: {fileID: 0}
  m_NavMeshLayer: 0
  m_StaticEditorFlags: 0
  m_IsActive: 1
--- !u!4 &6345626925651135920
Transform:
  m_ObjectHideFlags: 0
  m_CorrespondingSourceObject: {fileID: 0}
  m_PrefabInstance: {fileID: 0}
  m_PrefabAsset: {fileID: 0}
  m_GameObject: {fileID: 1361643001323612551}
  m_LocalRotation: {x: -0, y: -0, z: -0, w: 1}
  m_LocalPosition: {x: 0, y: 0, z: 0}
  m_LocalScale: {x: 1, y: 1, z: 1}
  m_Children:
  - {fileID: 638985649630721548}
  m_Father: {fileID: 0}
  m_RootOrder: 0
  m_LocalEulerAnglesHint: {x: 0, y: 0, z: 0}
--- !u!1001 &1104678702818709991
PrefabInstance:
  m_ObjectHideFlags: 0
  serializedVersion: 2
  m_Modification:
    m_TransformParent: {fileID: 6345626925651135920}
    m_Modifications:
    - target: {fileID: -8760569639798837762, guid: ffb9475d7334b7a46aa16411ae603daf,
        type: 3}
      propertyPath: m_StaticEditorFlags
      value: 4294967295
      objectReference: {fileID: 0}
    - target: {fileID: -8679921383154817045, guid: ffb9475d7334b7a46aa16411ae603daf,
        type: 3}
      propertyPath: m_LocalPosition.x
      value: 0
      objectReference: {fileID: 0}
    - target: {fileID: -8679921383154817045, guid: ffb9475d7334b7a46aa16411ae603daf,
        type: 3}
      propertyPath: m_LocalPosition.y
      value: 0
      objectReference: {fileID: 0}
    - target: {fileID: -8679921383154817045, guid: ffb9475d7334b7a46aa16411ae603daf,
        type: 3}
      propertyPath: m_LocalPosition.z
      value: 0
      objectReference: {fileID: 0}
    - target: {fileID: -8679921383154817045, guid: ffb9475d7334b7a46aa16411ae603daf,
        type: 3}
      propertyPath: m_LocalRotation.x
      value: -0
      objectReference: {fileID: 0}
    - target: {fileID: -8679921383154817045, guid: ffb9475d7334b7a46aa16411ae603daf,
        type: 3}
      propertyPath: m_LocalRotation.y
      value: -0
      objectReference: {fileID: 0}
    - target: {fileID: -8679921383154817045, guid: ffb9475d7334b7a46aa16411ae603daf,
        type: 3}
      propertyPath: m_LocalRotation.z
      value: -0
      objectReference: {fileID: 0}
    - target: {fileID: -8679921383154817045, guid: ffb9475d7334b7a46aa16411ae603daf,
        type: 3}
      propertyPath: m_LocalRotation.w
      value: 1
      objectReference: {fileID: 0}
    - target: {fileID: -8679921383154817045, guid: ffb9475d7334b7a46aa16411ae603daf,
        type: 3}
      propertyPath: m_RootOrder
      value: 0
      objectReference: {fileID: 0}
    - target: {fileID: -8679921383154817045, guid: ffb9475d7334b7a46aa16411ae603daf,
        type: 3}
      propertyPath: m_LocalEulerAnglesHint.x
      value: 0
      objectReference: {fileID: 0}
    - target: {fileID: -8679921383154817045, guid: ffb9475d7334b7a46aa16411ae603daf,
        type: 3}
      propertyPath: m_LocalEulerAnglesHint.y
      value: 0
      objectReference: {fileID: 0}
    - target: {fileID: -8679921383154817045, guid: ffb9475d7334b7a46aa16411ae603daf,
        type: 3}
      propertyPath: m_LocalEulerAnglesHint.z
      value: 0
      objectReference: {fileID: 0}
    - target: {fileID: 919132149155446097, guid: ffb9475d7334b7a46aa16411ae603daf,
        type: 3}
      propertyPath: m_Name
      value: column_pipe
      objectReference: {fileID: 0}
    - target: {fileID: 919132149155446097, guid: ffb9475d7334b7a46aa16411ae603daf,
        type: 3}
      propertyPath: m_StaticEditorFlags
      value: 4294967295
      objectReference: {fileID: 0}
    - target: {fileID: 7942670797701976657, guid: ffb9475d7334b7a46aa16411ae603daf,
        type: 3}
      propertyPath: m_Materials.Array.data[0]
      value: 
      objectReference: {fileID: 2100000, guid: 6fb03d63f1996eb49a38c78a22c743d1, type: 2}
    m_RemovedComponents: []
  m_SourcePrefab: {fileID: 100100000, guid: ffb9475d7334b7a46aa16411ae603daf, type: 3}
--- !u!4 &638985649630721548 stripped
Transform:
  m_CorrespondingSourceObject: {fileID: -8679921383154817045, guid: ffb9475d7334b7a46aa16411ae603daf,
    type: 3}
  m_PrefabInstance: {fileID: 1104678702818709991}
  m_PrefabAsset: {fileID: 0}
--- !u!1 &664473628372712473 stripped
GameObject:
  m_CorrespondingSourceObject: {fileID: -8760569639798837762, guid: ffb9475d7334b7a46aa16411ae603daf,
    type: 3}
  m_PrefabInstance: {fileID: 1104678702818709991}
  m_PrefabAsset: {fileID: 0}
