%YAML 1.1
%TAG !u! tag:unity3d.com,2011:
--- !u!114 &11400000
MonoBehaviour:
  m_ObjectHideFlags: 0
  m_CorrespondingSourceObject: {fileID: 0}
  m_PrefabInstance: {fileID: 0}
  m_PrefabAsset: {fileID: 0}
  m_GameObject: {fileID: 0}
  m_Enabled: 1
  m_EditorHideFlags: 0
  m_Script: {fileID: 11500000, guid: c586d23024fc20348974a1f3f19a2729, type: 3}
  m_Name: BGM_3
  m_EditorClassIdentifier: 
  clip: {fileID: 8300000, guid: ea442286402c3be409b35b604e33e017, type: 3}
  volume: 0.5
  loop: 1
  playWhilePaused: 0
  category: 1
  startTime: 10
