%YAML 1.1
%TAG !u! tag:unity3d.com,2011:
--- !u!1 &2338142974307013718
GameObject:
  m_ObjectHideFlags: 0
  m_CorrespondingSourceObject: {fileID: 0}
  m_PrefabInstance: {fileID: 0}
  m_PrefabAsset: {fileID: 0}
  serializedVersion: 6
  m_Component:
  - component: {fileID: 2338142974307013716}
  - component: {fileID: 2338142974307013717}
  m_Layer: 0
  m_Name: Enemy Spawner
  m_TagString: Untagged
  m_Icon: {fileID: -964228994112308473, guid: 0000000000000000d000000000000000, type: 0}
  m_NavMeshLayer: 0
  m_StaticEditorFlags: 0
  m_IsActive: 1
--- !u!4 &2338142974307013716
Transform:
  m_ObjectHideFlags: 0
  m_CorrespondingSourceObject: {fileID: 0}
  m_PrefabInstance: {fileID: 0}
  m_PrefabAsset: {fileID: 0}
  m_GameObject: {fileID: 2338142974307013718}
  m_LocalRotation: {x: 0, y: 0, z: 0, w: 1}
  m_LocalPosition: {x: 0, y: 0, z: 0}
  m_LocalScale: {x: 1, y: 1, z: 1}
  m_Children: []
  m_Father: {fileID: 0}
  m_RootOrder: 0
  m_LocalEulerAnglesHint: {x: 0, y: 0, z: 0}
--- !u!114 &2338142974307013717
MonoBehaviour:
  m_ObjectHideFlags: 0
  m_CorrespondingSourceObject: {fileID: 0}
  m_PrefabInstance: {fileID: 0}
  m_PrefabAsset: {fileID: 0}
  m_GameObject: {fileID: 2338142974307013718}
  m_Enabled: 1
  m_EditorHideFlags: 0
  m_Script: {fileID: 11500000, guid: 73cce6bb2bc5e6248ba813d350a54de1, type: 3}
  m_Name: 
  m_EditorClassIdentifier: 
  spawnables:
  - obj: {fileID: 8737848492515504588, guid: 6ee0a84c168b5fd42b7d7c972d191997, type: 3}
    frequency: 52
  - obj: {fileID: 2899905884620898425, guid: d3589ceafaf836e43add20818b78954f, type: 3}
    frequency: 54
  - obj: {fileID: 8737848492515504588, guid: c6942f6ecf0429b4fb0e397b6cd73b53, type: 3}
    frequency: 54
  spawnOnStart: 1
  destroyAfterSpawn: 1
