%YAML 1.1
%TAG !u! tag:unity3d.com,2011:
--- !u!114 &11400000
MonoBehaviour:
  m_ObjectHideFlags: 0
  m_CorrespondingSourceObject: {fileID: 0}
  m_PrefabInstance: {fileID: 0}
  m_PrefabAsset: {fileID: 0}
  m_GameObject: {fileID: 0}
  m_Enabled: 1
  m_EditorHideFlags: 0
  m_Script: {fileID: 11500000, guid: 222bcc92084c1de42b510e253551e2e5, type: 3}
  m_Name: Level Data Facility Zone 1
  m_EditorClassIdentifier: 
  baseData: {fileID: 0}
  startingArea: {fileID: 661079709806296950, guid: 12e49707d20ac8f449f95b571ece2bf0,
    type: 3}
  possibleRooms:
  - {fileID: 6389622338832083438, guid: b8df38dd6415f8c449dad616b2075993, type: 3}
  - {fileID: 182794288987109647, guid: 7202bf84f0186c841a7838e7434a4aad, type: 3}
  - {fileID: 949675886325155641, guid: d51362f99368aef47a39c4f93a27eac5, type: 3}
  - {fileID: 5357783482231621477, guid: 0323be2db61cb134099401ada97c071d, type: 3}
  - {fileID: 8983953713498031266, guid: e0f38c548d3625047b6d6da22f3123ec, type: 3}
  - {fileID: 928313555446296716, guid: 057cf5d7a2c250b4bbf98e6046448b00, type: 3}
  - {fileID: 9099128841807536262, guid: 4debc09d596662944bc9d13e85f6244c, type: 3}
  - {fileID: 6661764960616408799, guid: e11a0ecd29792c945a92b6a157386e06, type: 3}
  - {fileID: 1742811124043355370, guid: 700c8bdc889bb6b4f8f62bf01d237cd8, type: 3}
  - {fileID: 1742811124043355370, guid: db1510586f617784ebde792c604ada1f, type: 3}
  possibleEnemies:
  - obj: {fileID: 2899905884620898425, guid: d3589ceafaf836e43add20818b78954f, type: 3}
    frequency: 20
  - obj: {fileID: 8737848492515504588, guid: 6ee0a84c168b5fd42b7d7c972d191997, type: 3}
    frequency: 40
  - obj: {fileID: 8737848492515504588, guid: c6942f6ecf0429b4fb0e397b6cd73b53, type: 3}
    frequency: 20
  - obj: {fileID: 0}
    frequency: 30
  minRoomsToEnd: 15
  deadEndHorizOverride: {fileID: 231348658313299736, guid: 0b3633914264a6344a5bd6bea3109b91,
    type: 3}
  deadEndVertOverride: {fileID: 231348658313299736, guid: 637c74362760cd3478d32b29d434e282,
    type: 3}
  bgm: {fileID: 11400000, guid: 3cedba6b51ee49649ad6db7bc98b2f8f, type: 2}
