%YAML 1.1
%TAG !u! tag:unity3d.com,2011:
--- !u!114 &11400000
MonoBehaviour:
  m_ObjectHideFlags: 0
  m_CorrespondingSourceObject: {fileID: 0}
  m_PrefabInstance: {fileID: 0}
  m_PrefabAsset: {fileID: 0}
  m_GameObject: {fileID: 0}
  m_Enabled: 1
  m_EditorHideFlags: 0
  m_Script: {fileID: 11500000, guid: 222bcc92084c1de42b510e253551e2e5, type: 3}
  m_Name: Level Data Scifi Zone 3
  m_EditorClassIdentifier: 
  baseData: {fileID: 0}
  startingArea: {fileID: 661079709806296950, guid: a1e649127a75c3e488d3049d0d5e5ff5,
    type: 3}
  possibleRooms:
  - {fileID: 6389622338832083438, guid: 660bb691b625e714a822da050e1cec95, type: 3}
  - {fileID: 182794288987109647, guid: 2602186dfe5fbc54799535056924ed15, type: 3}
  - {fileID: 949675886325155641, guid: 2d341d3b7752c8a4484833ff9035f2a0, type: 3}
  - {fileID: 5357783482231621477, guid: 4f3ad2e84b3085d4597e5385568ea8ce, type: 3}
  - {fileID: 8983953713498031266, guid: 35b8ee7e0b422c94c9f0dc34000f4f80, type: 3}
  - {fileID: 928313555446296716, guid: 5c9ac433a1721a443972dc39f8f91e45, type: 3}
  - {fileID: 9099128841807536262, guid: 54d7c91e3032ffd48955c12d3533d956, type: 3}
  - {fileID: 6661764960616408799, guid: 3482d01feb13d944eb62b5b55d375b3a, type: 3}
  - {fileID: 6661764960616408799, guid: 26a03b7f3e80b954ca8c4847d6d095c7, type: 3}
  - {fileID: 1742811124043355370, guid: ae98f14c92bc43f4eb3a8c1a4c611727, type: 3}
  - {fileID: 1593554418100794401, guid: dade267b9ed456c42aff5340b8907203, type: 3}
  - {fileID: 7602004695665162457, guid: ca103b0f6d8a4a84db589b4ee9a973b3, type: 3}
  - {fileID: 368755269840537832, guid: f6a46f867b34a9e499424337aa56535f, type: 3}
  - {fileID: 2498079197462979418, guid: 95ddf4c721beea4458051357722f7a8f, type: 3}
  - {fileID: 412174031309769746, guid: 7150c1be6fdb5af46b06b0c9fca17bf1, type: 3}
  - {fileID: 5278364397180695438, guid: f0ead4a39f1144a46b714490e39a18c4, type: 3}
  - {fileID: 8020468646877611, guid: 2721ff55095cf4143b98990f6ab31c94, type: 3}
  - {fileID: 17331146799706604, guid: c5fd8f5dfccf16745afedf163b88169c, type: 3}
  - {fileID: 3410743977378204715, guid: c3419eafab3996145b7ddfd0a3c41100, type: 3}
  - {fileID: 8624440399621605373, guid: 3be3daaf49341244589d088ae5160ee7, type: 3}
  - {fileID: 971515716690908244, guid: 2aab4edf06d3b4f4d8f3a871d85f3c18, type: 3}
  - {fileID: 8287056801550657345, guid: 87490463f514baa4c8ac14ecf4257fd3, type: 3}
  - {fileID: 467856530363717476, guid: 15f11e639bf2b524589c1e12d893efe4, type: 3}
  - {fileID: 677129243857041607, guid: 86750ef233cee754dad360898f58f166, type: 3}
  - {fileID: 6051908210979498951, guid: bc6a3a15902eb214ca56198b5125fb55, type: 3}
  - {fileID: 55743185167759551, guid: 03f82ade7d7d7324e9c05652efe7a63f, type: 3}
  - {fileID: 467856530363717476, guid: f202358f17527da4280e5ce12b9dab42, type: 3}
  - {fileID: 8880371102261707274, guid: 4e386b85655488341856cc5ad2295f8e, type: 3}
  possibleEnemies:
  - obj: {fileID: 8737848492515504588, guid: 6ee0a84c168b5fd42b7d7c972d191997, type: 3}
    frequency: 80
  - obj: {fileID: 2899905884620898425, guid: d3589ceafaf836e43add20818b78954f, type: 3}
    frequency: 0
  - obj: {fileID: 8737848492515504588, guid: c6942f6ecf0429b4fb0e397b6cd73b53, type: 3}
    frequency: 50
  - obj: {fileID: 0}
    frequency: 30
  minRoomsToEnd: 32
  deadEndHorizOverride: {fileID: 231348658313299736, guid: 8cd54a24a6ac02b45b05d3478a9c58dd,
    type: 3}
  deadEndVertOverride: {fileID: 231348658313299736, guid: 8b9d2334d3ac8c544b2b8f4fd5edf210,
    type: 3}
  bgm: {fileID: 11400000, guid: fc28151604706d7458c103d5d4819d79, type: 2}
