# 3ds Max Wavefront OBJ Exporter v0.97b - (c)2007 guruware
# File Created: 28.10.2020 22:01:35

#
# object Object57124064
#

v  -7.0000 -1.0000 -11.0000
v  -7.0001 1.0000 -11.0000
v  -9.0001 1.0000 -11.0000
v  -9.0000 -1.0000 -11.0000
v  -5.0000 -1.0000 -11.0000
v  -5.0001 1.0000 -11.0000
v  -3.0000 -1.0000 -11.0000
v  -3.0001 1.0000 -11.0000
v  -7.0001 3.0000 -11.0000
v  -9.0001 3.0000 -11.0000
v  -5.0001 3.0000 -11.0000
v  -3.0001 3.0000 -11.0000
v  -7.0001 5.0000 -11.0000
v  -9.0001 5.0000 -11.0000
v  -5.0001 5.0000 -11.0000
v  -3.0001 5.0000 -11.0000
v  -11.0000 1.0000 -11.0000
v  -11.0000 -1.0000 -11.0000
v  -11.0000 3.0000 -11.0000
v  -11.0000 5.0000 -11.0000
v  -7.0001 7.0000 -11.0000
v  -9.0001 7.0000 -11.0000
v  -5.0001 7.0000 -11.0000
v  -3.0001 7.0000 -11.0000
v  -7.0001 9.0000 -11.0000
v  -9.0001 9.0000 -11.0000
v  -5.0001 9.0000 -11.0000
v  -3.0001 9.0000 -11.0000
v  -7.0001 11.0000 -11.0000
v  -9.0001 11.0000 -11.0000
v  -5.0001 11.0000 -11.0000
v  -3.0001 11.0000 -11.0000
v  -11.0000 7.0000 -11.0000
v  -11.0000 9.0000 -11.0000
v  -11.0000 11.0000 -11.0000
v  -7.0001 13.0000 -11.0000
v  -9.0001 13.0000 -11.0000
v  -5.0001 13.0000 -11.0000
v  -3.0001 13.0000 -11.0000
v  -11.0000 13.0000 -11.0000
v  9.0000 -1.0000 -11.0000
v  8.9999 1.0000 -11.0000
v  6.9999 1.0000 -11.0000
v  7.0000 -1.0000 -11.0000
v  11.0000 -1.0000 -11.0000
v  11.0000 1.0000 -11.0000
v  8.9999 3.0000 -11.0000
v  6.9999 3.0000 -11.0000
v  11.0000 3.0000 -11.0000
v  8.9999 5.0000 -11.0000
v  6.9999 5.0000 -11.0000
v  11.0000 5.0000 -11.0000
v  3.0000 -1.0000 -11.0000
v  2.9999 1.0000 -11.0000
v  0.9999 1.0000 -11.0000
v  1.0000 -1.0000 -11.0000
v  5.0000 -1.0000 -11.0000
v  4.9999 1.0000 -11.0000
v  2.9999 3.0000 -11.0000
v  0.9999 3.0000 -11.0000
v  4.9999 3.0000 -11.0000
v  2.9999 5.0000 -11.0000
v  0.9999 5.0000 -11.0000
v  4.9999 5.0000 -11.0000
v  -1.0000 -1.0000 -11.0000
v  -1.0001 1.0000 -11.0000
v  -1.0001 3.0000 -11.0000
v  -1.0001 5.0000 -11.0000
v  8.9999 7.0000 -11.0000
v  6.9999 7.0000 -11.0000
v  11.0000 7.0000 -11.0000
v  8.9999 9.0000 -11.0000
v  6.9999 9.0000 -11.0000
v  11.0000 9.0000 -11.0000
v  8.9999 11.0000 -11.0000
v  6.9999 11.0000 -11.0000
v  10.9999 11.0000 -11.0000
v  2.9999 7.0000 -11.0000
v  0.9999 7.0000 -11.0000
v  4.9999 7.0000 -11.0000
v  2.9999 9.0000 -11.0000
v  0.9999 9.0000 -11.0000
v  4.9999 9.0000 -11.0000
v  2.9999 11.0000 -11.0000
v  0.9999 11.0000 -11.0000
v  4.9999 11.0000 -11.0000
v  -1.0001 7.0000 -11.0000
v  -1.0001 9.0000 -11.0000
v  -1.0001 11.0000 -11.0000
v  8.9999 13.0000 -11.0000
v  6.9999 13.0000 -11.0000
v  10.9999 13.0000 -11.0000
v  2.9999 13.0000 -11.0000
v  0.9999 13.0000 -11.0000
v  4.9999 13.0000 -11.0000
v  -1.0001 13.0000 -11.0000
v  -7.0001 15.0000 -11.0000
v  -9.0001 15.0000 -11.0000
v  -5.0001 15.0000 -11.0000
v  -3.0001 15.0000 -11.0000
v  -11.0000 15.0000 -11.0000
v  8.9999 15.0000 -11.0000
v  6.9999 15.0000 -11.0000
v  10.9999 15.0000 -11.0000
v  2.9999 15.0000 -11.0000
v  0.9999 15.0000 -11.0000
v  4.9999 15.0000 -11.0000
v  -1.0001 15.0000 -11.0000
v  11.0000 -15.0000 -11.0000
v  11.0000 -13.0000 -11.0000
v  9.0000 -13.0000 -11.0000
v  9.0000 -15.0000 -11.0000
v  11.0000 -11.0000 -11.0000
v  9.0000 -11.0000 -11.0000
v  11.0000 -9.0000 -11.0000
v  9.0000 -9.0000 -11.0000
v  5.0000 -15.0000 -11.0000
v  5.0000 -13.0000 -11.0000
v  3.0000 -13.0000 -11.0000
v  3.0000 -15.0000 -11.0000
v  7.0000 -15.0000 -11.0000
v  7.0000 -13.0000 -11.0000
v  5.0000 -11.0000 -11.0000
v  3.0000 -11.0000 -11.0000
v  7.0000 -11.0000 -11.0000
v  5.0000 -9.0000 -11.0000
v  3.0000 -9.0000 -11.0000
v  7.0000 -9.0000 -11.0000
v  -1.0000 -15.0000 -11.0000
v  -1.0000 -13.0000 -11.0000
v  -3.0000 -13.0000 -11.0000
v  -3.0000 -15.0000 -11.0000
v  1.0000 -15.0000 -11.0000
v  1.0000 -13.0000 -11.0000
v  -1.0000 -11.0000 -11.0000
v  -3.0000 -11.0000 -11.0000
v  1.0000 -11.0000 -11.0000
v  -1.0000 -9.0000 -11.0000
v  -3.0000 -9.0000 -11.0000
v  1.0000 -9.0000 -11.0000
v  -5.0000 -13.0000 -11.0000
v  -5.0000 -15.0000 -11.0000
v  -5.0000 -11.0000 -11.0000
v  -5.0000 -9.0000 -11.0000
v  -9.0000 -15.0000 -11.0000
v  -9.0000 -13.0000 -11.0000
v  -11.0000 -13.0000 -11.0000
v  -11.0000 -15.0000 -11.0000
v  -7.0000 -15.0000 -11.0000
v  -7.0000 -13.0000 -11.0000
v  -9.0000 -11.0000 -11.0000
v  -11.0000 -11.0000 -11.0000
v  -7.0000 -11.0000 -11.0000
v  -9.0000 -9.0000 -11.0000
v  -11.0000 -9.0000 -11.0000
v  -7.0000 -9.0000 -11.0000
v  -11.0000 -15.0000 -7.0000
v  -11.0000 -13.0000 -7.0000
v  -11.0000 -13.0000 -5.0000
v  -11.0000 -15.0000 -5.0000
v  -11.0000 -15.0000 -9.0000
v  -11.0000 -13.0000 -9.0000
v  -11.0000 -11.0000 -7.0000
v  -11.0000 -11.0000 -5.0000
v  -11.0000 -11.0000 -9.0000
v  -11.0000 -9.0000 -7.0000
v  -11.0000 -9.0000 -5.0000
v  -11.0000 -9.0000 -9.0000
v  -11.0000 -15.0000 -1.0000
v  -11.0000 -13.0000 -1.0000
v  -11.0000 -13.0000 1.0000
v  -11.0000 -15.0000 1.0000
v  -11.0000 -15.0000 -3.0000
v  -11.0000 -13.0000 -3.0000
v  -11.0000 -11.0000 -1.0000
v  -11.0000 -11.0000 1.0000
v  -11.0000 -11.0000 -3.0000
v  -11.0000 -9.0000 -1.0000
v  -11.0000 -9.0000 1.0000
v  -11.0000 -9.0000 -3.0000
v  -11.0000 -15.0000 5.0000
v  -11.0000 -13.0000 5.0000
v  -11.0000 -13.0000 7.0000
v  -11.0000 -15.0000 7.0000
v  -11.0000 -15.0000 3.0000
v  -11.0000 -13.0000 3.0000
v  -11.0000 -11.0000 5.0000
v  -11.0000 -11.0000 7.0000
v  -11.0000 -11.0000 3.0000
v  -11.0000 -9.0000 5.0000
v  -11.0000 -9.0000 7.0000
v  -11.0000 -9.0000 3.0000
v  -11.0000 -15.0000 9.0000
v  -11.0000 -13.0000 9.0000
v  -11.0000 -13.0000 11.0000
v  -11.0000 -15.0000 11.0000
v  -11.0000 -11.0000 9.0000
v  -11.0000 -11.0000 11.0000
v  -11.0000 -9.0000 9.0000
v  -11.0000 -9.0000 11.0000
v  11.0000 -7.0000 -11.0000
v  9.0000 -7.0000 -11.0000
v  5.0000 -7.0000 -11.0000
v  3.0000 -7.0000 -11.0000
v  7.0000 -7.0000 -11.0000
v  5.0000 -5.0000 -11.0000
v  3.0000 -5.0000 -11.0000
v  5.0000 -3.0000 -11.0000
v  3.0000 -3.0000 -11.0000
v  -1.0000 -7.0000 -11.0000
v  -3.0000 -7.0000 -11.0000
v  1.0000 -7.0000 -11.0000
v  -1.0000 -5.0000 -11.0000
v  -3.0000 -5.0000 -11.0000
v  1.0000 -5.0000 -11.0000
v  -1.0000 -3.0000 -11.0000
v  -3.0000 -3.0000 -11.0000
v  1.0000 -3.0000 -11.0000
v  -5.0000 -7.0000 -11.0000
v  -5.0000 -5.0000 -11.0000
v  -5.0000 -3.0000 -11.0000
v  -9.0000 -7.0000 -11.0000
v  -11.0000 -7.0000 -11.0000
v  -7.0000 -7.0000 -11.0000
v  -9.0000 -5.0000 -11.0000
v  -11.0000 -5.0000 -11.0000
v  -7.0000 -5.0000 -11.0000
v  -9.0000 -3.0000 -11.0000
v  -11.0000 -3.0000 -11.0000
v  -7.0000 -3.0000 -11.0000
v  -11.0000 -7.0000 -7.0000
v  -11.0000 -7.0000 -5.0000
v  -11.0000 -7.0000 -9.0000
v  -11.0000 -5.0000 -7.0000
v  -11.0000 -5.0000 -5.0000
v  -11.0000 -5.0000 -9.0000
v  -11.0000 -3.0000 -7.0000
v  -11.0000 -3.0000 -5.0000
v  -11.0000 -3.0000 -9.0000
v  -11.0000 -7.0000 -1.0000
v  -11.0000 -7.0000 1.0000
v  -11.0000 -7.0000 -3.0000
v  -11.0000 -5.0000 -1.0000
v  -11.0000 -5.0000 1.0000
v  -11.0000 -5.0000 -3.0000
v  -11.0000 -3.0000 -1.0000
v  -11.0000 -3.0000 1.0000
v  -11.0000 -3.0000 -3.0000
v  -11.0000 -7.0000 5.0000
v  -11.0000 -7.0000 7.0000
v  -11.0000 -7.0000 3.0000
v  -11.0000 -5.0000 5.0000
v  -11.0000 -5.0000 7.0000
v  -11.0000 -5.0000 3.0000
v  -11.0000 -3.0000 5.0000
v  -11.0000 -3.0000 7.0000
v  -11.0000 -3.0000 3.0000
v  -11.0000 -7.0000 9.0000
v  -11.0000 -7.0000 11.0000
v  -11.0000 -5.0000 9.0000
v  -11.0000 -5.0000 11.0000
v  -11.0000 -3.0000 9.0000
v  -11.0000 -3.0000 11.0000
v  -11.0000 -1.0000 -7.0000
v  -11.0000 -1.0000 -5.0000
v  -11.0000 -1.0000 -9.0000
v  -11.0000 -1.0000 -1.0000
v  -11.0000 -1.0000 1.0000
v  -11.0000 -1.0000 -3.0000
v  -11.0000 -1.0000 5.0000
v  -11.0000 -1.0000 7.0000
v  -11.0000 -1.0000 3.0000
v  -11.0000 -1.0000 9.0000
v  -11.0000 -1.0000 11.0000
v  -11.0000 1.0000 -7.0000
v  -11.0000 1.0000 -5.0000
v  -11.0000 1.0000 -9.0000
v  -11.0000 3.0000 -7.0000
v  -11.0000 3.0000 -5.0000
v  -11.0000 3.0000 -9.0000
v  -11.0000 5.0000 -7.0000
v  -11.0000 5.0000 -5.0000
v  -11.0000 5.0000 -9.0000
v  -11.0000 1.0000 -1.0000
v  -11.0000 1.0000 1.0000
v  -11.0000 1.0000 -3.0000
v  -11.0000 3.0000 -1.0000
v  -11.0000 3.0000 1.0000
v  -11.0000 3.0000 -3.0000
v  -11.0000 5.0000 -1.0000
v  -11.0000 5.0000 1.0000
v  -11.0000 5.0000 -3.0000
v  -11.0000 1.0000 5.0000
v  -11.0000 1.0000 7.0000
v  -11.0000 1.0000 3.0000
v  -11.0000 3.0000 3.0000
v  -11.0000 3.0000 5.0000
v  -11.0000 5.0000 3.0000
v  -11.0000 5.0000 5.0000
v  -11.0000 1.0000 9.0000
v  -11.0000 1.0000 11.0000
v  -11.0000 7.0000 -7.0000
v  -11.0000 7.0000 -5.0000
v  -11.0000 7.0000 -9.0000
v  -11.0000 9.0000 -7.0000
v  -11.0000 9.0000 -5.0000
v  -11.0000 9.0000 -9.0000
v  -11.0000 11.0000 -7.0000
v  -11.0000 11.0000 -5.0000
v  -11.0000 11.0000 -9.0000
v  -11.0000 7.0000 -1.0000
v  -11.0000 7.0000 1.0000
v  -11.0000 7.0000 -3.0000
v  -11.0000 9.0000 -1.0000
v  -11.0000 9.0000 1.0000
v  -11.0000 9.0000 -3.0000
v  -11.0000 11.0000 -1.0000
v  -11.0000 11.0000 1.0000
v  -11.0000 11.0000 -3.0000
v  -11.0000 7.0000 3.0000
v  -11.0000 7.0000 5.0000
v  -11.0000 9.0000 5.0000
v  -11.0000 9.0000 7.0000
v  -11.0000 7.0000 7.0000
v  -11.0000 9.0000 3.0000
v  -11.0000 11.0000 5.0000
v  -11.0000 11.0000 7.0000
v  -11.0000 11.0000 3.0000
v  -11.0000 7.0000 9.0000
v  -11.0000 9.0000 9.0000
v  -11.0000 9.0000 11.0000
v  -11.0000 7.0000 11.0000
v  -11.0000 11.0000 9.0000
v  -11.0000 11.0000 11.0000
v  -11.0000 13.0000 -7.0000
v  -11.0000 13.0000 -5.0000
v  -11.0000 13.0000 -9.0000
v  -11.0000 13.0000 -1.0000
v  -11.0000 13.0000 1.0000
v  -11.0000 13.0000 -3.0000
v  -11.0000 13.0000 5.0000
v  -11.0000 13.0000 7.0000
v  -11.0000 13.0000 3.0000
v  -11.0000 13.0000 9.0000
v  -11.0000 13.0000 11.0000
v  -11.0000 15.0000 -7.0000
v  -11.0000 15.0000 -5.0000
v  -11.0000 15.0000 -9.0000
v  -11.0000 15.0000 -1.0000
v  -11.0000 15.0000 1.0000
v  -11.0000 15.0000 -3.0000
v  -11.0000 15.0000 5.0000
v  -11.0000 15.0000 7.0000
v  -11.0000 15.0000 3.0000
v  -11.0000 15.0000 9.0000
v  -11.0000 15.0000 11.0000
v  7.0000 -1.0000 11.0000
v  7.0001 1.0000 11.0000
v  9.0001 1.0000 11.0000
v  9.0000 -1.0000 11.0000
v  5.0000 -1.0000 11.0000
v  5.0001 1.0000 11.0000
v  3.0000 -1.0000 11.0000
v  3.0001 1.0000 11.0000
v  7.0001 3.0000 11.0000
v  9.0001 3.0000 11.0000
v  5.0001 3.0000 11.0000
v  3.0001 3.0000 11.0000
v  7.0001 5.0000 11.0000
v  9.0001 5.0000 11.0000
v  5.0001 5.0000 11.0000
v  3.0001 5.0000 11.0000
v  11.0000 1.0000 11.0000
v  11.0000 -1.0000 11.0000
v  11.0000 3.0000 11.0000
v  11.0000 5.0000 11.0000
v  7.0001 7.0000 11.0000
v  9.0001 7.0000 11.0000
v  5.0001 7.0000 11.0000
v  3.0001 7.0000 11.0000
v  7.0001 9.0000 11.0000
v  9.0001 9.0000 11.0000
v  5.0001 9.0000 11.0000
v  3.0001 9.0000 11.0000
v  7.0001 11.0000 11.0000
v  9.0001 11.0000 11.0000
v  5.0001 11.0000 11.0000
v  3.0001 11.0000 11.0000
v  11.0000 7.0000 11.0000
v  11.0000 9.0000 11.0000
v  11.0000 11.0000 11.0000
v  7.0001 13.0000 11.0000
v  9.0001 13.0000 11.0000
v  5.0001 13.0000 11.0000
v  3.0001 13.0000 11.0000
v  11.0000 13.0000 11.0000
v  -9.0000 -1.0000 11.0000
v  -8.9999 1.0000 11.0000
v  -6.9999 1.0000 11.0000
v  -7.0000 -1.0000 11.0000
v  -8.9999 3.0000 11.0000
v  -6.9999 3.0000 11.0000
v  -10.9999 3.0000 11.0000
v  -8.9999 5.0000 11.0000
v  -6.9999 5.0000 11.0000
v  -10.9999 5.0000 11.0000
v  -3.0000 -1.0000 11.0000
v  -2.9999 1.0000 11.0000
v  -0.9999 1.0000 11.0000
v  -1.0000 -1.0000 11.0000
v  -5.0000 -1.0000 11.0000
v  -4.9999 1.0000 11.0000
v  -2.9999 3.0000 11.0000
v  -0.9999 3.0000 11.0000
v  -4.9999 3.0000 11.0000
v  -2.9999 5.0000 11.0000
v  -0.9999 5.0000 11.0000
v  -4.9999 5.0000 11.0000
v  1.0000 -1.0000 11.0000
v  1.0001 1.0000 11.0000
v  1.0001 3.0000 11.0000
v  1.0001 5.0000 11.0000
v  -8.9999 7.0000 11.0000
v  -6.9999 7.0000 11.0000
v  -8.9999 9.0000 11.0000
v  -6.9999 9.0000 11.0000
v  -8.9999 11.0000 11.0000
v  -6.9999 11.0000 11.0000
v  -2.9999 7.0000 11.0000
v  -0.9999 7.0000 11.0000
v  -4.9999 7.0000 11.0000
v  -2.9999 9.0000 11.0000
v  -0.9999 9.0000 11.0000
v  -4.9999 9.0000 11.0000
v  -2.9999 11.0000 11.0000
v  -0.9999 11.0000 11.0000
v  -4.9999 11.0000 11.0000
v  1.0001 7.0000 11.0000
v  1.0001 9.0000 11.0000
v  1.0001 11.0000 11.0000
v  -8.9999 13.0000 11.0000
v  -6.9999 13.0000 11.0000
v  -2.9999 13.0000 11.0000
v  -0.9999 13.0000 11.0000
v  -4.9999 13.0000 11.0000
v  1.0001 13.0000 11.0000
v  7.0001 15.0000 11.0000
v  9.0001 15.0000 11.0000
v  5.0001 15.0000 11.0000
v  3.0001 15.0000 11.0000
v  11.0000 15.0000 11.0000
v  -8.9999 15.0000 11.0000
v  -6.9999 15.0000 11.0000
v  -2.9999 15.0000 11.0000
v  -0.9999 15.0000 11.0000
v  -4.9999 15.0000 11.0000
v  1.0001 15.0000 11.0000
v  -5.0000 -15.0000 11.0000
v  -5.0000 -13.0000 11.0000
v  -3.0000 -13.0000 11.0000
v  -3.0000 -15.0000 11.0000
v  -5.0000 -11.0000 11.0000
v  -3.0000 -11.0000 11.0000
v  -5.0000 -9.0000 11.0000
v  -3.0000 -9.0000 11.0000
v  1.0000 -15.0000 11.0000
v  1.0000 -13.0000 11.0000
v  3.0000 -13.0000 11.0000
v  3.0000 -15.0000 11.0000
v  -1.0000 -15.0000 11.0000
v  -1.0000 -13.0000 11.0000
v  1.0000 -11.0000 11.0000
v  3.0000 -11.0000 11.0000
v  -1.0000 -11.0000 11.0000
v  1.0000 -9.0000 11.0000
v  3.0000 -9.0000 11.0000
v  -1.0000 -9.0000 11.0000
v  5.0000 -13.0000 11.0000
v  5.0000 -15.0000 11.0000
v  5.0000 -11.0000 11.0000
v  5.0000 -9.0000 11.0000
v  9.0000 -15.0000 11.0000
v  9.0000 -13.0000 11.0000
v  11.0000 -13.0000 11.0000
v  11.0000 -15.0000 11.0000
v  7.0000 -15.0000 11.0000
v  7.0000 -13.0000 11.0000
v  9.0000 -11.0000 11.0000
v  11.0000 -11.0000 11.0000
v  7.0000 -11.0000 11.0000
v  9.0000 -9.0000 11.0000
v  11.0000 -9.0000 11.0000
v  7.0000 -9.0000 11.0000
v  11.0000 -15.0000 1.0000
v  11.0000 -13.0000 1.0000
v  11.0000 -13.0000 -1.0000
v  11.0000 -15.0000 -1.0000
v  11.0000 -15.0000 3.0000
v  11.0000 -13.0000 3.0000
v  11.0000 -15.0000 5.0000
v  11.0000 -13.0000 5.0000
v  11.0000 -11.0000 1.0000
v  11.0000 -11.0000 -1.0000
v  11.0000 -11.0000 3.0000
v  11.0000 -11.0000 5.0000
v  11.0000 -9.0000 1.0000
v  11.0000 -9.0000 -1.0000
v  11.0000 -9.0000 3.0000
v  11.0000 -9.0000 5.0000
v  11.0000 -15.0000 -5.0000
v  11.0000 -13.0000 -5.0000
v  11.0000 -13.0000 -7.0000
v  11.0000 -15.0000 -7.0000
v  11.0000 -15.0000 -3.0000
v  11.0000 -13.0000 -3.0000
v  11.0000 -11.0000 -5.0000
v  11.0000 -11.0000 -7.0000
v  11.0000 -11.0000 -3.0000
v  11.0000 -9.0000 -5.0000
v  11.0000 -9.0000 -7.0000
v  11.0000 -9.0000 -3.0000
v  11.0000 -15.0000 -9.0000
v  11.0000 -13.0000 -9.0000
v  11.0000 -11.0000 -9.0000
v  11.0000 -9.0000 -9.0000
v  -9.0000 -7.0000 11.0000
v  -9.0000 -9.0000 11.0000
v  -9.0000 -5.0000 11.0000
v  -9.0000 -3.0000 11.0000
v  -5.0000 -7.0000 11.0000
v  -3.0000 -7.0000 11.0000
v  -7.0000 -9.0000 11.0000
v  -7.0000 -7.0000 11.0000
v  -5.0000 -5.0000 11.0000
v  -3.0000 -5.0000 11.0000
v  -7.0000 -5.0000 11.0000
v  -5.0000 -3.0000 11.0000
v  -3.0000 -3.0000 11.0000
v  -7.0000 -3.0000 11.0000
v  1.0000 -7.0000 11.0000
v  3.0000 -7.0000 11.0000
v  -1.0000 -7.0000 11.0000
v  1.0000 -5.0000 11.0000
v  3.0000 -5.0000 11.0000
v  -1.0000 -5.0000 11.0000
v  1.0000 -3.0000 11.0000
v  3.0000 -3.0000 11.0000
v  -1.0000 -3.0000 11.0000
v  5.0000 -7.0000 11.0000
v  5.0000 -5.0000 11.0000
v  5.0000 -3.0000 11.0000
v  9.0000 -7.0000 11.0000
v  11.0000 -7.0000 11.0000
v  7.0000 -7.0000 11.0000
v  9.0000 -5.0000 11.0000
v  11.0000 -5.0000 11.0000
v  7.0000 -5.0000 11.0000
v  9.0000 -3.0000 11.0000
v  11.0000 -3.0000 11.0000
v  7.0000 -3.0000 11.0000
v  11.0000 -9.0000 7.0000
v  11.0000 -7.0000 7.0000
v  11.0000 -7.0000 5.0000
v  11.0000 -9.0000 9.0000
v  11.0000 -7.0000 9.0000
v  11.0000 -5.0000 7.0000
v  11.0000 -5.0000 5.0000
v  11.0000 -5.0000 9.0000
v  11.0000 -3.0000 7.0000
v  11.0000 -3.0000 5.0000
v  11.0000 -3.0000 9.0000
v  11.0000 -7.0000 1.0000
v  11.0000 -7.0000 -1.0000
v  11.0000 -7.0000 3.0000
v  11.0000 -5.0000 1.0000
v  11.0000 -5.0000 -1.0000
v  11.0000 -5.0000 3.0000
v  11.0000 -3.0000 1.0000
v  11.0000 -3.0000 -1.0000
v  11.0000 -3.0000 3.0000
v  11.0000 -7.0000 -5.0000
v  11.0000 -7.0000 -7.0000
v  11.0000 -7.0000 -3.0000
v  11.0000 -5.0000 -5.0000
v  11.0000 -5.0000 -7.0000
v  11.0000 -5.0000 -3.0000
v  11.0000 -3.0000 -5.0000
v  11.0000 -3.0000 -7.0000
v  11.0000 -3.0000 -3.0000
v  11.0000 -7.0000 -9.0000
v  11.0000 -5.0000 -9.0000
v  11.0000 -5.0000 -11.0000
v  11.0000 -3.0000 -9.0000
v  11.0000 -3.0000 -11.0000
v  11.0000 -1.0000 7.0000
v  11.0000 -1.0000 5.0000
v  11.0000 -1.0000 9.0000
v  11.0000 -1.0000 1.0000
v  11.0000 -1.0000 -1.0000
v  11.0000 -1.0000 3.0000
v  11.0000 -1.0000 -5.0000
v  11.0000 -1.0000 -7.0000
v  11.0000 -1.0000 -3.0000
v  11.0000 -1.0000 -9.0000
v  11.0000 1.0000 7.0000
v  11.0000 1.0000 5.0000
v  11.0000 1.0000 9.0000
v  11.0000 3.0000 7.0000
v  11.0000 3.0000 5.0000
v  11.0000 3.0000 9.0000
v  11.0000 5.0000 7.0000
v  11.0000 5.0000 5.0000
v  11.0000 5.0000 9.0000
v  11.0000 1.0000 1.0000
v  11.0000 1.0000 -1.0000
v  11.0000 1.0000 3.0000
v  11.0000 3.0000 1.0000
v  11.0000 3.0000 -1.0000
v  11.0000 3.0000 3.0000
v  11.0000 5.0000 1.0000
v  11.0000 5.0000 -1.0000
v  11.0000 5.0000 3.0000
v  11.0000 1.0000 -5.0000
v  11.0000 1.0000 -7.0000
v  11.0000 1.0000 -3.0000
v  11.0000 3.0000 -5.0000
v  11.0000 3.0000 -7.0000
v  11.0000 3.0000 -3.0000
v  11.0000 5.0000 -5.0000
v  11.0000 5.0000 -7.0000
v  11.0000 5.0000 -3.0000
v  11.0000 1.0000 -9.0000
v  11.0000 3.0000 -9.0000
v  11.0000 5.0000 -9.0000
v  11.0000 7.0000 7.0000
v  11.0000 7.0000 5.0000
v  11.0000 7.0000 9.0000
v  11.0000 9.0000 7.0000
v  11.0000 9.0000 5.0000
v  11.0000 9.0000 9.0000
v  11.0000 11.0000 7.0000
v  11.0000 11.0000 5.0000
v  11.0000 11.0000 9.0000
v  11.0000 7.0000 1.0000
v  11.0000 7.0000 -1.0000
v  11.0000 7.0000 3.0000
v  11.0000 9.0000 1.0000
v  11.0000 9.0000 -1.0000
v  11.0000 9.0000 3.0000
v  11.0000 11.0000 1.0000
v  11.0000 11.0000 -1.0000
v  11.0000 11.0000 3.0000
v  11.0000 7.0000 -5.0000
v  11.0000 7.0000 -7.0000
v  11.0000 7.0000 -3.0000
v  11.0000 9.0000 -5.0000
v  11.0000 9.0000 -7.0000
v  11.0000 9.0000 -3.0000
v  11.0000 11.0000 -3.0000
v  11.0000 11.0000 -5.0000
v  11.0000 7.0000 -9.0000
v  11.0000 9.0000 -9.0000
v  11.0000 13.0000 7.0000
v  11.0000 13.0000 5.0000
v  11.0000 13.0000 9.0000
v  11.0000 13.0000 1.0000
v  11.0000 13.0000 -1.0000
v  11.0000 13.0000 3.0000
v  11.0000 13.0000 -3.0000
v  11.0000 13.0000 -5.0000
v  11.0000 15.0000 7.0000
v  11.0000 15.0000 5.0000
v  11.0000 15.0000 9.0000
v  11.0000 15.0000 1.0000
v  11.0000 15.0000 -1.0000
v  11.0000 15.0000 3.0000
v  11.0000 15.0000 -3.0000
v  11.0000 15.0000 -5.0000
# 678 vertices

vn 0.0000 -0.0000 1.0000
vn -0.0000 -0.0000 1.0000
vn 0.0000 0.0000 1.0000
vn -0.0000 0.0000 1.0000
vn 0.7071 0.0000 0.7071
vn -0.8944 -0.0000 0.4472
vn -0.7071 -0.0000 0.7071
vn -0.7071 0.0000 0.7071
vn -0.4472 -0.0000 0.8944
vn 0.7071 -0.0000 0.7071
vn 1.0000 0.0000 0.0000
vn 1.0000 0.0000 -0.0000
vn 0.8944 0.0000 -0.4472
vn 1.0000 -0.0000 0.0000
vn 1.0000 -0.0000 -0.0000
vn 0.7071 0.0000 -0.7071
vn 0.7071 -0.0000 -0.7071
vn 0.4472 -0.0000 -0.8944
vn 0.4472 0.0000 -0.8944
vn -0.0000 -0.0000 -1.0000
vn -0.0000 0.0000 -1.0000
vn -0.7071 0.0000 -0.7071
vn -0.7071 -0.0000 -0.7071
vn 0.0000 0.0000 -1.0000
vn -0.4472 0.0000 -0.8944
vn -1.0000 0.0000 0.0000
vn -1.0000 0.0000 -0.0000
vn 0.0000 -0.0000 -1.0000
vn -1.0000 -0.0000 -0.0000
vn -1.0000 -0.0000 0.0000
# 30 vertex normals

vt 0.3333 -0.9999 0.0000
vt 0.3333 -0.6666 0.0000
vt 0.0000 -0.6666 0.0000
vt 0.0000 -0.9999 0.0000
vt 0.6666 -0.9999 0.0000
vt 0.6666 -0.6666 0.0000
vt 0.9999 -0.9999 0.0000
vt 0.9999 -0.6667 0.0000
vt 0.3334 -0.3334 0.0000
vt 0.0001 -0.3334 0.0000
vt 0.6666 -0.3334 0.0000
vt 0.9999 -0.3333 0.0000
vt 0.3334 -0.0001 0.0000
vt 0.0001 -0.0001 0.0000
vt 0.6666 -0.0001 0.0000
vt 0.9999 -0.0001 0.0000
# 16 texture coords

o Object57124064
g Object57124064
f 1/1/1 2/2/1 3/3/2 4/4/1 
f 5/5/2 6/6/1 2/2/1 1/1/1 
f 7/7/1 8/8/1 6/6/1 5/5/2 
f 2/2/1 9/9/3 10/10/4 3/3/2 
f 6/6/1 11/11/3 9/9/3 2/2/1 
f 8/8/1 12/12/3 11/11/3 6/6/1 
f 9/9/3 13/13/3 14/14/4 10/10/4 
f 11/11/3 15/15/3 13/13/3 9/9/3 
f 12/12/3 16/16/3 15/15/3 11/11/3 
f 4/7/1 3/8/2 17/6/5 18/5/5 
f 3/8/2 10/12/4 19/11/5 17/6/5 
f 10/12/4 14/16/4 20/15/5 19/11/5 
f 13/1/3 21/2/3 22/3/4 14/4/4 
f 15/5/3 23/6/3 21/2/3 13/1/3 
f 16/7/3 24/8/3 23/6/3 15/5/3 
f 21/2/3 25/9/3 26/10/4 22/3/4 
f 23/6/3 27/11/3 25/9/3 21/2/3 
f 24/8/3 28/12/3 27/11/3 23/6/3 
f 25/9/3 29/13/3 30/14/2 26/10/4 
f 27/11/3 31/15/3 29/13/3 25/9/3 
f 28/12/3 32/16/3 31/15/3 27/11/3 
f 14/7/4 22/8/4 33/6/5 20/5/5 
f 22/8/4 26/12/4 34/11/5 33/6/5 
f 26/12/4 30/16/2 35/15/5 34/11/5 
f 29/1/3 36/2/3 37/3/2 30/4/2 
f 31/5/3 38/6/3 36/2/3 29/1/3 
f 32/7/3 39/8/3 38/6/3 31/5/3 
f 30/7/2 37/8/2 40/6/5 35/5/5 
f 41/1/1 42/2/1 43/3/1 44/4/1 
f 45/5/6 46/6/7 42/2/1 41/1/1 
f 42/2/1 47/9/1 48/10/3 43/3/1 
f 46/6/7 49/11/8 47/9/1 42/2/1 
f 47/9/1 50/13/1 51/14/3 48/10/3 
f 49/11/8 52/15/7 50/13/1 47/9/1 
f 53/1/1 54/2/1 55/3/1 56/4/1 
f 57/5/1 58/6/1 54/2/1 53/1/1 
f 44/7/1 43/8/1 58/6/1 57/5/1 
f 54/2/1 59/9/3 60/10/3 55/3/1 
f 58/6/1 61/11/3 59/9/3 54/2/1 
f 43/8/1 48/12/3 61/11/3 58/6/1 
f 59/9/3 62/13/3 63/14/3 60/10/3 
f 61/11/3 64/15/3 62/13/3 59/9/3 
f 48/12/3 51/16/3 64/15/3 61/11/3 
f 65/5/1 66/6/1 8/2/1 7/1/1 
f 56/7/1 55/8/1 66/6/1 65/5/1 
f 66/6/1 67/11/3 12/9/3 8/2/1 
f 55/8/1 60/12/3 67/11/3 66/6/1 
f 67/11/3 68/15/3 16/13/3 12/9/3 
f 60/12/3 63/16/3 68/15/3 67/11/3 
f 50/1/1 69/2/3 70/3/3 51/4/3 
f 52/5/7 71/6/8 69/2/3 50/1/1 
f 69/2/3 72/9/3 73/10/3 70/3/3 
f 71/6/8 74/11/9 72/9/3 69/2/3 
f 72/9/3 75/13/3 76/14/3 73/10/3 
f 74/11/9 77/15/1 75/13/3 72/9/3 
f 62/1/3 78/2/3 79/3/3 63/4/3 
f 64/5/3 80/6/3 78/2/3 62/1/3 
f 51/7/3 70/8/3 80/6/3 64/5/3 
f 78/2/3 81/9/3 82/10/3 79/3/3 
f 80/6/3 83/11/3 81/9/3 78/2/3 
f 70/8/3 73/12/3 83/11/3 80/6/3 
f 81/9/3 84/13/3 85/14/3 82/10/3 
f 83/11/3 86/15/3 84/13/3 81/9/3 
f 73/12/3 76/16/3 86/15/3 83/11/3 
f 68/5/3 87/6/3 24/2/3 16/1/3 
f 63/7/3 79/8/3 87/6/3 68/5/3 
f 87/6/3 88/11/3 28/9/3 24/2/3 
f 79/8/3 82/12/3 88/11/3 87/6/3 
f 88/11/3 89/15/3 32/13/3 28/9/3 
f 82/12/3 85/16/3 89/15/3 88/11/3 
f 75/1/3 90/2/3 91/3/3 76/4/3 
f 77/5/1 92/6/3 90/2/3 75/1/3 
f 84/1/3 93/2/3 94/3/3 85/4/3 
f 86/5/3 95/6/3 93/2/3 84/1/3 
f 76/7/3 91/8/3 95/6/3 86/5/3 
f 89/5/3 96/6/3 39/2/3 32/1/3 
f 85/7/3 94/8/3 96/6/3 89/5/3 
f 36/1/3 97/2/3 98/3/4 37/4/2 
f 38/5/3 99/6/3 97/2/3 36/1/3 
f 39/7/3 100/8/3 99/6/3 38/5/3 
f 37/7/2 98/8/4 101/6/10 40/5/5 
f 90/1/3 102/2/3 103/3/3 91/4/3 
f 92/5/3 104/6/3 102/2/3 90/1/3 
f 93/1/3 105/2/3 106/3/3 94/4/3 
f 95/5/3 107/6/3 105/2/3 93/1/3 
f 91/7/3 103/8/3 107/6/3 95/5/3 
f 96/5/3 108/6/3 100/2/3 39/1/3 
f 94/7/3 106/8/3 108/6/3 96/5/3 
f 109/1/8 110/2/8 111/3/3 112/4/3 
f 110/2/8 113/9/8 114/10/3 111/3/3 
f 113/9/8 115/13/8 116/14/3 114/10/3 
f 117/1/3 118/2/3 119/3/3 120/4/3 
f 121/5/3 122/6/3 118/2/3 117/1/3 
f 112/7/3 111/8/3 122/6/3 121/5/3 
f 118/2/3 123/9/3 124/10/3 119/3/3 
f 122/6/3 125/11/3 123/9/3 118/2/3 
f 111/8/3 114/12/3 125/11/3 122/6/3 
f 123/9/3 126/13/3 127/14/3 124/10/3 
f 125/11/3 128/15/3 126/13/3 123/9/3 
f 114/12/3 116/16/3 128/15/3 125/11/3 
f 129/1/4 130/2/4 131/3/3 132/4/3 
f 133/5/4 134/6/4 130/2/4 129/1/4 
f 120/7/3 119/8/3 134/6/4 133/5/4 
f 130/2/4 135/9/4 136/10/1 131/3/3 
f 134/6/4 137/11/4 135/9/4 130/2/4 
f 119/8/3 124/12/3 137/11/4 134/6/4 
f 135/9/4 138/13/4 139/14/1 136/10/1 
f 137/11/4 140/15/4 138/13/4 135/9/4 
f 124/12/3 127/16/3 140/15/4 137/11/4 
f 132/1/3 131/2/3 141/3/3 142/4/3 
f 131/2/3 136/9/1 143/10/3 141/3/3 
f 136/9/1 139/13/1 144/14/3 143/10/3 
f 145/1/3 146/2/3 147/3/5 148/4/5 
f 149/5/3 150/6/3 146/2/3 145/1/3 
f 142/7/3 141/8/3 150/6/3 149/5/3 
f 146/2/3 151/9/3 152/10/5 147/3/5 
f 150/6/3 153/11/3 151/9/3 146/2/3 
f 141/8/3 143/12/3 153/11/3 150/6/3 
f 151/9/3 154/13/3 155/14/5 152/10/5 
f 153/11/3 156/15/3 154/13/3 151/9/3 
f 143/12/3 144/16/3 156/15/3 153/11/3 
f 157/1/11 158/2/11 159/3/11 160/4/11 
f 161/5/11 162/6/11 158/2/11 157/1/11 
f 148/7/5 147/8/5 162/6/11 161/5/11 
f 158/2/11 163/9/11 164/10/11 159/3/11 
f 162/6/11 165/11/11 163/9/11 158/2/11 
f 147/8/5 152/12/5 165/11/11 162/6/11 
f 163/9/11 166/13/11 167/14/11 164/10/11 
f 165/11/11 168/15/11 166/13/11 163/9/11 
f 152/12/5 155/16/5 168/15/11 165/11/11 
f 169/1/12 170/2/12 171/3/12 172/4/12 
f 173/5/12 174/6/12 170/2/12 169/1/12 
f 160/7/11 159/8/11 174/6/12 173/5/12 
f 170/2/12 175/9/12 176/10/12 171/3/12 
f 174/6/12 177/11/12 175/9/12 170/2/12 
f 159/8/11 164/12/11 177/11/12 174/6/12 
f 175/9/12 178/13/12 179/14/12 176/10/12 
f 177/11/12 180/15/12 178/13/12 175/9/12 
f 164/12/11 167/16/11 180/15/12 177/11/12 
f 181/1/11 182/2/11 183/3/12 184/4/12 
f 185/5/11 186/6/11 182/2/11 181/1/11 
f 172/7/12 171/8/12 186/6/11 185/5/11 
f 182/2/11 187/9/11 188/10/12 183/3/12 
f 186/6/11 189/11/11 187/9/11 182/2/11 
f 171/8/12 176/12/12 189/11/11 186/6/11 
f 187/9/11 190/13/11 191/14/12 188/10/12 
f 189/11/11 192/15/11 190/13/11 187/9/11 
f 176/12/12 179/16/12 192/15/11 189/11/11 
f 193/5/12 194/6/12 195/2/12 196/1/12 
f 184/7/12 183/8/12 194/6/12 193/5/12 
f 194/6/12 197/11/12 198/9/12 195/2/12 
f 183/8/12 188/12/12 197/11/12 194/6/12 
f 197/11/12 199/15/11 200/13/13 198/9/12 
f 188/12/12 191/16/12 199/15/11 197/11/12 
f 115/1/8 201/2/6 202/3/3 116/4/3 
f 126/1/3 203/2/3 204/3/3 127/4/3 
f 128/5/3 205/6/3 203/2/3 126/1/3 
f 116/7/3 202/8/3 205/6/3 128/5/3 
f 203/2/3 206/9/3 207/10/3 204/3/3 
f 206/9/3 208/13/1 209/14/1 207/10/3 
f 138/1/4 210/2/4 211/3/3 139/4/1 
f 140/5/4 212/6/4 210/2/4 138/1/4 
f 127/7/3 204/8/3 212/6/4 140/5/4 
f 210/2/4 213/9/4 214/10/1 211/3/3 
f 212/6/4 215/11/4 213/9/4 210/2/4 
f 204/8/3 207/12/3 215/11/4 212/6/4 
f 213/9/4 216/13/2 217/14/1 214/10/1 
f 215/11/4 218/15/2 216/13/2 213/9/4 
f 207/12/3 209/16/1 218/15/2 215/11/4 
f 139/1/1 211/2/3 219/3/3 144/4/3 
f 211/2/3 214/9/1 220/10/3 219/3/3 
f 214/9/1 217/13/1 221/14/1 220/10/3 
f 154/1/3 222/2/3 223/3/5 155/4/5 
f 156/5/3 224/6/3 222/2/3 154/1/3 
f 144/7/3 219/8/3 224/6/3 156/5/3 
f 222/2/3 225/9/3 226/10/5 223/3/5 
f 224/6/3 227/11/3 225/9/3 222/2/3 
f 219/8/3 220/12/3 227/11/3 224/6/3 
f 225/9/3 228/13/1 229/14/5 226/10/5 
f 227/11/3 230/15/1 228/13/1 225/9/3 
f 220/12/3 221/16/1 230/15/1 227/11/3 
f 166/1/11 231/2/11 232/3/11 167/4/11 
f 168/5/11 233/6/11 231/2/11 166/1/11 
f 155/7/5 223/8/5 233/6/11 168/5/11 
f 231/2/11 234/9/11 235/10/11 232/3/11 
f 233/6/11 236/11/11 234/9/11 231/2/11 
f 223/8/5 226/12/5 236/11/11 233/6/11 
f 234/9/11 237/13/11 238/14/11 235/10/11 
f 236/11/11 239/15/11 237/13/11 234/9/11 
f 226/12/5 229/16/5 239/15/11 236/11/11 
f 178/1/12 240/2/12 241/3/12 179/4/12 
f 180/5/12 242/6/12 240/2/12 178/1/12 
f 167/7/11 232/8/11 242/6/12 180/5/12 
f 240/2/12 243/9/12 244/10/12 241/3/12 
f 242/6/12 245/11/12 243/9/12 240/2/12 
f 232/8/11 235/12/11 245/11/12 242/6/12 
f 243/9/12 246/13/12 247/14/12 244/10/12 
f 245/11/12 248/15/12 246/13/12 243/9/12 
f 235/12/11 238/16/11 248/15/12 245/11/12 
f 190/1/11 249/2/11 250/3/12 191/4/12 
f 192/5/11 251/6/11 249/2/11 190/1/11 
f 179/7/12 241/8/12 251/6/11 192/5/11 
f 249/2/11 252/9/11 253/10/12 250/3/12 
f 251/6/11 254/11/11 252/9/11 249/2/11 
f 241/8/12 244/12/12 254/11/11 251/6/11 
f 252/9/11 255/13/14 256/14/15 253/10/12 
f 254/11/11 257/15/11 255/13/14 252/9/11 
f 244/12/12 247/16/12 257/15/11 254/11/11 
f 199/5/11 258/6/11 259/2/16 200/1/13 
f 191/7/12 250/8/12 258/6/11 199/5/11 
f 258/6/11 260/11/11 261/9/16 259/2/16 
f 250/8/12 253/12/12 260/11/11 258/6/11 
f 260/11/11 262/15/11 263/13/17 261/9/16 
f 253/12/12 256/16/15 262/15/11 260/11/11 
f 208/1/1 57/2/1 53/3/1 209/4/1 
f 216/1/2 65/2/1 7/3/1 217/4/1 
f 218/5/2 56/6/1 65/2/1 216/1/2 
f 209/7/1 53/8/1 56/6/1 218/5/2 
f 217/1/1 7/2/1 5/3/2 221/4/1 
f 228/1/1 4/2/1 18/3/5 229/4/5 
f 230/5/1 1/6/1 4/2/1 228/1/1 
f 221/7/1 5/8/2 1/6/1 230/5/1 
f 237/1/11 264/2/11 265/3/11 238/4/11 
f 239/5/11 266/6/15 264/2/11 237/1/11 
f 229/7/5 18/8/5 266/6/15 239/5/11 
f 246/1/12 267/2/12 268/3/12 247/4/12 
f 248/5/12 269/6/12 267/2/12 246/1/12 
f 238/7/11 265/8/11 269/6/12 248/5/12 
f 255/1/14 270/2/14 271/3/14 256/4/15 
f 257/5/11 272/6/11 270/2/14 255/1/14 
f 247/7/12 268/8/12 272/6/11 257/5/11 
f 262/5/11 273/6/12 274/2/17 263/1/17 
f 256/7/15 271/8/14 273/6/12 262/5/11 
f 264/1/11 275/2/11 276/3/11 265/4/11 
f 266/5/15 277/6/15 275/2/11 264/1/11 
f 18/7/5 17/8/5 277/6/15 266/5/15 
f 275/2/11 278/9/11 279/10/11 276/3/11 
f 277/6/15 280/11/12 278/9/11 275/2/11 
f 17/8/5 19/12/5 280/11/12 277/6/15 
f 278/9/11 281/13/11 282/14/11 279/10/11 
f 280/11/12 283/15/12 281/13/11 278/9/11 
f 19/12/5 20/16/5 283/15/12 280/11/12 
f 267/1/12 284/2/12 285/3/12 268/4/12 
f 269/5/12 286/6/12 284/2/12 267/1/12 
f 265/7/11 276/8/11 286/6/12 269/5/12 
f 284/2/12 287/9/12 288/10/12 285/3/12 
f 286/6/12 289/11/12 287/9/12 284/2/12 
f 276/8/11 279/12/11 289/11/12 286/6/12 
f 287/9/12 290/13/12 291/14/12 288/10/12 
f 289/11/12 292/15/12 290/13/12 287/9/12 
f 279/12/11 282/16/11 292/15/12 289/11/12 
f 270/1/14 293/2/15 294/3/14 271/4/14 
f 272/5/11 295/6/12 293/2/15 270/1/14 
f 268/7/12 285/8/12 295/6/12 272/5/11 
f 295/6/12 296/11/12 297/9/12 293/2/15 
f 285/8/12 288/12/12 296/11/12 295/6/12 
f 296/11/12 298/15/12 299/13/12 297/9/12 
f 288/12/12 291/16/12 298/15/12 296/11/12 
f 273/5/12 300/6/12 301/2/18 274/1/17 
f 271/7/14 294/8/14 300/6/12 273/5/12 
f 281/1/11 302/2/11 303/3/11 282/4/11 
f 283/5/12 304/6/12 302/2/11 281/1/11 
f 20/7/5 33/8/5 304/6/12 283/5/12 
f 302/2/11 305/9/11 306/10/11 303/3/11 
f 304/6/12 307/11/12 305/9/11 302/2/11 
f 33/8/5 34/12/5 307/11/12 304/6/12 
f 305/9/11 308/13/11 309/14/11 306/10/11 
f 307/11/12 310/15/12 308/13/11 305/9/11 
f 34/12/5 35/16/5 310/15/12 307/11/12 
f 290/1/12 311/2/12 312/3/12 291/4/12 
f 292/5/12 313/6/12 311/2/12 290/1/12 
f 282/7/11 303/8/11 313/6/12 292/5/12 
f 311/2/12 314/9/12 315/10/12 312/3/12 
f 313/6/12 316/11/12 314/9/12 311/2/12 
f 303/8/11 306/12/11 316/11/12 313/6/12 
f 314/9/12 317/13/12 318/14/12 315/10/12 
f 316/11/12 319/15/12 317/13/12 314/9/12 
f 306/12/11 309/16/11 319/15/12 316/11/12 
f 298/5/12 320/6/12 321/2/12 299/1/12 
f 291/7/12 312/8/12 320/6/12 298/5/12 
f 321/2/12 322/9/12 323/10/11 324/3/11 
f 320/6/12 325/11/12 322/9/12 321/2/12 
f 312/8/12 315/12/12 325/11/12 320/6/12 
f 322/9/12 326/13/12 327/14/11 323/10/11 
f 325/11/12 328/15/12 326/13/12 322/9/12 
f 315/12/12 318/16/12 328/15/12 325/11/12 
f 329/6/12 330/11/12 331/9/16 332/2/19 
f 324/8/11 323/12/11 330/11/12 329/6/12 
f 330/11/12 333/15/12 334/13/16 331/9/16 
f 323/12/11 327/16/11 333/15/12 330/11/12 
f 308/1/11 335/2/11 336/3/11 309/4/11 
f 310/5/12 337/6/12 335/2/11 308/1/11 
f 35/7/5 40/8/5 337/6/12 310/5/12 
f 317/1/12 338/2/12 339/3/12 318/4/12 
f 319/5/12 340/6/12 338/2/12 317/1/12 
f 309/7/11 336/8/11 340/6/12 319/5/12 
f 326/1/12 341/2/12 342/3/11 327/4/11 
f 328/5/12 343/6/12 341/2/12 326/1/12 
f 318/7/12 339/8/12 343/6/12 328/5/12 
f 333/5/12 344/6/12 345/2/16 334/1/16 
f 327/7/11 342/8/11 344/6/12 333/5/12 
f 335/1/11 346/2/11 347/3/11 336/4/11 
f 337/5/12 348/6/12 346/2/11 335/1/11 
f 40/7/5 101/8/10 348/6/12 337/5/12 
f 338/1/12 349/2/12 350/3/12 339/4/12 
f 340/5/12 351/6/12 349/2/12 338/1/12 
f 336/7/11 347/8/11 351/6/12 340/5/12 
f 341/1/12 352/2/12 353/3/11 342/4/11 
f 343/5/12 354/6/12 352/2/12 341/1/12 
f 339/7/12 350/8/12 354/6/12 343/5/12 
f 344/5/12 355/6/12 356/2/16 345/1/16 
f 342/7/11 353/8/11 355/6/12 344/5/12 
f 357/1/20 358/2/21 359/3/21 360/4/20 
f 361/5/20 362/6/21 358/2/21 357/1/20 
f 363/7/20 364/8/21 362/6/21 361/5/20 
f 358/2/21 365/9/21 366/10/21 359/3/21 
f 362/6/21 367/11/21 365/9/21 358/2/21 
f 364/8/21 368/12/21 367/11/21 362/6/21 
f 365/9/21 369/13/21 370/14/21 366/10/21 
f 367/11/21 371/15/21 369/13/21 365/9/21 
f 368/12/21 372/16/21 371/15/21 367/11/21 
f 360/7/20 359/8/21 373/6/22 374/5/22 
f 359/8/21 366/12/21 375/11/22 373/6/22 
f 366/12/21 370/16/21 376/15/22 375/11/22 
f 369/1/21 377/2/21 378/3/21 370/4/21 
f 371/5/21 379/6/21 377/2/21 369/1/21 
f 372/7/21 380/8/21 379/6/21 371/5/21 
f 377/2/21 381/9/21 382/10/21 378/3/21 
f 379/6/21 383/11/21 381/9/21 377/2/21 
f 380/8/21 384/12/21 383/11/21 379/6/21 
f 381/9/21 385/13/21 386/14/21 382/10/21 
f 383/11/21 387/15/21 385/13/21 381/9/21 
f 384/12/21 388/16/21 387/15/21 383/11/21 
f 370/7/21 378/8/21 389/6/22 376/5/22 
f 378/8/21 382/12/21 390/11/22 389/6/22 
f 382/12/21 386/16/21 391/15/22 390/11/22 
f 385/1/21 392/2/21 393/3/21 386/4/21 
f 387/5/21 394/6/21 392/2/21 385/1/21 
f 388/7/21 395/8/21 394/6/21 387/5/21 
f 386/7/21 393/8/21 396/6/22 391/5/22 
f 397/1/20 398/2/20 399/3/20 400/4/20 
f 274/5/17 301/6/18 398/2/20 397/1/20 
f 398/2/20 401/9/21 402/10/21 399/3/20 
f 301/6/18 403/11/21 401/9/21 398/2/20 
f 401/9/21 404/13/21 405/14/21 402/10/21 
f 403/11/21 406/15/21 404/13/21 401/9/21 
f 407/1/20 408/2/21 409/3/21 410/4/20 
f 411/5/20 412/6/20 408/2/21 407/1/20 
f 400/7/20 399/8/20 412/6/20 411/5/20 
f 408/2/21 413/9/21 414/10/21 409/3/21 
f 412/6/20 415/11/21 413/9/21 408/2/21 
f 399/8/20 402/12/21 415/11/21 412/6/20 
f 413/9/21 416/13/21 417/14/21 414/10/21 
f 415/11/21 418/15/21 416/13/21 413/9/21 
f 402/12/21 405/16/21 418/15/21 415/11/21 
f 419/5/20 420/6/21 364/2/21 363/1/20 
f 410/7/20 409/8/21 420/6/21 419/5/20 
f 420/6/21 421/11/21 368/9/21 364/2/21 
f 409/8/21 414/12/21 421/11/21 420/6/21 
f 421/11/21 422/15/21 372/13/21 368/9/21 
f 414/12/21 417/16/21 422/15/21 421/11/21 
f 404/1/21 423/2/21 424/3/21 405/4/21 
f 406/5/21 332/6/19 423/2/21 404/1/21 
f 423/2/21 425/9/21 426/10/21 424/3/21 
f 332/6/19 331/11/16 425/9/21 423/2/21 
f 425/9/21 427/13/21 428/14/21 426/10/21 
f 331/11/16 334/15/16 427/13/21 425/9/21 
f 416/1/21 429/2/21 430/3/21 417/4/21 
f 418/5/21 431/6/21 429/2/21 416/1/21 
f 405/7/21 424/8/21 431/6/21 418/5/21 
f 429/2/21 432/9/21 433/10/21 430/3/21 
f 431/6/21 434/11/21 432/9/21 429/2/21 
f 424/8/21 426/12/21 434/11/21 431/6/21 
f 432/9/21 435/13/21 436/14/21 433/10/21 
f 434/11/21 437/15/21 435/13/21 432/9/21 
f 426/12/21 428/16/21 437/15/21 434/11/21 
f 422/5/21 438/6/21 380/2/21 372/1/21 
f 417/7/21 430/8/21 438/6/21 422/5/21 
f 438/6/21 439/11/21 384/9/21 380/2/21 
f 430/8/21 433/12/21 439/11/21 438/6/21 
f 439/11/21 440/15/21 388/13/21 384/9/21 
f 433/12/21 436/16/21 440/15/21 439/11/21 
f 427/1/21 441/2/21 442/3/21 428/4/21 
f 334/5/16 345/6/16 441/2/21 427/1/21 
f 435/1/21 443/2/21 444/3/21 436/4/21 
f 437/5/21 445/6/21 443/2/21 435/1/21 
f 428/7/21 442/8/21 445/6/21 437/5/21 
f 440/5/21 446/6/21 395/2/21 388/1/21 
f 436/7/21 444/8/21 446/6/21 440/5/21 
f 392/1/21 447/2/21 448/3/21 393/4/21 
f 394/5/21 449/6/21 447/2/21 392/1/21 
f 395/7/21 450/8/21 449/6/21 394/5/21 
f 393/7/21 448/8/21 451/6/23 396/5/22 
f 441/1/21 452/2/21 453/3/21 442/4/21 
f 345/5/16 356/6/16 452/2/21 441/1/21 
f 443/1/21 454/2/21 455/3/21 444/4/21 
f 445/5/21 456/6/21 454/2/21 443/1/21 
f 442/7/21 453/8/21 456/6/21 445/5/21 
f 446/5/21 457/6/21 450/2/21 395/1/21 
f 444/7/21 455/8/21 457/6/21 446/5/21 
f 458/1/21 459/2/21 460/3/21 461/4/21 
f 459/2/21 462/9/21 463/10/21 460/3/21 
f 462/9/21 464/13/21 465/14/21 463/10/21 
f 466/1/24 467/2/24 468/3/21 469/4/21 
f 470/5/24 471/6/24 467/2/24 466/1/24 
f 461/7/21 460/8/21 471/6/24 470/5/24 
f 467/2/24 472/9/24 473/10/21 468/3/21 
f 471/6/24 474/11/24 472/9/24 467/2/24 
f 460/8/21 463/12/21 474/11/24 471/6/24 
f 472/9/24 475/13/24 476/14/21 473/10/21 
f 474/11/24 477/15/24 475/13/24 472/9/24 
f 463/12/21 465/16/21 477/15/24 474/11/24 
f 469/1/21 468/2/21 478/3/21 479/4/21 
f 468/2/21 473/9/21 480/10/21 478/3/21 
f 473/9/21 476/13/21 481/14/21 480/10/21 
f 482/1/21 483/2/21 484/3/21 485/4/21 
f 486/5/21 487/6/21 483/2/21 482/1/21 
f 479/7/21 478/8/21 487/6/21 486/5/21 
f 483/2/21 488/9/21 489/10/21 484/3/21 
f 487/6/21 490/11/21 488/9/21 483/2/21 
f 478/8/21 480/12/21 490/11/21 487/6/21 
f 488/9/21 491/13/21 492/14/25 489/10/21 
f 490/11/21 493/15/21 491/13/21 488/9/21 
f 480/12/21 481/16/21 493/15/21 490/11/21 
f 494/1/26 495/2/26 496/3/26 497/4/26 
f 498/5/26 499/6/26 495/2/26 494/1/26 
f 500/7/26 501/8/26 499/6/26 498/5/26 
f 495/2/26 502/9/26 503/10/26 496/3/26 
f 499/6/26 504/11/26 502/9/26 495/2/26 
f 501/8/26 505/12/26 504/11/26 499/6/26 
f 502/9/26 506/13/26 507/14/26 503/10/26 
f 504/11/26 508/15/26 506/13/26 502/9/26 
f 505/12/26 509/16/27 508/15/26 504/11/26 
f 510/1/27 511/2/27 512/3/26 513/4/26 
f 514/5/27 515/6/27 511/2/27 510/1/27 
f 497/7/26 496/8/26 515/6/27 514/5/27 
f 511/2/27 516/9/27 517/10/26 512/3/26 
f 515/6/27 518/11/27 516/9/27 511/2/27 
f 496/8/26 503/12/26 518/11/27 515/6/27 
f 516/9/27 519/13/27 520/14/26 517/10/26 
f 518/11/27 521/15/27 519/13/27 516/9/27 
f 503/12/26 507/16/26 521/15/27 518/11/27 
f 522/5/27 523/6/27 110/2/8 109/1/8 
f 513/7/26 512/8/26 523/6/27 522/5/27 
f 523/6/27 524/11/27 113/9/8 110/2/8 
f 512/8/26 517/12/26 524/11/27 523/6/27 
f 524/11/27 525/15/27 115/13/8 113/9/8 
f 517/12/26 520/16/26 525/15/27 524/11/27 
f 200/1/13 259/2/16 526/3/21 527/4/21 
f 259/2/16 261/9/16 528/10/21 526/3/21 
f 261/9/16 263/13/17 529/14/20 528/10/21 
f 464/1/21 530/2/21 531/3/21 465/4/21 
f 532/5/21 533/6/21 530/2/21 464/1/21 
f 527/7/21 526/8/21 533/6/21 532/5/21 
f 530/2/21 534/9/21 535/10/21 531/3/21 
f 533/6/21 536/11/21 534/9/21 530/2/21 
f 526/8/21 528/12/21 536/11/21 533/6/21 
f 534/9/21 537/13/20 538/14/20 535/10/21 
f 536/11/21 539/15/20 537/13/20 534/9/21 
f 528/12/21 529/16/20 539/15/20 536/11/21 
f 475/1/24 540/2/24 541/3/21 476/4/21 
f 477/5/24 542/6/24 540/2/24 475/1/24 
f 465/7/21 531/8/21 542/6/24 477/5/24 
f 540/2/24 543/9/24 544/10/21 541/3/21 
f 542/6/24 545/11/24 543/9/24 540/2/24 
f 531/8/21 535/12/21 545/11/24 542/6/24 
f 543/9/24 546/13/28 547/14/20 544/10/21 
f 545/11/24 548/15/28 546/13/28 543/9/24 
f 535/12/21 538/16/20 548/15/28 545/11/24 
f 476/1/21 541/2/21 549/3/21 481/4/21 
f 541/2/21 544/9/21 550/10/21 549/3/21 
f 544/9/21 547/13/20 551/14/20 550/10/21 
f 491/1/21 552/2/21 553/3/22 492/4/25 
f 493/5/21 554/6/21 552/2/21 491/1/21 
f 481/7/21 549/8/21 554/6/21 493/5/21 
f 552/2/21 555/9/21 556/10/22 553/3/22 
f 554/6/21 557/11/21 555/9/21 552/2/21 
f 549/8/21 550/12/21 557/11/21 554/6/21 
f 555/9/21 558/13/20 559/14/22 556/10/22 
f 557/11/21 560/15/20 558/13/20 555/9/21 
f 550/12/21 551/16/20 560/15/20 557/11/21 
f 561/1/27 562/2/27 563/3/27 509/4/27 
f 564/5/27 565/6/27 562/2/27 561/1/27 
f 492/7/25 553/8/22 565/6/27 564/5/27 
f 562/2/27 566/9/27 567/10/27 563/3/27 
f 565/6/27 568/11/27 566/9/27 562/2/27 
f 553/8/22 556/12/22 568/11/27 565/6/27 
f 566/9/27 569/13/27 570/14/27 567/10/27 
f 568/11/27 571/15/27 569/13/27 566/9/27 
f 556/12/22 559/16/22 571/15/27 568/11/27 
f 506/1/26 572/2/26 573/3/26 507/4/26 
f 508/5/26 574/6/26 572/2/26 506/1/26 
f 509/7/27 563/8/27 574/6/26 508/5/26 
f 572/2/26 575/9/26 576/10/26 573/3/26 
f 574/6/26 577/11/26 575/9/26 572/2/26 
f 563/8/27 567/12/27 577/11/26 574/6/26 
f 575/9/26 578/13/26 579/14/26 576/10/26 
f 577/11/26 580/15/26 578/13/26 575/9/26 
f 567/12/27 570/16/27 580/15/26 577/11/26 
f 519/1/27 581/2/27 582/3/26 520/4/26 
f 521/5/27 583/6/27 581/2/27 519/1/27 
f 507/7/26 573/8/26 583/6/27 521/5/27 
f 581/2/27 584/9/27 585/10/26 582/3/26 
f 583/6/27 586/11/27 584/9/27 581/2/27 
f 573/8/26 576/12/26 586/11/27 583/6/27 
f 584/9/27 587/13/29 588/14/30 585/10/26 
f 586/11/27 589/15/27 587/13/29 584/9/27 
f 576/12/26 579/16/26 589/15/27 586/11/27 
f 525/5/27 590/6/27 201/2/6 115/1/8 
f 520/7/26 582/8/26 590/6/27 525/5/27 
f 590/6/27 591/11/26 592/9/30 201/2/6 
f 582/8/26 585/12/26 591/11/26 590/6/27 
f 591/11/26 593/15/26 594/13/30 592/9/30 
f 585/12/26 588/16/30 593/15/26 591/11/26 
f 263/1/17 274/2/17 397/3/20 529/4/20 
f 537/1/20 411/2/20 407/3/20 538/4/20 
f 539/5/20 400/6/20 411/2/20 537/1/20 
f 529/7/20 397/8/20 400/6/20 539/5/20 
f 546/1/28 419/2/20 363/3/20 547/4/20 
f 548/5/28 410/6/20 419/2/20 546/1/28 
f 538/7/20 407/8/20 410/6/20 548/5/28 
f 547/1/20 363/2/20 361/3/20 551/4/20 
f 558/1/20 360/2/20 374/3/22 559/4/22 
f 560/5/20 357/6/20 360/2/20 558/1/20 
f 551/7/20 361/8/20 357/6/20 560/5/20 
f 569/1/27 595/2/27 596/3/27 570/4/27 
f 571/5/27 597/6/30 595/2/27 569/1/27 
f 559/7/22 374/8/22 597/6/30 571/5/27 
f 578/1/26 598/2/26 599/3/26 579/4/26 
f 580/5/26 600/6/26 598/2/26 578/1/26 
f 570/7/27 596/8/27 600/6/26 580/5/26 
f 587/1/29 601/2/29 602/3/30 588/4/30 
f 589/5/27 603/6/27 601/2/29 587/1/29 
f 579/7/26 599/8/26 603/6/27 589/5/27 
f 593/5/26 604/6/26 45/2/6 594/1/30 
f 588/7/30 602/8/30 604/6/26 593/5/26 
f 595/1/27 605/2/27 606/3/27 596/4/27 
f 597/5/30 607/6/30 605/2/27 595/1/27 
f 374/7/22 373/8/22 607/6/30 597/5/30 
f 605/2/27 608/9/27 609/10/27 606/3/27 
f 607/6/30 610/11/26 608/9/27 605/2/27 
f 373/8/22 375/12/22 610/11/26 607/6/30 
f 608/9/27 611/13/27 612/14/27 609/10/27 
f 610/11/26 613/15/26 611/13/27 608/9/27 
f 375/12/22 376/16/22 613/15/26 610/11/26 
f 598/1/26 614/2/26 615/3/26 599/4/26 
f 600/5/26 616/6/26 614/2/26 598/1/26 
f 596/7/27 606/8/27 616/6/26 600/5/26 
f 614/2/26 617/9/26 618/10/26 615/3/26 
f 616/6/26 619/11/26 617/9/26 614/2/26 
f 606/8/27 609/12/27 619/11/26 616/6/26 
f 617/9/26 620/13/26 621/14/26 618/10/26 
f 619/11/26 622/15/26 620/13/26 617/9/26 
f 609/12/27 612/16/27 622/15/26 619/11/26 
f 601/1/29 623/2/30 624/3/29 602/4/30 
f 603/5/27 625/6/26 623/2/30 601/1/29 
f 599/7/26 615/8/26 625/6/26 603/5/27 
f 623/2/30 626/9/26 627/10/27 624/3/29 
f 625/6/26 628/11/26 626/9/26 623/2/30 
f 615/8/26 618/12/26 628/11/26 625/6/26 
f 626/9/26 629/13/26 630/14/27 627/10/27 
f 628/11/26 631/15/26 629/13/26 626/9/26 
f 618/12/26 621/16/26 631/15/26 628/11/26 
f 604/5/26 632/6/26 46/2/7 45/1/6 
f 602/7/30 624/8/29 632/6/26 604/5/26 
f 632/6/26 633/11/26 49/9/8 46/2/7 
f 624/8/29 627/12/27 633/11/26 632/6/26 
f 633/11/26 634/15/26 52/13/7 49/9/8 
f 627/12/27 630/16/27 634/15/26 633/11/26 
f 611/1/27 635/2/27 636/3/27 612/4/27 
f 613/5/26 637/6/26 635/2/27 611/1/27 
f 376/7/22 389/8/22 637/6/26 613/5/26 
f 635/2/27 638/9/27 639/10/27 636/3/27 
f 637/6/26 640/11/26 638/9/27 635/2/27 
f 389/8/22 390/12/22 640/11/26 637/6/26 
f 638/9/27 641/13/27 642/14/27 639/10/27 
f 640/11/26 643/15/26 641/13/27 638/9/27 
f 390/12/22 391/16/22 643/15/26 640/11/26 
f 620/1/26 644/2/26 645/3/26 621/4/26 
f 622/5/26 646/6/26 644/2/26 620/1/26 
f 612/7/27 636/8/27 646/6/26 622/5/26 
f 644/2/26 647/9/26 648/10/26 645/3/26 
f 646/6/26 649/11/26 647/9/26 644/2/26 
f 636/8/27 639/12/27 649/11/26 646/6/26 
f 647/9/26 650/13/26 651/14/26 648/10/26 
f 649/11/26 652/15/26 650/13/26 647/9/26 
f 639/12/27 642/16/27 652/15/26 649/11/26 
f 629/1/26 653/2/26 654/3/27 630/4/27 
f 631/5/26 655/6/26 653/2/26 629/1/26 
f 621/7/26 645/8/26 655/6/26 631/5/26 
f 653/2/26 656/9/26 657/10/27 654/3/27 
f 655/6/26 658/11/26 656/9/26 653/2/26 
f 645/8/26 648/12/26 658/11/26 655/6/26 
f 658/11/26 659/15/26 660/13/26 656/9/26 
f 648/12/26 651/16/26 659/15/26 658/11/26 
f 634/5/26 661/6/26 71/2/8 52/1/7 
f 630/7/27 654/8/27 661/6/26 634/5/26 
f 661/6/26 662/11/26 74/9/9 71/2/8 
f 654/8/27 657/12/27 662/11/26 661/6/26 
f 641/1/27 663/2/27 664/3/27 642/4/27 
f 643/5/26 665/6/26 663/2/27 641/1/27 
f 391/7/22 396/8/22 665/6/26 643/5/26 
f 650/1/26 666/2/26 667/3/26 651/4/26 
f 652/5/26 668/6/26 666/2/26 650/1/26 
f 642/7/27 664/8/27 668/6/26 652/5/26 
f 659/5/26 669/6/26 670/2/26 660/1/26 
f 651/7/26 667/8/26 669/6/26 659/5/26 
f 663/1/27 671/2/27 672/3/27 664/4/27 
f 665/5/26 673/6/26 671/2/27 663/1/27 
f 396/7/22 451/8/23 673/6/26 665/5/26 
f 666/1/26 674/2/26 675/3/26 667/4/26 
f 668/5/26 676/6/26 674/2/26 666/1/26 
f 664/7/27 672/8/27 676/6/26 668/5/26 
f 669/5/26 677/6/26 678/2/26 670/1/26 
f 667/7/26 675/8/26 677/6/26 669/5/26 
# 615 polygons

#
# object Object57124066
#

v  -3.0000 15.0000 7.0000
v  -3.0000 15.0000 9.0000
v  -5.0000 15.0000 9.0000
v  -5.0000 15.0000 7.0000
v  -1.0000 15.0000 7.0000
v  -1.0000 15.0000 9.0000
v  -3.0000 15.0000 11.0000
v  -5.0000 15.0000 11.0000
v  -1.0000 15.0000 11.0000
v  1.0000 15.0000 7.0000
v  1.0000 15.0000 9.0000
v  3.0000 15.0000 7.0000
v  3.0000 15.0000 9.0000
v  5.0000 15.0000 7.0000
v  5.0000 15.0000 9.0000
v  1.0000 15.0000 11.0000
v  3.0000 15.0000 11.0000
v  5.0000 15.0000 11.0000
v  7.0000 15.0000 7.0000
v  7.0000 15.0000 9.0000
v  9.0000 15.0000 7.0000
v  9.0000 15.0000 9.0000
v  11.0000 15.0000 7.0000
v  11.0000 15.0000 9.0000
v  7.0000 15.0000 11.0000
v  9.0000 15.0000 11.0000
v  11.0000 15.0000 11.0000
v  7.0000 15.0000 1.0000
v  7.0000 15.0000 3.0000
v  5.0000 15.0000 3.0000
v  5.0000 15.0000 1.0000
v  9.0000 15.0000 1.0000
v  9.0000 15.0000 3.0000
v  11.0000 15.0000 1.0000
v  11.0000 15.0000 3.0000
v  7.0000 15.0000 5.0000
v  5.0000 15.0000 5.0000
v  9.0000 15.0000 5.0000
v  11.0000 15.0000 5.0000
v  1.0000 15.0000 5.0000
v  -1.0000 15.0000 5.0000
v  3.0000 15.0000 5.0000
v  -3.0000 15.0000 5.0000
v  -5.0000 15.0001 5.0000
v  7.0000 15.0000 -5.0000
v  7.0000 15.0000 -3.0000
v  5.0000 15.0000 -3.0000
v  5.0000 15.0001 -5.0000
v  9.0000 15.0000 -5.0000
v  9.0000 15.0000 -3.0000
v  11.0000 15.0000 -5.0000
v  11.0000 15.0000 -3.0000
v  7.0000 15.0000 -1.0000
v  5.0000 15.0000 -1.0000
v  9.0000 15.0000 -1.0000
v  11.0000 15.0000 -1.0000
v  9.0000 15.0000 -7.0000
v  9.0000 15.0000 -9.0000
v  11.0000 15.0000 -9.0000
v  11.0000 15.0000 -7.0000
v  7.0000 15.0000 -7.0000
v  7.0000 15.0000 -9.0000
v  9.0000 15.0000 -11.0000
v  11.0000 15.0000 -11.0000
v  7.0000 15.0000 -11.0000
v  5.0000 15.0000 -7.0000
v  5.0000 15.0000 -9.0000
v  3.0000 15.0000 -7.0000
v  3.0000 15.0000 -9.0000
v  1.0000 15.0000 -7.0000
v  1.0000 15.0000 -9.0000
v  5.0000 15.0000 -11.0000
v  3.0000 15.0000 -11.0000
v  1.0000 15.0000 -11.0000
v  -1.0000 15.0000 -7.0000
v  -1.0000 15.0000 -9.0000
v  -3.0000 15.0000 -7.0000
v  -3.0000 15.0000 -9.0000
v  -5.0000 15.0000 -7.0000
v  -5.0000 15.0000 -9.0000
v  -1.0000 15.0000 -11.0000
v  -3.0000 15.0000 -11.0000
v  -5.0000 15.0000 -11.0000
v  -7.0000 15.0000 -7.0000
v  -7.0000 15.0000 -9.0000
v  -9.0000 15.0000 -7.0000
v  -9.0000 15.0000 -9.0000
v  -11.0000 15.0000 -7.0000
v  -11.0000 15.0000 -9.0000
v  -7.0000 15.0000 -11.0000
v  -9.0000 15.0000 -11.0000
v  -11.0000 15.0000 -11.0000
v  -7.0000 15.0000 -1.0000
v  -7.0000 15.0000 -3.0000
v  -5.0000 15.0000 -3.0000
v  -5.0000 15.0001 -1.0000
v  -9.0000 15.0000 -1.0000
v  -9.0000 15.0000 -3.0000
v  -11.0000 15.0000 -1.0000
v  -11.0000 15.0000 -3.0000
v  -7.0000 15.0000 -5.0000
v  -5.0000 15.0001 -5.0000
v  -9.0000 15.0000 -5.0000
v  -11.0000 15.0000 -5.0000
v  -1.0000 15.0001 -5.0000
v  1.0000 15.0001 -5.0000
v  -3.0000 15.0001 -5.0000
v  3.0000 15.0001 -5.0000
v  -7.0000 15.0000 5.0000
v  -7.0000 15.0000 3.0000
v  -5.0000 15.0001 3.0000
v  -9.0000 15.0000 5.0000
v  -9.0000 15.0000 3.0000
v  -11.0000 15.0000 5.0000
v  -11.0000 15.0000 3.0000
v  -7.0000 15.0000 1.0000
v  -5.0000 15.0000 1.0000
v  -9.0000 15.0000 1.0000
v  -11.0000 15.0000 1.0000
v  -7.0000 15.0000 9.0000
v  -7.0000 15.0000 7.0000
v  -9.0000 15.0000 9.0000
v  -9.0000 15.0000 7.0000
v  -11.0000 15.0000 9.0000
v  -11.0000 15.0000 7.0000
v  -7.0000 15.0000 11.0000
v  -9.0000 15.0000 11.0000
v  -11.0000 15.0000 11.0000
# 128 vertices

vn -0.0000 -1.0000 -0.0000
vn -0.0000 -1.0000 0.0000
vn 0.0000 -1.0000 -0.0000
vn 0.0000 -1.0000 0.0000
# 4 vertex normals

vt 2.6666 0.0000 0.0000
vt 2.6666 0.3334 0.0000
vt 2.3333 0.3334 0.0000
vt 2.3333 0.0000 0.0000
vt 2.9999 0.0000 0.0000
vt 2.9999 0.3334 0.0000
vt 2.6666 0.6666 0.0000
vt 2.3333 0.6666 0.0000
vt 2.9999 0.6666 0.0000
vt 2.0001 0.3334 0.0000
vt 2.0001 0.0000 0.0000
vt 2.0001 0.6666 0.0000
vt 2.3333 0.9999 0.0000
vt 2.0001 0.9999 0.0000
vt 2.6666 0.9999 0.0000
vt 2.9999 0.9999 0.0000
# 16 texture coords

o Object57124066
g Object57124066
f 679/17/31 680/18/32 681/19/31 682/20/31 
f 683/21/31 684/22/33 680/18/32 679/17/31 
f 680/18/32 685/23/32 686/24/31 681/19/31 
f 684/22/33 687/25/33 685/23/32 680/18/32 
f 688/20/31 689/19/32 684/26/33 683/27/31 
f 690/17/33 691/18/32 689/19/32 688/20/31 
f 692/21/33 693/22/34 691/18/32 690/17/33 
f 689/19/32 694/24/34 687/28/33 684/26/33 
f 691/18/32 695/23/32 694/24/34 689/19/32 
f 693/22/34 696/25/34 695/23/32 691/18/32 
f 697/20/33 698/19/34 693/26/34 692/27/33 
f 699/17/34 700/18/34 698/19/34 697/20/33 
f 701/21/34 702/22/33 700/18/34 699/17/34 
f 698/19/34 703/24/34 696/28/34 693/26/34 
f 700/18/34 704/23/34 703/24/34 698/19/34 
f 702/22/33 705/25/33 704/23/34 700/18/34 
f 706/20/32 707/19/32 708/26/32 709/27/32 
f 710/17/33 711/18/33 707/19/32 706/20/32 
f 712/21/33 713/22/33 711/18/33 710/17/33 
f 707/19/32 714/24/31 715/28/31 708/26/32 
f 711/18/33 716/23/34 714/24/31 707/19/32 
f 713/22/33 717/25/34 716/23/34 711/18/33 
f 714/24/31 697/29/33 692/30/33 715/28/31 
f 716/23/34 699/31/34 697/29/33 714/24/31 
f 717/25/34 701/32/34 699/31/34 716/23/34 
f 718/24/31 688/29/31 683/30/31 719/28/33 
f 720/23/33 690/31/33 688/29/31 718/24/31 
f 715/25/31 692/32/33 690/31/33 720/23/33 
f 721/23/31 679/31/31 682/29/31 722/24/33 
f 719/25/33 683/32/31 679/31/31 721/23/31 
f 723/20/31 724/19/31 725/26/31 726/27/32 
f 727/17/31 728/18/33 724/19/31 723/20/31 
f 729/21/31 730/22/33 728/18/33 727/17/31 
f 724/19/31 731/24/32 732/28/32 725/26/31 
f 728/18/33 733/23/33 731/24/32 724/19/31 
f 730/22/33 734/25/33 733/23/33 728/18/33 
f 731/24/32 706/29/32 709/30/32 732/28/32 
f 733/23/33 710/31/33 706/29/32 731/24/32 
f 734/25/33 712/32/33 710/31/33 733/23/33 
f 735/17/31 736/18/33 737/19/33 738/20/31 
f 739/21/31 740/22/33 736/18/33 735/17/31 
f 736/18/33 741/23/33 742/24/33 737/19/33 
f 740/22/33 743/25/33 741/23/33 736/18/33 
f 744/20/32 745/19/33 740/26/33 739/27/31 
f 746/17/32 747/18/33 745/19/33 744/20/32 
f 748/21/34 749/22/33 747/18/33 746/17/32 
f 745/19/33 750/24/33 743/28/33 740/26/33 
f 747/18/33 751/23/33 750/24/33 745/19/33 
f 749/22/33 752/25/32 751/23/33 747/18/33 
f 753/20/34 754/19/31 749/26/33 748/27/34 
f 755/17/34 756/18/31 754/19/31 753/20/34 
f 757/21/34 758/22/31 756/18/31 755/17/34 
f 754/19/31 759/24/31 752/28/32 749/26/33 
f 756/18/31 760/23/31 759/24/31 754/19/31 
f 758/22/31 761/25/31 760/23/31 756/18/31 
f 762/20/33 763/19/31 758/26/31 757/27/34 
f 764/17/31 765/18/31 763/19/31 762/20/33 
f 766/21/31 767/22/32 765/18/31 764/17/31 
f 763/19/31 768/24/31 761/28/31 758/26/31 
f 765/18/31 769/23/31 768/24/31 763/19/31 
f 767/22/32 770/25/33 769/23/31 765/18/31 
f 771/20/33 772/19/33 773/26/33 774/27/33 
f 775/17/32 776/18/32 772/19/33 771/20/33 
f 777/21/32 778/22/32 776/18/32 775/17/32 
f 772/19/33 779/24/34 780/28/34 773/26/33 
f 776/18/32 781/23/31 779/24/34 772/19/33 
f 778/22/32 782/25/31 781/23/31 776/18/32 
f 779/24/34 762/29/33 757/30/34 780/28/34 
f 781/23/31 764/31/31 762/29/33 779/24/34 
f 782/25/31 766/32/31 764/31/31 781/23/31 
f 783/24/34 753/29/34 748/30/34 784/28/32 
f 785/23/34 755/31/34 753/29/34 783/24/34 
f 780/25/34 757/32/34 755/31/34 785/23/34 
f 726/24/32 744/29/32 739/30/31 723/28/31 
f 786/23/34 746/31/32 744/29/32 726/24/32 
f 784/25/32 748/32/34 746/31/32 786/23/34 
f 727/23/31 735/31/31 738/29/31 729/24/31 
f 723/25/31 739/32/31 735/31/31 727/23/31 
f 787/20/34 788/19/34 789/26/34 722/27/33 
f 790/17/31 791/18/32 788/19/34 787/20/34 
f 792/21/33 793/22/31 791/18/32 790/17/31 
f 788/19/34 794/24/33 795/28/33 789/26/34 
f 791/18/32 796/23/32 794/24/33 788/19/34 
f 793/22/31 797/25/32 796/23/32 791/18/32 
f 794/24/33 771/29/33 774/30/33 795/28/33 
f 796/23/32 775/31/32 771/29/33 794/24/33 
f 797/25/32 777/32/32 775/31/32 796/23/32 
f 798/20/32 799/19/31 682/26/31 681/27/31 
f 800/17/32 801/18/31 799/19/31 798/20/32 
f 802/21/32 803/22/32 801/18/31 800/17/32 
f 799/19/31 787/24/34 722/28/33 682/26/31 
f 801/18/31 790/23/31 787/24/34 799/19/31 
f 803/22/32 792/25/33 790/23/31 801/18/31 
f 804/24/32 798/29/32 681/30/31 686/28/31 
f 805/23/32 800/31/32 798/29/32 804/24/32 
f 806/25/32 802/32/32 800/31/32 805/23/32 
# 96 polygons

#
# object Object57124071
#

v  -11.0000 -15.0000 11.0000
v  -11.0000 -15.0000 12.0000
v  -9.0000 -15.0000 12.0000
v  -9.0000 -15.0000 11.0000
v  -7.0000 -15.0000 12.0000
v  -7.0000 -15.0000 11.0000
v  -5.0000 -15.0000 12.0000
v  -5.0000 -15.0000 11.0000
v  11.0000 -15.0000 11.0000
v  12.0000 -15.0000 11.0000
v  12.0000 -15.0000 9.0000
v  11.0000 -15.0000 9.0000
v  12.0000 -15.0000 7.0000
v  11.0000 -15.0000 7.0000
v  12.0000 -15.0000 5.0000
v  11.0000 -15.0000 5.0000
v  -11.0000 1.0000 5.0000
v  -12.0000 1.0000 5.0000
v  -12.0000 1.0000 7.0000
v  -11.0000 1.0000 7.0000
v  -12.0000 1.0000 9.0000
v  -11.0000 1.0000 9.0000
v  -12.0000 1.0000 11.0000
v  -11.0000 1.0000 11.0000
v  11.0000 9.0000 -5.0000
v  12.0000 9.0000 -5.0000
v  12.0000 9.0000 -7.0000
v  11.0000 9.0000 -7.0000
v  12.0000 9.0000 -9.0000
v  11.0000 9.0000 -9.0000
v  12.0000 9.0000 -11.0000
v  11.0000 9.0000 -11.0000
v  11.0000 -7.0000 -11.0000
v  11.0000 -7.0000 -12.0000
v  9.0000 -7.0000 -12.0000
v  9.0000 -7.0000 -11.0000
v  7.0000 -7.0000 -12.0000
v  7.0000 -7.0000 -11.0000
v  5.0000 -7.0000 -12.0000
v  5.0000 -7.0000 -11.0000
# 40 vertices

vn 0.0000 1.0000 -0.0000
vn -0.0000 1.0000 -0.0000
# 2 vertex normals

vt 2.9998 0.0010 0.0000
vt 2.9998 0.1662 0.0000
vt 2.6677 0.1662 0.0000
vt 2.6677 0.0010 0.0000
vt 2.3351 0.1662 0.0000
vt 2.3351 0.0010 0.0000
vt 2.0011 0.1662 0.0000
vt 2.0011 0.0010 0.0000
# 8 texture coords

o Object57124071
g Object57124071
f 807/33/35 808/34/35 809/35/35 810/36/35 
f 810/36/35 809/35/35 811/37/35 812/38/35 
f 812/38/35 811/37/35 813/39/35 814/40/35 
f 815/33/36 816/34/36 817/35/36 818/36/36 
f 818/36/36 817/35/36 819/37/36 820/38/36 
f 820/38/36 819/37/36 821/39/36 822/40/36 
f 823/33/35 824/34/35 825/35/35 826/36/35 
f 826/36/35 825/35/35 827/37/35 828/38/35 
f 828/38/35 827/37/35 829/39/35 830/40/35 
f 831/33/35 832/34/35 833/35/35 834/36/35 
f 834/36/35 833/35/35 835/37/35 836/38/35 
f 836/38/35 835/37/35 837/39/35 838/40/35 
f 839/33/35 840/34/35 841/35/35 842/36/35 
f 842/36/35 841/35/35 843/37/35 844/38/35 
f 844/38/35 843/37/35 845/39/35 846/40/35 
# 15 polygons

#
# object Object57124072
#

v  -5.0000 -9.0000 11.0000
v  -5.0000 -9.0000 12.0000
v  -7.0000 -9.0000 12.0000
v  -7.0000 -9.0000 11.0000
v  -9.0000 -9.0000 12.0000
v  -9.0000 -9.0000 11.0000
v  -11.0000 -9.0000 12.0000
v  -11.0000 -9.0000 11.0000
v  11.0000 -9.0000 5.0000
v  12.0000 -9.0000 5.0000
v  12.0000 -9.0000 7.0000
v  11.0000 -9.0000 7.0000
v  12.0000 -9.0000 9.0000
v  11.0000 -9.0000 9.0000
v  12.0000 -9.0000 11.0000
v  11.0000 -9.0000 11.0000
v  -11.0000 7.0000 11.0000
v  -12.0000 7.0000 11.0000
v  -12.0000 7.0000 9.0000
v  -11.0000 7.0000 9.0000
v  -12.0000 7.0000 7.0000
v  -11.0000 7.0000 7.0000
v  -12.0000 7.0000 5.0000
v  -11.0000 7.0000 5.0000
v  11.0000 15.0000 -11.0000
v  12.0000 15.0000 -11.0000
v  12.0000 15.0000 -9.0000
v  11.0000 15.0000 -9.0000
v  12.0000 15.0000 -7.0000
v  11.0000 15.0000 -7.0000
v  12.0000 15.0000 -5.0000
v  11.0000 15.0000 -5.0000
v  5.0000 -1.0000 -11.0000
v  5.0000 -1.0000 -12.0000
v  7.0000 -1.0000 -12.0000
v  7.0000 -1.0000 -11.0000
v  9.0000 -1.0000 -12.0000
v  9.0000 -1.0000 -11.0000
v  11.0000 -1.0000 -12.0000
v  11.0000 -1.0000 -11.0000
# 40 vertices

vn 0.0000 -1.0000 -0.0000
vn -0.0000 -1.0000 0.0000
vn 0.0000 -1.0000 0.0000
vn -0.0000 -1.0000 -0.0000
# 4 vertex normals

vt 1.9995 -0.9993 0.0000
vt 1.9995 -0.8314 0.0000
vt 1.6681 -0.8314 0.0000
vt 1.6681 -0.9993 0.0000
vt 1.3335 -0.8314 0.0000
vt 1.3335 -0.9993 0.0000
vt 1.0007 -0.8314 0.0000
vt 1.0007 -0.9993 0.0000
# 8 texture coords

o Object57124072
g Object57124072
f 847/41/37 848/42/37 849/43/37 850/44/37 
f 850/44/37 849/43/37 851/45/38 852/46/38 
f 852/46/38 851/45/38 853/47/38 854/48/38 
f 855/41/37 856/42/37 857/43/37 858/44/37 
f 858/44/37 857/43/37 859/45/39 860/46/39 
f 860/46/39 859/45/39 861/47/39 862/48/39 
f 863/41/37 864/42/37 865/43/37 866/44/37 
f 866/44/37 865/43/37 867/45/40 868/46/40 
f 868/46/40 867/45/40 869/47/40 870/48/40 
f 871/41/37 872/42/37 873/43/37 874/44/37 
f 874/44/37 873/43/37 875/45/39 876/46/39 
f 876/46/39 875/45/39 877/47/39 878/48/39 
f 879/41/37 880/42/37 881/43/37 882/44/37 
f 882/44/37 881/43/37 883/45/37 884/46/37 
f 884/46/37 883/45/37 885/47/37 886/48/37 
# 15 polygons

#
# object Object57124073
#

v  -11.0000 -15.0000 12.0000
v  -11.0000 -15.0000 11.0000
v  -11.0000 -13.0000 11.0000
v  -11.0000 -13.0000 12.0000
v  -11.0000 -11.0000 11.0000
v  -11.0000 -11.0000 12.0000
v  -11.0000 -9.0000 11.0000
v  -11.0000 -9.0000 12.0000
v  -5.0000 -15.0000 11.0000
v  -5.0000 -15.0000 12.0000
v  -5.0000 -13.0000 12.0000
v  -5.0000 -13.0000 11.0000
v  -5.0000 -11.0000 12.0000
v  -5.0000 -11.0000 11.0000
v  -5.0000 -9.0000 12.0000
v  -5.0000 -9.0000 11.0000
v  12.0000 -15.0000 11.0000
v  11.0000 -15.0000 11.0000
v  11.0000 -13.0000 11.0000
v  12.0000 -13.0000 11.0000
v  11.0000 -11.0000 11.0000
v  12.0000 -11.0000 11.0000
v  11.0000 -9.0000 11.0000
v  12.0000 -9.0000 11.0000
v  11.0000 -15.0000 5.0000
v  12.0000 -15.0000 5.0000
v  12.0000 -13.0000 5.0000
v  11.0000 -13.0000 5.0000
v  12.0000 -11.0000 5.0000
v  11.0000 -11.0000 5.0000
v  12.0000 -9.0000 5.0000
v  11.0000 -9.0000 5.0000
v  -12.0000 1.0000 5.0000
v  -11.0000 1.0000 5.0000
v  -11.0000 3.0000 5.0000
v  -12.0000 3.0000 5.0000
v  -11.0000 5.0000 5.0000
v  -12.0000 5.0000 5.0000
v  -11.0000 7.0000 5.0000
v  -12.0000 7.0000 5.0000
v  -11.0000 1.0000 11.0000
v  -12.0000 1.0000 11.0000
v  -12.0000 3.0000 11.0000
v  -11.0000 3.0000 11.0000
v  -12.0000 5.0000 11.0000
v  -11.0000 5.0000 11.0000
v  -12.0000 7.0000 11.0000
v  -11.0000 7.0000 11.0000
v  12.0000 9.0000 -5.0000
v  11.0000 9.0000 -5.0000
v  11.0000 11.0000 -5.0000
v  12.0000 11.0000 -5.0000
v  11.0000 13.0000 -5.0000
v  12.0000 13.0000 -5.0000
v  11.0000 15.0000 -5.0000
v  12.0000 15.0000 -5.0000
v  11.0000 9.0000 -11.0000
v  12.0000 9.0000 -11.0000
v  12.0000 11.0000 -11.0000
v  11.0000 11.0000 -11.0000
v  12.0000 13.0000 -11.0000
v  11.0000 13.0000 -11.0000
v  12.0000 15.0000 -11.0000
v  11.0000 15.0000 -11.0000
v  11.0000 -7.0000 -12.0000
v  11.0000 -7.0000 -11.0000
v  11.0000 -5.0000 -11.0000
v  11.0000 -5.0000 -12.0000
v  11.0000 -3.0000 -11.0000
v  11.0000 -3.0000 -12.0000
v  11.0000 -1.0000 -11.0000
v  11.0000 -1.0000 -12.0000
v  5.0000 -7.0000 -11.0000
v  5.0000 -7.0000 -12.0000
v  5.0000 -5.0000 -12.0000
v  5.0000 -5.0000 -11.0000
v  5.0000 -3.0000 -12.0000
v  5.0000 -3.0000 -11.0000
v  5.0000 -1.0000 -12.0000
v  5.0000 -1.0000 -11.0000
# 80 vertices

vn 1.0000 -0.0000 -0.0000
vn 1.0000 0.0000 -0.0000
vn -1.0000 0.0000 0.0000
vn -1.0000 -0.0000 0.0000
vn -0.0000 -0.0000 -1.0000
vn -0.0000 0.0000 -1.0000
vn 0.0000 0.0000 1.0000
vn 0.0000 -0.0000 1.0000
# 8 vertex normals

vt 0.1673 -0.9986 0.0000
vt 0.3339 -0.9986 0.0000
vt 0.3339 -0.6661 0.0000
vt 0.1673 -0.6661 0.0000
vt 0.3339 -0.3339 0.0000
vt 0.1673 -0.3339 0.0000
vt 0.3339 -0.0013 0.0000
vt 0.1673 -0.0013 0.0000
vt 0.0001 -0.9986 1.0000
vt 0.1673 -0.9986 1.0000
vt 0.1673 -0.6661 1.0000
vt 0.0001 -0.6661 1.0000
vt 0.1673 -0.3339 1.0000
vt 0.0001 -0.3339 1.0000
vt 0.1673 -0.0013 1.0000
vt 0.0001 -0.0013 1.0000
# 16 texture coords

o Object57124073
g Object57124073
f 887/49/41 888/50/41 889/51/41 890/52/41 
f 890/52/41 889/51/41 891/53/42 892/54/42 
f 892/54/42 891/53/42 893/55/42 894/56/42 
f 895/57/43 896/58/43 897/59/43 898/60/43 
f 898/60/43 897/59/43 899/61/44 900/62/44 
f 900/62/44 899/61/44 901/63/44 902/64/44 
f 903/49/45 904/50/45 905/51/45 906/52/45 
f 906/52/45 905/51/45 907/53/46 908/54/46 
f 908/54/46 907/53/46 909/55/46 910/56/46 
f 911/57/47 912/58/47 913/59/47 914/60/47 
f 914/60/47 913/59/47 915/61/48 916/62/48 
f 916/62/48 915/61/48 917/63/48 918/64/48 
f 919/49/48 920/50/48 921/51/48 922/52/48 
f 922/52/48 921/51/48 923/53/47 924/54/47 
f 924/54/47 923/53/47 925/55/47 926/56/47 
f 927/57/46 928/58/46 929/59/46 930/60/46 
f 930/60/46 929/59/46 931/61/45 932/62/45 
f 932/62/45 931/61/45 933/63/45 934/64/45 
f 935/49/45 936/50/45 937/51/45 938/52/45 
f 938/52/45 937/51/45 939/53/46 940/54/46 
f 940/54/46 939/53/46 941/55/46 942/56/46 
f 943/57/47 944/58/47 945/59/47 946/60/47 
f 946/60/47 945/59/47 947/61/48 948/62/48 
f 948/62/48 947/61/48 949/63/48 950/64/48 
f 951/49/44 952/50/44 953/51/44 954/52/44 
f 954/52/44 953/51/44 955/53/43 956/54/43 
f 956/54/43 955/53/43 957/55/43 958/56/43 
f 959/57/42 960/58/42 961/59/42 962/60/42 
f 962/60/42 961/59/42 963/61/41 964/62/41 
f 964/62/41 963/61/41 965/63/41 966/64/41 
# 30 polygons

#
# object Object57124074
#

v  -5.0000 15.0001 -1.0000
v  -5.0000 16.0001 -1.0000
v  -5.0000 16.0001 1.0000
v  -5.0000 15.0000 1.0000
v  -5.0000 16.0001 3.0000
v  -5.0000 15.0001 3.0000
v  -5.0000 16.0001 5.0000
v  -5.0000 15.0001 5.0000
v  -5.0000 15.0001 -5.0000
v  -5.0000 16.0001 -5.0000
v  -5.0000 16.0001 -3.0000
v  -5.0000 15.0000 -3.0000
v  1.0000 15.0001 -5.0000
v  1.0000 16.0001 -5.0000
v  -1.0000 16.0001 -5.0000
v  -1.0000 15.0001 -5.0000
v  -3.0000 16.0001 -5.0000
v  -3.0000 15.0001 -5.0000
v  5.0000 15.0001 -5.0000
v  5.0000 16.0001 -5.0000
v  3.0000 16.0001 -5.0000
v  3.0000 15.0001 -5.0000
v  5.0000 15.0000 1.0000
v  5.0000 16.0001 1.0000
v  5.0000 16.0001 -1.0000
v  5.0000 15.0000 -1.0000
v  5.0000 16.0001 -3.0000
v  5.0000 15.0000 -3.0000
v  5.0000 15.0000 5.0000
v  5.0000 16.0001 5.0000
v  5.0000 16.0001 3.0000
v  5.0000 15.0000 3.0000
v  1.0000 15.0000 5.0000
v  1.0000 16.0001 5.0000
v  3.0000 16.0001 5.0000
v  3.0000 15.0000 5.0000
v  -3.0000 16.0001 5.0000
v  -3.0000 15.0000 5.0000
v  -1.0000 16.0001 5.0000
v  -1.0000 15.0000 5.0000
# 40 vertices

vn 1.0000 0.0000 -0.0000
vn 0.7071 -0.0000 -0.7071
vn 0.7071 0.0000 0.7071
vn 0.0000 0.0000 1.0000
vn -0.0000 0.0000 1.0000
vn -0.7071 -0.0000 0.7071
vn -1.0000 -0.0000 0.0000
vn -0.7071 -0.0000 -0.7071
vn -0.0000 -0.0000 -1.0000
vn -0.0000 0.0000 -1.0000
vn 0.0000 -0.0000 -1.0000
# 11 vertex normals

vt 0.9997 -0.9976 0.0000
vt 0.9997 -0.8332 0.0000
vt 0.6674 -0.8332 0.0000
vt 0.6674 -0.9976 0.0000
vt 0.3349 -0.8332 0.0000
vt 0.3349 -0.9976 0.0000
vt 0.0016 -0.8332 0.0000
vt 0.0016 -0.9976 0.0000
# 8 texture coords

o Object57124074
g Object57124074
f 967/65/49 968/66/49 969/67/49 970/68/49 
f 970/68/49 969/67/49 971/69/49 972/70/49 
f 972/70/49 971/69/49 973/71/50 974/72/50 
f 975/68/51 976/67/51 977/69/49 978/70/49 
f 978/70/49 977/69/49 968/71/49 967/72/49 
f 979/65/52 980/66/52 981/67/52 982/68/52 
f 982/68/52 981/67/52 983/69/53 984/70/53 
f 984/70/53 983/69/53 976/71/51 975/72/51 
f 985/68/54 986/67/54 987/69/52 988/70/52 
f 988/70/52 987/69/52 980/71/52 979/72/52 
f 989/65/55 990/66/55 991/67/55 992/68/55 
f 992/68/55 991/67/55 993/69/55 994/70/55 
f 994/70/55 993/69/55 986/71/54 985/72/54 
f 995/68/56 996/67/56 997/69/55 998/70/55 
f 998/70/55 997/69/55 990/71/55 989/72/55 
f 999/65/57 1000/66/58 1001/67/58 1002/68/58 
f 1002/68/58 1001/67/58 996/69/56 995/70/56 
f 974/65/50 973/66/50 1003/67/59 1004/68/59 
f 1004/68/59 1003/67/59 1005/69/57 1006/70/57 
f 1006/70/57 1005/69/57 1000/71/58 999/72/57 
# 20 polygons

#
# object Object57124075
#

v  3.0000 16.0000 1.0000
v  3.0000 16.0000 -1.0000
v  5.0000 16.0001 -1.0000
v  5.0000 16.0001 1.0000
v  3.0000 16.0000 -3.0000
v  5.0000 16.0001 -3.0000
v  3.0000 16.0001 -5.0000
v  5.0000 16.0001 -5.0000
v  3.0000 16.0001 5.0000
v  3.0000 16.0000 3.0000
v  5.0000 16.0001 3.0000
v  5.0000 16.0001 5.0000
v  1.0000 16.0001 5.0000
v  1.0000 16.0000 3.0000
v  -1.0000 16.0001 5.0000
v  -1.0000 16.0000 3.0000
v  -3.0000 16.0001 5.0000
v  -3.0000 16.0000 3.0000
v  1.0000 16.0000 1.0000
v  -1.0000 16.0000 1.0000
v  -3.0000 16.0000 1.0000
v  1.0000 16.0000 -1.0000
v  -1.0000 16.0000 -1.0000
v  -3.0000 16.0000 -1.0000
v  1.0000 16.0000 -3.0000
v  -1.0000 16.0000 -3.0000
v  -3.0000 16.0000 -3.0000
v  1.0000 16.0001 -5.0000
v  -1.0000 16.0001 -5.0000
v  -3.0000 16.0001 -5.0000
v  -5.0000 16.0001 1.0000
v  -5.0000 16.0001 -1.0000
v  -5.0000 16.0001 -3.0000
v  -5.0000 16.0001 -5.0000
v  -5.0000 16.0001 5.0000
v  -5.0000 16.0001 3.0000
# 36 vertices

vn 0.0000 -1.0000 -0.0000
vn 0.0000 -1.0000 0.0000
vn -0.0000 -1.0000 0.0000
vn -0.0000 -1.0000 -0.0000
# 4 vertex normals

vt 2.0000 -0.9999 0.0000
vt 2.0000 -0.6666 0.0000
vt 1.6666 -0.6666 0.0000
vt 1.6667 -0.9999 0.0000
vt 2.0000 -0.3334 0.0000
vt 1.6667 -0.3334 0.0000
vt 2.0000 -0.0000 0.0000
vt 1.6667 -0.0000 0.0000
vt 1.3333 -0.6666 0.0000
vt 1.3333 -0.3334 0.0000
vt 1.0000 -0.3334 0.0000
vt 1.0000 -0.6666 0.0000
vt 1.3333 -0.0000 0.0000
vt 1.0000 -0.0000 0.0000
vt 1.3333 -0.9999 0.0000
vt 1.0000 -0.9999 0.0000
# 16 texture coords

o Object57124075
g Object57124075
f 1007/73/60 1008/74/60 1009/75/61 1010/76/60 
f 1008/74/60 1011/77/60 1012/78/60 1009/75/61 
f 1011/77/60 1013/79/60 1014/80/60 1012/78/60 
f 1015/74/61 1016/77/61 1017/78/61 1018/75/61 
f 1016/77/61 1007/79/60 1010/80/60 1017/78/61 
f 1019/81/62 1020/82/61 1016/83/61 1015/84/61 
f 1021/75/62 1022/78/61 1020/82/61 1019/81/62 
f 1023/74/62 1024/77/62 1022/78/61 1021/75/62 
f 1020/82/61 1025/85/60 1007/86/60 1016/83/61 
f 1022/78/61 1026/80/60 1025/85/60 1020/82/61 
f 1024/77/62 1027/79/62 1026/80/60 1022/78/61 
f 1025/87/60 1028/81/60 1008/84/60 1007/88/60 
f 1026/76/60 1029/75/60 1028/81/60 1025/87/60 
f 1027/73/62 1030/74/62 1029/75/60 1026/76/60 
f 1028/81/60 1031/82/63 1011/83/60 1008/84/60 
f 1029/75/60 1032/78/63 1031/82/63 1028/81/60 
f 1030/74/62 1033/77/63 1032/78/63 1029/75/60 
f 1031/82/63 1034/85/63 1013/86/60 1011/83/60 
f 1032/78/63 1035/80/60 1034/85/63 1031/82/63 
f 1033/77/63 1036/79/60 1035/80/60 1032/78/63 
f 1037/87/63 1038/81/63 1030/84/62 1027/88/62 
f 1038/81/63 1039/82/63 1033/83/63 1030/84/62 
f 1039/82/63 1040/85/63 1036/86/60 1033/83/63 
f 1041/81/62 1042/82/62 1024/83/62 1023/84/62 
f 1042/82/62 1037/85/63 1027/86/62 1024/83/62 
# 25 polygons

#
# object Object57124063
#

v  -9.0000 -15.0000 -7.0000
v  -9.0000 -15.0000 -9.0000
v  -11.0000 -15.0000 -9.0000
v  -11.0000 -15.0000 -7.0000
v  -9.0000 -15.0000 -11.0000
v  -11.0000 -15.0000 -11.0000
v  -7.0000 -15.0000 -7.0000
v  -7.0000 -15.0000 -9.0000
v  -5.0000 -15.0000 -7.0000
v  -5.0000 -15.0000 -9.0000
v  -3.0000 -15.0000 -7.0000
v  -3.0000 -15.0000 -9.0000
v  -7.0000 -15.0000 -11.0000
v  -5.0000 -15.0000 -11.0000
v  -3.0000 -15.0000 -11.0000
v  -1.0000 -15.0000 -7.0000
v  -1.0000 -15.0000 -9.0000
v  1.0000 -15.0000 -7.0000
v  1.0000 -15.0000 -9.0000
v  3.0000 -15.0000 -7.0000
v  3.0000 -15.0000 -9.0000
v  -1.0000 -15.0000 -11.0000
v  1.0000 -15.0000 -11.0000
v  3.0000 -15.0000 -11.0000
v  5.0000 -15.0000 -7.0000
v  5.0000 -15.0000 -9.0000
v  7.0000 -15.0000 -7.0000
v  7.0000 -15.0000 -9.0000
v  9.0000 -15.0000 -7.0000
v  9.0000 -15.0000 -9.0000
v  5.0000 -15.0000 -11.0000
v  7.0000 -15.0000 -11.0000
v  9.0000 -15.0000 -11.0000
v  11.0000 -15.0000 -7.0000
v  11.0000 -15.0000 -9.0000
v  11.0000 -15.0000 -11.0000
v  11.0000 -15.0000 -5.0000
v  9.0000 -15.0000 -5.0000
v  5.0000 -15.0000 -5.0000
v  3.0000 -15.0000 -5.0000
v  7.0000 -15.0000 -5.0000
v  -1.0000 -15.0000 -5.0000
v  -3.0000 -15.0000 -5.0000
v  1.0000 -15.0000 -5.0000
v  -7.0000 -15.0000 -1.0000
v  -7.0000 -15.0000 -3.0000
v  -9.0000 -15.0000 -3.0000
v  -9.0000 -15.0000 -1.0000
v  -5.0000 -15.0000 -1.0000
v  -5.0000 -15.0000 -3.0000
v  -7.0000 -15.0000 -5.0000
v  -9.0000 -15.0000 -5.0000
v  -5.0000 -15.0000 -5.0000
v  -11.0000 -15.0000 -3.0000
v  -11.0000 -15.0000 -1.0000
v  -11.0000 -15.0000 -5.0000
v  -9.0000 -15.0000 5.0000
v  -9.0000 -15.0000 3.0000
v  -11.0000 -15.0000 3.0000
v  -11.0000 -15.0000 5.0000
v  -9.0000 -15.0000 1.0000
v  -11.0000 -15.0000 1.0000
v  -7.0000 -15.0000 5.0000
v  -7.0000 -15.0000 3.0000
v  -5.0000 -15.0000 5.0000
v  -5.0000 -15.0000 3.0000
v  -7.0000 -15.0000 1.0000
v  -5.0000 -15.0000 1.0000
v  11.0000 -15.0000 11.0000
v  11.0000 -15.0000 9.0000
v  9.0000 -15.0000 9.0000
v  9.0000 -15.0000 11.0000
v  11.0000 -15.0000 7.0000
v  9.0000 -15.0000 7.0000
v  11.0000 -15.0000 5.0000
v  9.0000 -15.0000 5.0000
v  5.0000 -15.0000 11.0000
v  5.0000 -15.0000 9.0000
v  3.0000 -15.0000 9.0000
v  3.0000 -15.0000 11.0000
v  7.0000 -15.0000 11.0000
v  7.0000 -15.0000 9.0000
v  5.0000 -15.0000 7.0000
v  3.0000 -15.0000 7.0000
v  7.0000 -15.0000 7.0000
v  5.0000 -15.0000 5.0000
v  3.0000 -15.0000 5.0000
v  7.0000 -15.0000 5.0000
v  -1.0000 -15.0000 11.0000
v  -1.0000 -15.0000 9.0000
v  -3.0000 -15.0000 9.0000
v  -3.0000 -15.0000 11.0000
v  1.0000 -15.0000 11.0000
v  1.0000 -15.0000 9.0000
v  -1.0000 -15.0000 7.0000
v  -3.0000 -15.0000 7.0000
v  1.0000 -15.0000 7.0000
v  -1.0000 -15.0000 5.0000
v  -3.0000 -15.0000 5.0000
v  1.0000 -15.0000 5.0000
v  -7.0000 -15.0000 11.0000
v  -7.0000 -15.0000 9.0000
v  -9.0000 -15.0000 9.0000
v  -9.0000 -15.0000 11.0000
v  -5.0000 -15.0000 11.0000
v  -5.0000 -15.0000 9.0000
v  -7.0000 -15.0000 7.0000
v  -9.0000 -15.0000 7.0000
v  -5.0000 -15.0000 7.0000
v  -11.0000 -15.0000 9.0000
v  -11.0000 -15.0000 11.0000
v  -11.0000 -15.0000 7.0000
v  -3.0000 -15.0000 3.0000
v  -1.0000 -15.0000 3.0000
v  1.0000 -15.0000 3.0000
v  -3.0000 -15.0000 1.0000
v  -1.0000 -15.0000 1.0000
v  1.0000 -15.0000 1.0000
v  -3.0000 -15.0000 -1.0000
v  -1.0000 -15.0000 -1.0000
v  1.0000 -15.0000 -1.0000
v  -3.0000 -15.0000 -3.0000
v  -1.0000 -15.0000 -3.0000
v  1.0000 -15.0000 -3.0000
v  3.0000 -15.0000 -1.0000
v  3.0000 -15.0000 -3.0000
v  5.0000 -15.0000 -1.0000
v  5.0000 -15.0000 -3.0000
v  7.0000 -15.0000 -1.0000
v  7.0000 -15.0000 -3.0000
v  3.0000 -15.0000 3.0000
v  5.0000 -15.0000 3.0000
v  7.0000 -15.0000 3.0000
v  3.0000 -15.0000 1.0000
v  5.0000 -15.0000 1.0000
v  7.0000 -15.0000 1.0000
v  9.0000 -15.0000 3.0000
v  11.0000 -15.0000 3.0000
v  9.0000 -15.0000 1.0000
v  11.0000 -15.0000 1.0000
v  9.0000 -15.0000 -1.0000
v  11.0000 -15.0000 -1.0000
v  9.0000 -15.0000 -3.0000
v  11.0000 -15.0000 -3.0000
# 144 vertices

vn 0.0000 1.0000 -0.0000
vn 0.0000 1.0000 0.0000
vn -0.0000 1.0000 0.0000
vn -0.0000 1.0000 -0.0000
# 4 vertex normals

vt 2.9999 0.0000 0.0000
vt 2.9999 0.3334 0.0000
vt 2.6666 0.3334 0.0000
vt 2.6666 0.0000 0.0000
vt 2.9999 0.6666 0.0000
vt 2.6666 0.6666 0.0000
vt 2.3333 0.0000 0.0000
vt 2.3333 0.3334 0.0000
vt 2.0001 0.3334 0.0000
vt 2.0001 0.0000 0.0000
vt 2.3333 0.6666 0.0000
vt 2.0001 0.6666 0.0000
vt 2.3333 0.9999 0.0000
vt 2.0001 0.9999 0.0000
vt 2.6666 0.9999 0.0000
vt 2.9999 0.9999 0.0000
# 16 texture coords

o Object57124063
g Object57124063
f 1043/89/64 1044/90/64 1045/91/64 1046/92/64 
f 1044/90/64 1047/93/64 1048/94/64 1045/91/64 
f 1049/95/64 1050/96/64 1044/97/64 1043/98/64 
f 1051/92/65 1052/91/64 1050/96/64 1049/95/64 
f 1053/89/65 1054/90/64 1052/91/64 1051/92/65 
f 1050/96/64 1055/99/64 1047/100/64 1044/97/64 
f 1052/91/64 1056/94/64 1055/99/64 1050/96/64 
f 1054/90/64 1057/93/64 1056/94/64 1052/91/64 
f 1058/95/65 1059/96/64 1054/97/64 1053/98/65 
f 1060/92/65 1061/91/64 1059/96/64 1058/95/65 
f 1062/89/66 1063/90/64 1061/91/64 1060/92/65 
f 1059/96/64 1064/99/64 1057/100/64 1054/97/64 
f 1061/91/64 1065/94/64 1064/99/64 1059/96/64 
f 1063/90/64 1066/93/64 1065/94/64 1061/91/64 
f 1067/95/66 1068/96/64 1063/97/64 1062/98/66 
f 1069/92/65 1070/91/64 1068/96/64 1067/95/66 
f 1071/89/65 1072/90/64 1070/91/64 1069/92/65 
f 1068/96/64 1073/99/64 1066/100/64 1063/97/64 
f 1070/91/64 1074/94/64 1073/99/64 1068/96/64 
f 1072/90/64 1075/93/64 1074/94/64 1070/91/64 
f 1076/95/65 1077/96/64 1072/97/64 1071/98/65 
f 1077/96/64 1078/99/64 1075/100/64 1072/97/64 
f 1079/99/65 1076/101/65 1071/102/65 1080/100/65 
f 1081/99/65 1067/101/66 1062/102/66 1082/100/65 
f 1083/94/65 1069/103/65 1067/101/66 1081/99/65 
f 1080/93/65 1071/104/65 1069/103/65 1083/94/65 
f 1084/99/65 1058/101/65 1053/102/65 1085/100/66 
f 1086/94/65 1060/103/65 1058/101/65 1084/99/65 
f 1082/93/65 1062/104/66 1060/103/65 1086/94/65 
f 1087/95/64 1088/96/64 1089/97/64 1090/98/64 
f 1091/92/64 1092/91/64 1088/96/64 1087/95/64 
f 1088/96/64 1093/99/65 1094/100/64 1089/97/64 
f 1092/91/64 1095/94/65 1093/99/65 1088/96/64 
f 1093/99/65 1049/101/64 1043/102/64 1094/100/64 
f 1095/94/65 1051/103/65 1049/101/64 1093/99/65 
f 1085/93/66 1053/104/65 1051/103/65 1095/94/65 
f 1090/89/64 1089/90/64 1096/91/64 1097/92/64 
f 1089/90/64 1094/93/64 1098/94/64 1096/91/64 
f 1094/93/64 1043/104/64 1046/103/64 1098/94/64 
f 1099/89/64 1100/90/64 1101/91/64 1102/92/64 
f 1100/90/64 1103/93/64 1104/94/64 1101/91/64 
f 1103/93/64 1090/104/64 1097/103/64 1104/94/64 
f 1105/95/64 1106/96/64 1100/97/64 1099/98/64 
f 1107/92/64 1108/91/64 1106/96/64 1105/95/64 
f 1106/96/64 1109/99/64 1103/100/64 1100/97/64 
f 1108/91/64 1110/94/64 1109/99/64 1106/96/64 
f 1109/99/64 1087/101/64 1090/102/64 1103/100/64 
f 1110/94/64 1091/103/64 1087/101/64 1109/99/64 
f 1111/95/64 1112/96/64 1113/97/64 1114/98/64 
f 1112/96/64 1115/99/64 1116/100/64 1113/97/64 
f 1115/99/64 1117/101/67 1118/102/67 1116/100/64 
f 1119/95/64 1120/96/64 1121/97/64 1122/98/64 
f 1123/92/64 1124/91/64 1120/96/64 1119/95/64 
f 1114/89/64 1113/90/64 1124/91/64 1123/92/64 
f 1120/96/64 1125/99/67 1126/100/67 1121/97/64 
f 1124/91/64 1127/94/67 1125/99/67 1120/96/64 
f 1113/90/64 1116/93/64 1127/94/67 1124/91/64 
f 1125/99/67 1128/101/67 1129/102/67 1126/100/67 
f 1127/94/67 1130/103/67 1128/101/67 1125/99/67 
f 1116/93/64 1118/104/67 1130/103/67 1127/94/67 
f 1131/95/64 1132/96/64 1133/97/64 1134/98/64 
f 1135/92/64 1136/91/64 1132/96/64 1131/95/64 
f 1122/89/64 1121/90/64 1136/91/64 1135/92/64 
f 1132/96/64 1137/99/67 1138/100/64 1133/97/64 
f 1136/91/64 1139/94/67 1137/99/67 1132/96/64 
f 1121/90/64 1126/93/67 1139/94/67 1136/91/64 
f 1137/99/67 1140/101/67 1141/102/64 1138/100/64 
f 1139/94/67 1142/103/67 1140/101/67 1137/99/67 
f 1126/93/67 1129/104/67 1142/103/67 1139/94/67 
f 1143/95/64 1144/96/64 1145/97/64 1146/98/64 
f 1147/92/64 1148/91/64 1144/96/64 1143/95/64 
f 1134/89/64 1133/90/64 1148/91/64 1147/92/64 
f 1144/96/64 1149/99/64 1150/100/64 1145/97/64 
f 1148/91/64 1151/94/64 1149/99/64 1144/96/64 
f 1133/90/64 1138/93/64 1151/94/64 1148/91/64 
f 1149/99/64 1105/101/64 1099/102/64 1150/100/64 
f 1151/94/64 1107/103/64 1105/101/64 1149/99/64 
f 1138/93/64 1141/104/64 1107/103/64 1151/94/64 
f 1146/89/64 1145/90/64 1152/91/64 1153/92/64 
f 1145/90/64 1150/93/64 1154/94/64 1152/91/64 
f 1150/93/64 1099/104/64 1102/103/64 1154/94/64 
f 1141/95/64 1155/96/64 1108/97/64 1107/98/64 
f 1140/92/67 1156/91/67 1155/96/64 1141/95/64 
f 1142/89/67 1157/90/67 1156/91/67 1140/92/67 
f 1155/96/64 1158/99/64 1110/100/64 1108/97/64 
f 1156/91/67 1159/94/64 1158/99/64 1155/96/64 
f 1157/90/67 1160/93/64 1159/94/64 1156/91/67 
f 1158/99/64 1161/101/64 1091/102/64 1110/100/64 
f 1159/94/64 1162/103/64 1161/101/64 1158/99/64 
f 1160/93/64 1163/104/64 1162/103/64 1159/94/64 
f 1161/95/64 1164/96/65 1092/97/64 1091/98/64 
f 1162/92/64 1165/91/65 1164/96/65 1161/95/64 
f 1163/89/64 1166/90/65 1165/91/65 1162/92/64 
f 1164/96/65 1085/99/66 1095/100/65 1092/97/64 
f 1165/91/65 1084/94/65 1085/99/66 1164/96/65 
f 1166/90/65 1086/93/65 1084/94/65 1165/91/65 
f 1167/95/64 1168/96/65 1166/97/65 1163/98/64 
f 1169/92/64 1170/91/65 1168/96/65 1167/95/64 
f 1171/89/64 1172/90/66 1170/91/65 1169/92/64 
f 1168/96/65 1082/99/65 1086/100/65 1166/97/65 
f 1170/91/65 1081/94/65 1082/99/65 1168/96/65 
f 1172/90/66 1083/93/65 1081/94/65 1170/91/65 
f 1129/95/67 1173/96/67 1157/97/67 1142/98/67 
f 1128/92/67 1174/91/67 1173/96/67 1129/95/67 
f 1130/89/67 1175/90/67 1174/91/67 1128/92/67 
f 1173/96/67 1176/99/64 1160/100/64 1157/97/67 
f 1174/91/67 1177/94/64 1176/99/64 1173/96/67 
f 1175/90/67 1178/93/64 1177/94/64 1174/91/67 
f 1176/99/64 1167/101/64 1163/102/64 1160/100/64 
f 1177/94/64 1169/103/64 1167/101/64 1176/99/64 
f 1178/93/64 1171/104/64 1169/103/64 1177/94/64 
f 1118/95/67 1179/96/67 1175/97/67 1130/98/67 
f 1117/92/67 1180/91/67 1179/96/67 1118/95/67 
f 1179/96/67 1181/99/64 1178/100/64 1175/97/67 
f 1180/91/67 1182/94/64 1181/99/64 1179/96/67 
f 1181/99/64 1183/101/64 1171/102/64 1178/100/64 
f 1182/94/64 1184/103/64 1183/101/64 1181/99/64 
f 1183/95/64 1185/96/66 1172/97/66 1171/98/64 
f 1184/92/64 1186/91/65 1185/96/66 1183/95/64 
f 1185/96/66 1080/99/65 1083/100/65 1172/97/66 
f 1186/91/65 1079/94/65 1080/99/65 1185/96/66 
# 121 polygons

