# 3ds Max Wavefront OBJ Exporter v0.97b - (c)2007 guruware
# File Created: 28.10.2020 16:52:14

#
# object Object57123879
#

v  8.0001 -2.9999 6.9998
v  8.0001 -2.9999 4.9998
v  6.0000 -3.0000 4.9998
v  6.0001 -3.0000 6.9998
v  10.0001 -2.9999 6.9998
v  10.0001 -2.9999 4.9998
v  12.0001 -2.9999 6.9998
v  12.0001 -2.9999 4.9998
v  8.0001 -2.9999 2.9998
v  6.0000 -3.0000 2.9998
v  10.0001 -2.9999 2.9998
v  12.0001 -2.9999 2.9998
v  8.0001 -2.9999 0.9999
v  6.0001 -3.0000 0.9999
v  10.0001 -2.9999 0.9999
v  12.0001 -2.9999 0.9999
v  8.0001 -2.9999 -1.0000
v  6.0001 -2.9999 -0.9999
v  10.0001 -2.9999 -1.0000
v  12.0001 -2.9999 -1.0000
v  8.0001 -2.9999 -2.9999
v  6.0001 -2.9999 -2.9999
v  10.0001 -2.9999 -2.9999
v  12.0001 -2.9999 -2.9999
v  8.0001 -2.9999 -4.9999
v  6.0001 -2.9999 -4.9999
v  10.0001 -2.9999 -4.9999
v  12.0001 -2.9999 -4.9999
v  8.0001 -2.9999 -6.9999
v  6.0001 -2.9998 -6.9999
v  10.0001 -2.9999 -6.9999
v  12.0001 -2.9999 -6.9999
v  4.0000 -3.0001 4.9999
v  4.0000 -3.0001 2.9999
v  4.0000 -3.0001 0.9999
v  2.0000 -3.0001 2.9999
v  2.0000 -3.0001 0.9999
v  4.2413 -3.0001 7.0024
v  2.8263 -3.0001 5.5875
v  1.4121 -3.0001 4.1733
v  -0.0022 -3.0001 2.7590
v  -0.0000 -3.0001 0.9998
v  -6.0000 -6.9999 10.9999
v  -8.0000 -7.0001 10.9999
v  -8.0000 -7.0001 12.9999
v  -6.0000 -7.0001 12.9999
v  -8.0000 -7.0001 14.9999
v  -6.0000 -7.0001 14.9999
v  -4.0000 -6.9999 12.9999
v  -4.0000 -7.0001 14.9999
v  -6.2411 -6.9999 8.9979
v  -8.0000 -6.9999 8.9999
v  -4.8268 -6.9999 10.4122
v  -3.4126 -6.9999 11.8264
v  -1.9976 -6.9999 13.2413
v  -2.0000 -6.9999 14.9999
v  -1.2891 -6.9999 12.5329
v  -2.7041 -6.9999 11.1179
v  -4.1183 -6.9999 9.7037
v  -5.5326 -6.9999 8.2894
v  3.5332 -3.0007 7.7105
v  2.1182 -3.0007 6.2956
v  0.7040 -3.0007 4.8814
v  -0.7103 -3.0007 3.4671
v  6.0000 -3.0000 -0.0000
v  4.0000 -3.0000 -0.0000
v  2.0000 -3.0000 -0.0000
v  -0.0000 -3.0000 -0.0000
v  -4.0000 1.0001 -12.9999
v  -4.0000 1.0001 -14.9999
v  -6.0000 1.0001 -14.9999
v  -6.0000 1.0001 -12.9999
v  -8.0000 1.0001 -14.9999
v  -8.0000 1.0001 -12.9999
v  -6.0000 1.0001 -10.9999
v  -8.0000 1.0001 -10.9999
v  -1.9974 1.0001 -13.2412
v  -2.0000 1.0001 -14.9999
v  -3.4124 1.0001 -11.8262
v  -4.8266 1.0001 -10.4120
v  -6.2409 1.0001 -8.9977
v  -8.0000 1.0001 -8.9998
v  2.0000 -2.9997 -2.9999
v  2.0000 -2.9999 -0.9999
v  4.0000 -2.9999 -0.9999
v  4.0000 -2.9999 -2.9999
v  4.0000 -2.9997 -4.9999
v  -0.0020 -2.9997 -2.7588
v  0.0000 -2.9997 -0.9999
v  1.4123 -2.9997 -4.1731
v  2.8265 -2.9997 -5.5873
v  4.2415 -2.9997 -7.0023
v  3.5330 -2.9997 -7.7108
v  2.1180 -2.9997 -6.2958
v  0.7038 -2.9997 -4.8816
v  -0.7105 -2.9997 -3.4673
v  -1.2893 0.9995 -12.5331
v  -2.7043 0.9995 -11.1181
v  -4.1185 0.9995 -9.7039
v  -5.5328 0.9995 -8.2896
# 100 vertices

vn -0.0000 1.0000 -0.0000
vn -0.0000 1.0000 0.0000
vn 0.0000 1.0000 0.0000
vn 0.0001 1.0000 0.0000
vn 0.0000 1.0000 -0.0000
vn 0.0001 1.0000 0.0001
vn -0.0002 1.0000 0.0002
vn -0.0000 1.0000 0.0001
vn -0.0001 1.0000 0.0001
vn -0.0001 1.0000 0.0000
vn 0.0000 1.0000 0.0001
vn -0.0001 1.0000 -0.0000
vn -0.0004 1.0000 0.0004
vn -0.0000 1.0000 0.0002
vn 0.0002 1.0000 0.0002
vn 0.0001 1.0000 0.0002
vn 0.0004 1.0000 0.0004
# 17 vertex normals

vt 0.3339 -0.9986 0.0000
vt 0.3339 -0.6661 0.0000
vt 0.0001 -0.6661 0.0000
vt 0.0001 -0.9986 0.0000
vt 0.6666 -0.9986 0.0000
vt 0.6666 -0.6661 0.0000
vt 0.9999 -0.9986 0.0000
vt 0.9999 -0.6661 0.0000
vt 0.3339 -0.3339 0.0000
vt 0.0001 -0.3339 0.0000
vt 0.6666 -0.3339 0.0000
vt 0.9999 -0.3339 0.0000
vt 0.3339 -0.0013 0.0000
vt 0.0001 -0.0013 0.0000
vt 0.6666 -0.0013 0.0000
vt 0.9999 -0.0013 0.0000
vt 1.3333 -0.6666 0.0000
vt 1.0000 -0.6666 0.0000
vt 1.0000 -0.3334 0.0000
vt 1.3333 -0.3334 0.0000
vt 1.0000 -0.0000 0.0000
vt 1.3333 -0.0000 0.0000
vt 1.6667 -0.3334 0.0000
vt 1.6667 -0.0000 0.0000
vt 1.2934 -0.9999 0.0000
vt 1.0000 -0.9999 0.0000
vt 1.5288 -0.7646 0.0000
vt 1.7646 -0.5288 0.0000
vt 2.0000 -0.2934 0.0000
vt 2.0000 -0.0000 0.0000
vt 2.9998 0.0010 0.0000
vt 2.9998 0.1662 0.0000
vt 2.6677 0.1662 0.0000
vt 2.6677 0.0010 0.0000
vt 2.3351 0.1662 0.0000
vt 2.3351 0.0010 0.0000
vt 2.0011 0.1662 0.0000
vt 2.0011 0.0010 0.0000
# 38 texture coords

o Object57123879
g Object57123879
f 1/1/1 2/2/1 3/3/2 4/4/2 
f 5/5/1 6/6/1 2/2/1 1/1/1 
f 7/7/1 8/8/1 6/6/1 5/5/1 
f 2/2/1 9/9/1 10/10/2 3/3/2 
f 6/6/1 11/11/1 9/9/1 2/2/1 
f 8/8/1 12/12/1 11/11/1 6/6/1 
f 9/9/1 13/13/1 14/14/2 10/10/2 
f 11/11/1 15/15/1 13/13/1 9/9/1 
f 12/12/1 16/16/1 15/15/1 11/11/1 
f 13/9/1 17/13/1 18/14/3 14/10/2 
f 15/11/1 19/15/1 17/13/1 13/9/1 
f 16/12/1 20/16/1 19/15/1 15/11/1 
f 17/1/1 21/2/1 22/3/3 18/4/3 
f 19/5/1 23/6/1 21/2/1 17/1/1 
f 20/7/1 24/8/1 23/6/1 19/5/1 
f 21/2/1 25/9/1 26/10/4 22/3/3 
f 23/6/1 27/11/1 25/9/1 21/2/1 
f 24/8/1 28/12/1 27/11/1 23/6/1 
f 25/9/1 29/13/5 30/14/6 26/10/4 
f 27/11/1 31/15/1 29/13/5 25/9/1 
f 28/12/1 32/16/1 31/15/1 27/11/1 
f 33/17/2 3/18/2 10/19/2 34/20/1 
f 34/20/1 10/19/2 14/21/2 35/22/2 
f 36/23/2 34/20/1 35/22/2 37/24/2 
f 38/25/7 4/26/2 3/18/2 33/17/2 
f 33/17/2 39/27/7 38/25/7 
f 33/17/2 34/20/1 36/23/2 40/28/7 39/27/7 
f 36/23/2 41/29/7 40/28/7 
f 36/23/2 37/24/2 42/30/2 41/29/7 
f 43/17/8 44/18/9 45/19/3 46/20/9 
f 46/20/9 45/19/3 47/21/2 48/22/1 
f 49/23/10 46/20/9 48/22/1 50/24/9 
f 51/25/1 52/26/11 44/18/9 43/17/8 
f 43/17/8 53/27/1 51/25/1 
f 43/17/8 46/20/9 49/23/10 54/28/1 53/27/1 
f 49/23/10 55/29/1 54/28/1 
f 49/23/10 50/24/9 56/30/12 55/29/1 
f 55/31/1 57/32/1 58/33/1 54/34/1 
f 54/34/1 58/33/1 59/35/1 53/36/1 
f 53/36/1 59/35/1 60/37/1 51/38/1 
f 61/31/13 38/32/7 39/33/7 62/34/13 
f 62/34/13 39/33/7 40/35/7 63/36/13 
f 63/36/13 40/35/7 41/37/7 64/38/13 
f 14/31/2 65/32/3 66/33/11 35/34/2 
f 35/34/2 66/33/11 67/35/8 37/36/2 
f 37/36/2 67/35/8 68/37/14 42/38/2 
f 69/17/3 70/18/1 71/19/1 72/20/1 
f 72/20/1 71/19/1 73/21/1 74/22/1 
f 75/23/5 72/20/1 74/22/1 76/24/1 
f 77/25/15 78/26/1 70/18/1 69/17/3 
f 69/17/3 79/27/15 77/25/15 
f 69/17/3 72/20/1 75/23/5 80/28/15 79/27/15 
f 75/23/5 81/29/15 80/28/15 
f 75/23/5 76/24/1 82/30/1 81/29/15 
f 83/17/4 84/18/6 85/19/3 86/20/6 
f 86/20/6 85/19/3 18/21/3 22/22/3 
f 87/23/11 86/20/6 22/22/3 26/24/4 
f 88/25/1 89/26/16 84/18/6 83/17/4 
f 83/17/4 90/27/1 88/25/1 
f 83/17/4 86/20/6 87/23/11 91/28/1 90/27/1 
f 87/23/11 92/29/3 91/28/1 
f 87/23/11 26/24/4 30/30/6 92/29/3 
f 92/31/3 93/32/1 94/33/1 91/34/1 
f 91/34/1 94/33/1 95/35/1 90/36/1 
f 90/36/1 95/35/1 96/37/1 88/38/1 
f 97/31/17 77/32/15 79/33/15 98/34/17 
f 98/34/17 79/33/15 80/35/15 99/36/17 
f 99/36/17 80/35/15 81/37/15 100/38/17 
f 89/31/16 68/32/14 67/33/8 84/34/6 
f 84/34/6 67/33/8 66/35/11 85/36/3 
f 85/36/3 66/35/11 65/37/3 18/38/3 
# 63 polygons - 8 triangles

#
# object floor082
#

v  -4.1184 -6.9999 9.7036
v  -4.1184 -6.6665 9.7036
v  -5.5326 -6.6665 8.2894
v  -5.5326 -6.9999 8.2894
v  -2.7042 -6.9999 11.1178
v  -2.7042 -6.6665 11.1178
v  -1.2899 -6.9999 12.5320
v  -1.2899 -6.6665 12.5320
v  -2.5109 -5.6665 8.0961
v  -2.5109 -5.3332 8.0961
v  -3.9251 -5.3332 6.6819
v  -3.9251 -5.6665 6.6819
v  -1.0967 -5.6665 9.5103
v  -1.0967 -5.3332 9.5103
v  0.3175 -5.6665 10.9246
v  0.3175 -5.3332 10.9246
v  -0.9035 -4.3332 6.4887
v  -0.9035 -3.9999 6.4887
v  -2.3177 -3.9999 5.0745
v  -2.3177 -4.3332 5.0745
v  0.5107 -4.3332 7.9029
v  0.5107 -3.9999 7.9029
v  1.9249 -4.3332 9.3171
v  1.9249 -3.9999 9.3171
v  -3.3146 -6.3332 8.8998
v  -3.3146 -5.9999 8.8998
v  -4.7289 -5.9999 7.4856
v  -4.7289 -6.3332 7.4856
v  -1.9004 -6.3332 10.3141
v  -1.9004 -5.9999 10.3141
v  -0.4862 -6.3332 11.7283
v  -0.4862 -5.9999 11.7283
v  -1.7072 -4.9999 7.2924
v  -1.7072 -4.6665 7.2924
v  -3.1214 -4.6665 5.8782
v  -3.1214 -4.9999 5.8782
v  -0.2930 -4.9999 8.7066
v  -0.2930 -4.6665 8.7066
v  1.1212 -4.9999 10.1208
v  1.1212 -4.6665 10.1208
v  -0.0998 -3.6665 5.6850
v  -0.0998 -3.3332 5.6850
v  -1.5140 -3.3332 4.2708
v  -1.5140 -3.6665 4.2708
v  1.3144 -3.6665 7.0992
v  1.3144 -3.3332 7.0992
v  2.7287 -3.6665 8.5134
v  2.7287 -3.3332 8.5134
v  -3.7165 -6.6665 9.3017
v  -3.7165 -6.3332 9.3017
v  -5.1307 -6.3332 7.8875
v  -5.1307 -6.6665 7.8875
v  -2.3023 -6.6665 10.7159
v  -2.3023 -6.3332 10.7159
v  -0.8881 -6.6665 12.1301
v  -0.8881 -6.3332 12.1301
v  -2.1091 -5.3332 7.6943
v  -2.1091 -4.9999 7.6943
v  -3.5233 -4.9999 6.2801
v  -3.5233 -5.3332 6.2801
v  -0.6949 -5.3332 9.1085
v  -0.6949 -4.9999 9.1085
v  0.7194 -5.3332 10.5227
v  0.7194 -4.9999 10.5227
v  -0.5016 -3.9999 6.0868
v  -0.5016 -3.6665 6.0868
v  -1.9158 -3.6665 4.6726
v  -1.9158 -3.9999 4.6726
v  0.9126 -3.9999 7.5010
v  0.9126 -3.6665 7.5010
v  2.3268 -3.9999 8.9153
v  2.3268 -3.6665 8.9153
v  -2.9128 -5.9999 8.4980
v  -2.9128 -5.6665 8.4980
v  -4.3270 -5.6665 7.0838
v  -4.3270 -5.9999 7.0838
v  -1.4986 -5.9999 9.9122
v  -1.4986 -5.6665 9.9122
v  -0.0844 -5.9999 11.3264
v  -0.0844 -5.6665 11.3264
v  -1.3054 -4.6665 6.8905
v  -1.3053 -4.3332 6.8905
v  -2.7196 -4.3332 5.4763
v  -2.7196 -4.6665 5.4763
v  0.1089 -4.6665 8.3048
v  0.1089 -4.3332 8.3048
v  1.5231 -4.6665 9.7190
v  1.5231 -4.3332 9.7190
v  0.3021 -3.3332 5.2831
v  0.3021 -2.9999 5.2831
v  -1.1121 -2.9999 3.8689
v  -1.1121 -3.3332 3.8689
v  1.7163 -3.3332 6.6973
v  1.7163 -2.9999 6.6973
v  3.1305 -3.3332 8.1115
v  3.1305 -2.9999 8.1115
v  0.7039 -2.9999 4.8812
v  -0.7103 -2.9999 3.4670
v  2.1182 -2.9999 6.2955
v  3.5324 -2.9999 7.7097
v  0.7038 -2.9997 -4.8815
v  0.7038 -2.6664 -4.8815
v  -0.7104 -2.6664 -3.4673
v  -0.7104 -2.9997 -3.4673
v  2.1180 -2.9997 -6.2957
v  2.1180 -2.6664 -6.2957
v  3.5322 -2.9997 -7.7099
v  3.5322 -2.6664 -7.7099
v  -0.9037 -1.6664 -6.4889
v  -0.9037 -1.3330 -6.4889
v  -2.3179 -1.3330 -5.0747
v  -2.3179 -1.6664 -5.0747
v  0.5105 -1.6664 -7.9032
v  0.5105 -1.3330 -7.9032
v  1.9248 -1.6664 -9.3174
v  1.9248 -1.3330 -9.3174
v  -2.5111 -0.3330 -8.0964
v  -2.5111 0.0003 -8.0964
v  -3.9253 0.0003 -6.6822
v  -3.9253 -0.3330 -6.6822
v  -1.0969 -0.3330 -9.5106
v  -1.0969 0.0003 -9.5106
v  0.3173 -0.3330 -10.9248
v  0.3173 0.0003 -10.9248
v  -0.0999 -2.3330 -5.6852
v  -0.0999 -1.9997 -5.6852
v  -1.5142 -1.9997 -4.2710
v  -1.5142 -2.3330 -4.2710
v  1.3143 -2.3330 -7.0994
v  1.3143 -1.9997 -7.0994
v  2.7285 -2.3330 -8.5136
v  2.7285 -1.9997 -8.5136
v  -1.7074 -0.9997 -7.2927
v  -1.7074 -0.6664 -7.2927
v  -3.1216 -0.6664 -5.8784
v  -3.1216 -0.9997 -5.8784
v  -0.2932 -0.9997 -8.7069
v  -0.2932 -0.6664 -8.7069
v  1.1210 -0.9997 -10.1211
v  1.1210 -0.6664 -10.1211
v  -3.3148 0.3336 -8.9001
v  -3.3148 0.6670 -8.9001
v  -4.7290 0.6670 -7.4859
v  -4.7290 0.3336 -7.4859
v  -1.9006 0.3336 -10.3143
v  -1.9006 0.6670 -10.3143
v  -0.4864 0.3336 -11.7285
v  -0.4864 0.6670 -11.7285
v  0.3019 -2.6664 -5.2834
v  0.3019 -2.3330 -5.2834
v  -1.1123 -2.3330 -3.8691
v  -1.1123 -2.6664 -3.8691
v  1.7161 -2.6664 -6.6976
v  1.7161 -2.3330 -6.6976
v  3.1303 -2.6664 -8.1118
v  3.1303 -2.3330 -8.1118
v  -1.3055 -1.3330 -6.8908
v  -1.3055 -0.9997 -6.8908
v  -2.7197 -0.9997 -5.4766
v  -2.7197 -1.3330 -5.4766
v  0.1087 -1.3330 -8.3050
v  0.1087 -0.9997 -8.3050
v  1.5229 -1.3330 -9.7192
v  1.5229 -0.9997 -9.7192
v  -2.9130 0.0003 -8.4982
v  -2.9130 0.3336 -8.4982
v  -4.3272 0.3336 -7.0840
v  -4.3272 0.0003 -7.0840
v  -1.4988 0.0003 -9.9125
v  -1.4988 0.3336 -9.9125
v  -0.0845 0.0003 -11.3267
v  -0.0845 0.3336 -11.3267
v  -0.5018 -1.9997 -6.0871
v  -0.5018 -1.6664 -6.0871
v  -1.9160 -1.6664 -4.6729
v  -1.9160 -1.9997 -4.6729
v  0.9124 -1.9997 -7.5013
v  0.9124 -1.6664 -7.5013
v  2.3266 -1.9997 -8.9155
v  2.3266 -1.6664 -8.9155
v  -2.1092 -0.6664 -7.6945
v  -2.1092 -0.3330 -7.6945
v  -3.5235 -0.3330 -6.2803
v  -3.5235 -0.6664 -6.2803
v  -0.6950 -0.6664 -9.1087
v  -0.6950 -0.3330 -9.1087
v  0.7192 -0.6664 -10.5229
v  0.7192 -0.3330 -10.5229
v  -3.7167 0.6670 -9.3020
v  -3.7167 1.0003 -9.3020
v  -5.1309 1.0003 -7.8877
v  -5.1309 0.6670 -7.8877
v  -2.3025 0.6670 -10.7162
v  -2.3025 1.0003 -10.7162
v  -0.8883 0.6670 -12.1304
v  -0.8883 1.0003 -12.1304
v  -4.1185 1.0003 -9.7038
v  -5.5327 1.0003 -8.2896
v  -2.7043 1.0003 -11.1180
v  -1.2901 1.0003 -12.5322
# 200 vertices

vn -0.7071 0.0000 0.7071
vn -0.5000 0.7071 0.5000
vn -0.0000 1.0000 0.0000
vn 0.0000 1.0000 0.0000
vn 0.7071 0.0000 0.7071
vn 0.5000 0.7071 0.5000
vn 0.0000 1.0000 -0.0000
# 7 vertex normals

vt 2.3333 0.0000 0.0000
vt 2.3333 0.0417 0.0000
vt 2.0001 0.0417 0.0000
vt 2.0001 0.0000 0.0000
vt 2.6666 0.0000 0.0000
vt 2.6666 0.0417 0.0000
vt 2.9999 0.0000 0.0000
vt 2.9999 0.0417 0.0000
vt 2.3333 0.3334 0.0000
vt 2.3333 0.3750 0.0000
vt 2.0001 0.3750 0.0000
vt 2.0001 0.3334 0.0000
vt 2.6666 0.3334 0.0000
vt 2.6666 0.3750 0.0000
vt 2.9999 0.3334 0.0000
vt 2.9999 0.3750 0.0000
vt 2.3333 0.6666 0.0000
vt 2.3333 0.7083 0.0000
vt 2.0001 0.7083 0.0000
vt 2.0001 0.6666 0.0000
vt 2.6666 0.6666 0.0000
vt 2.6666 0.7083 0.0000
vt 2.9999 0.6666 0.0000
vt 2.9999 0.7083 0.0000
vt 2.3333 0.1667 0.0000
vt 2.3333 0.2084 0.0000
vt 2.0001 0.2084 0.0000
vt 2.0001 0.1667 0.0000
vt 2.6666 0.1667 0.0000
vt 2.6666 0.2084 0.0000
vt 2.9999 0.1667 0.0000
vt 2.9999 0.2084 0.0000
vt 2.3333 0.5000 0.0000
vt 2.3333 0.5417 0.0000
vt 2.0001 0.5417 0.0000
vt 2.0001 0.5000 0.0000
vt 2.6666 0.5000 0.0000
vt 2.6666 0.5417 0.0000
vt 2.9999 0.5000 0.0000
vt 2.9999 0.5417 0.0000
vt 2.3333 0.8333 0.0000
vt 2.3333 0.8750 0.0000
vt 2.0001 0.8750 0.0000
vt 2.0001 0.8333 0.0000
vt 2.6666 0.8333 0.0000
vt 2.6666 0.8750 0.0000
vt 2.9999 0.8333 0.0000
vt 2.9999 0.8750 0.0000
vt 2.3333 0.0834 0.0000
vt 2.3333 0.1250 0.0000
vt 2.0001 0.1250 0.0000
vt 2.0001 0.0834 0.0000
vt 2.6666 0.0834 0.0000
vt 2.6666 0.1250 0.0000
vt 2.9999 0.0834 0.0000
vt 2.9999 0.1250 0.0000
vt 2.3333 0.4167 0.0000
vt 2.3333 0.4583 0.0000
vt 2.0001 0.4583 0.0000
vt 2.0001 0.4167 0.0000
vt 2.6666 0.4167 0.0000
vt 2.6666 0.4583 0.0000
vt 2.9999 0.4167 0.0000
vt 2.9999 0.4583 0.0000
vt 2.3333 0.7500 0.0000
vt 2.3333 0.7916 0.0000
vt 2.0001 0.7916 0.0000
vt 2.0001 0.7500 0.0000
vt 2.6666 0.7500 0.0000
vt 2.6666 0.7916 0.0000
vt 2.9999 0.7500 0.0000
vt 2.9999 0.7916 0.0000
vt 2.3333 0.2500 0.0000
vt 2.3333 0.2917 0.0000
vt 2.0001 0.2917 0.0000
vt 2.0001 0.2500 0.0000
vt 2.6666 0.2500 0.0000
vt 2.6666 0.2917 0.0000
vt 2.9999 0.2500 0.0000
vt 2.9999 0.2917 0.0000
vt 2.3333 0.5833 0.0000
vt 2.3333 0.6250 0.0000
vt 2.0001 0.6250 0.0000
vt 2.0001 0.5833 0.0000
vt 2.6666 0.5833 0.0000
vt 2.6666 0.6250 0.0000
vt 2.9999 0.5833 0.0000
vt 2.9999 0.6250 0.0000
vt 2.3333 0.9166 0.0000
vt 2.3333 0.9583 0.0000
vt 2.0001 0.9583 0.0000
vt 2.0001 0.9166 0.0000
vt 2.6666 0.9166 0.0000
vt 2.6666 0.9583 0.0000
vt 2.9999 0.9166 0.0000
vt 2.9999 0.9583 0.0000
vt 2.3333 0.9999 0.0000
vt 2.0001 0.9999 0.0000
vt 2.6666 0.9999 0.0000
vt 2.9999 0.9999 0.0000
# 100 texture coords

o floor082
g floor082
f 101/39/18 102/40/19 103/41/19 104/42/18 
f 105/43/18 106/44/19 102/40/19 101/39/18 
f 107/45/18 108/46/19 106/44/19 105/43/18 
f 109/47/19 110/48/19 111/49/19 112/50/19 
f 113/51/19 114/52/19 110/48/19 109/47/19 
f 115/53/19 116/54/19 114/52/19 113/51/19 
f 117/55/19 118/56/19 119/57/19 120/58/19 
f 121/59/19 122/60/19 118/56/19 117/55/19 
f 123/61/19 124/62/19 122/60/19 121/59/19 
f 125/63/19 126/64/19 127/65/19 128/66/19 
f 129/67/19 130/68/19 126/64/19 125/63/19 
f 131/69/19 132/70/19 130/68/19 129/67/19 
f 133/71/19 134/72/19 135/73/19 136/74/19 
f 137/75/19 138/76/19 134/72/19 133/71/19 
f 139/77/19 140/78/19 138/76/19 137/75/19 
f 141/79/19 142/80/19 143/81/19 144/82/19 
f 145/83/19 146/84/19 142/80/19 141/79/19 
f 147/85/19 148/86/19 146/84/19 145/83/19 
f 149/87/19 150/88/19 151/89/19 152/90/19 
f 153/91/19 154/92/19 150/88/19 149/87/19 
f 155/93/19 156/94/19 154/92/19 153/91/19 
f 157/95/19 158/96/19 159/97/19 160/98/19 
f 161/99/19 162/100/19 158/96/19 157/95/19 
f 163/101/19 164/102/19 162/100/19 161/99/19 
f 165/103/19 166/104/19 167/105/19 168/106/19 
f 169/107/19 170/108/19 166/104/19 165/103/19 
f 171/109/19 172/110/19 170/108/19 169/107/19 
f 173/111/19 174/112/19 175/113/19 176/114/19 
f 177/115/19 178/116/19 174/112/19 173/111/19 
f 179/117/19 180/118/19 178/116/19 177/115/19 
f 181/119/19 182/120/19 183/121/19 184/122/19 
f 185/123/19 186/124/19 182/120/19 181/119/19 
f 187/125/19 188/126/19 186/124/19 185/123/19 
f 189/127/19 190/128/19 191/129/19 192/130/19 
f 193/131/19 194/132/19 190/128/19 189/127/19 
f 195/133/19 196/134/19 194/132/19 193/131/19 
f 102/40/19 149/87/19 152/90/19 103/41/19 
f 106/44/19 153/91/19 149/87/19 102/40/19 
f 108/46/19 155/93/19 153/91/19 106/44/19 
f 110/48/19 157/95/19 160/98/19 111/49/19 
f 114/52/19 161/99/19 157/95/19 110/48/19 
f 116/54/19 163/101/19 161/99/19 114/52/19 
f 118/56/19 165/103/19 168/106/19 119/57/19 
f 122/60/19 169/107/19 165/103/19 118/56/19 
f 124/62/19 171/109/19 169/107/19 122/60/19 
f 126/64/19 173/111/19 176/114/19 127/65/19 
f 130/68/19 177/115/19 173/111/19 126/64/19 
f 132/70/19 179/117/19 177/115/19 130/68/19 
f 134/72/19 181/119/19 184/122/19 135/73/19 
f 138/76/19 185/123/19 181/119/19 134/72/19 
f 140/78/19 187/125/19 185/123/19 138/76/19 
f 142/80/19 189/127/19 192/130/19 143/81/19 
f 146/84/19 193/131/19 189/127/19 142/80/19 
f 148/86/19 195/133/19 193/131/19 146/84/19 
f 150/88/19 125/63/19 128/66/19 151/89/19 
f 154/92/19 129/67/19 125/63/19 150/88/19 
f 156/94/19 131/69/19 129/67/19 154/92/19 
f 158/96/19 133/71/19 136/74/19 159/97/19 
f 162/100/19 137/75/19 133/71/19 158/96/19 
f 164/102/19 139/77/19 137/75/19 162/100/19 
f 166/104/19 141/79/19 144/82/19 167/105/19 
f 170/108/19 145/83/19 141/79/19 166/104/19 
f 172/110/19 147/85/19 145/83/19 170/108/19 
f 174/112/19 109/47/19 112/50/19 175/113/19 
f 178/116/19 113/51/19 109/47/19 174/112/19 
f 180/118/19 115/53/19 113/51/19 178/116/19 
f 182/120/19 117/55/19 120/58/19 183/121/19 
f 186/124/19 121/59/19 117/55/19 182/120/19 
f 188/126/19 123/61/19 121/59/19 186/124/19 
f 190/128/19 197/135/20 198/136/20 191/129/19 
f 194/132/19 199/137/21 197/135/20 190/128/19 
f 196/134/19 200/138/20 199/137/21 194/132/19 
f 201/39/22 202/40/23 203/41/23 204/42/22 
f 205/43/22 206/44/23 202/40/23 201/39/22 
f 207/45/22 208/46/23 206/44/23 205/43/22 
f 209/47/23 210/48/23 211/49/23 212/50/23 
f 213/51/23 214/52/23 210/48/23 209/47/23 
f 215/53/23 216/54/23 214/52/23 213/51/23 
f 217/55/23 218/56/23 219/57/23 220/58/23 
f 221/59/23 222/60/23 218/56/23 217/55/23 
f 223/61/23 224/62/23 222/60/23 221/59/23 
f 225/63/23 226/64/23 227/65/23 228/66/23 
f 229/67/23 230/68/23 226/64/23 225/63/23 
f 231/69/23 232/70/23 230/68/23 229/67/23 
f 233/71/23 234/72/23 235/73/23 236/74/23 
f 237/75/23 238/76/23 234/72/23 233/71/23 
f 239/77/23 240/78/23 238/76/23 237/75/23 
f 241/79/23 242/80/23 243/81/23 244/82/23 
f 245/83/23 246/84/23 242/80/23 241/79/23 
f 247/85/23 248/86/23 246/84/23 245/83/23 
f 249/87/23 250/88/23 251/89/23 252/90/23 
f 253/91/23 254/92/23 250/88/23 249/87/23 
f 255/93/23 256/94/23 254/92/23 253/91/23 
f 257/95/23 258/96/23 259/97/23 260/98/23 
f 261/99/23 262/100/23 258/96/23 257/95/23 
f 263/101/23 264/102/23 262/100/23 261/99/23 
f 265/103/23 266/104/23 267/105/23 268/106/23 
f 269/107/23 270/108/23 266/104/23 265/103/23 
f 271/109/23 272/110/23 270/108/23 269/107/23 
f 273/111/23 274/112/23 275/113/23 276/114/23 
f 277/115/23 278/116/23 274/112/23 273/111/23 
f 279/117/23 280/118/23 278/116/23 277/115/23 
f 281/119/23 282/120/23 283/121/23 284/122/23 
f 285/123/23 286/124/23 282/120/23 281/119/23 
f 287/125/23 288/126/23 286/124/23 285/123/23 
f 289/127/23 290/128/23 291/129/23 292/130/23 
f 293/131/23 294/132/23 290/128/23 289/127/23 
f 295/133/23 296/134/23 294/132/23 293/131/23 
f 202/40/23 249/87/23 252/90/23 203/41/23 
f 206/44/23 253/91/23 249/87/23 202/40/23 
f 208/46/23 255/93/23 253/91/23 206/44/23 
f 210/48/23 257/95/23 260/98/23 211/49/23 
f 214/52/23 261/99/23 257/95/23 210/48/23 
f 216/54/23 263/101/23 261/99/23 214/52/23 
f 218/56/23 265/103/23 268/106/23 219/57/23 
f 222/60/23 269/107/23 265/103/23 218/56/23 
f 224/62/23 271/109/23 269/107/23 222/60/23 
f 226/64/23 273/111/23 276/114/23 227/65/23 
f 230/68/23 277/115/23 273/111/23 226/64/23 
f 232/70/23 279/117/23 277/115/23 230/68/23 
f 234/72/23 281/119/23 284/122/23 235/73/23 
f 238/76/23 285/123/23 281/119/23 234/72/23 
f 240/78/23 287/125/23 285/123/23 238/76/23 
f 242/80/23 289/127/23 292/130/23 243/81/23 
f 246/84/23 293/131/23 289/127/23 242/80/23 
f 248/86/23 295/133/23 293/131/23 246/84/23 
f 250/88/23 225/63/23 228/66/23 251/89/23 
f 254/92/23 229/67/23 225/63/23 250/88/23 
f 256/94/23 231/69/23 229/67/23 254/92/23 
f 258/96/23 233/71/23 236/74/23 259/97/23 
f 262/100/23 237/75/23 233/71/23 258/96/23 
f 264/102/23 239/77/23 237/75/23 262/100/23 
f 266/104/23 241/79/23 244/82/23 267/105/23 
f 270/108/23 245/83/23 241/79/23 266/104/23 
f 272/110/23 247/85/23 245/83/23 270/108/23 
f 274/112/23 209/47/23 212/50/23 275/113/23 
f 278/116/23 213/51/23 209/47/23 274/112/23 
f 280/118/23 215/53/23 213/51/23 278/116/23 
f 282/120/23 217/55/23 220/58/23 283/121/23 
f 286/124/23 221/59/23 217/55/23 282/120/23 
f 288/126/23 223/61/23 221/59/23 286/124/23 
f 290/128/23 297/135/21 298/136/21 291/129/23 
f 294/132/23 299/137/24 297/135/21 290/128/23 
f 296/134/23 300/138/21 299/137/24 294/132/23 
# 144 polygons

#
# object Object57123884
#

v  10.0001 2.9998 6.9999
v  10.0001 2.9998 4.9999
v  12.0001 2.9998 4.9999
v  12.0001 2.9998 6.9999
v  8.0001 2.9998 6.9999
v  8.0001 2.9998 4.9999
v  6.0001 2.9999 6.9998
v  6.0001 2.9999 4.9998
v  10.0001 2.9998 2.9999
v  12.0001 2.9998 2.9999
v  8.0001 2.9998 2.9999
v  6.0001 2.9999 2.9998
v  10.0001 2.9998 0.9999
v  12.0001 2.9998 0.9999
v  8.0001 2.9998 0.9999
v  6.0001 2.9999 0.9999
v  10.0001 2.9998 -0.9999
v  12.0001 2.9998 -0.9999
v  8.0001 2.9998 -0.9999
v  6.0001 2.9999 -1.0000
v  10.0002 2.9998 -2.9999
v  12.0001 2.9998 -2.9999
v  8.0002 2.9998 -2.9999
v  6.0001 2.9999 -2.9999
v  10.0001 2.9998 -4.9999
v  12.0001 2.9998 -4.9999
v  8.0001 2.9998 -4.9999
v  6.0001 2.9999 -4.9999
v  10.0001 2.9998 -6.9999
v  12.0001 2.9998 -6.9999
v  8.0001 2.9998 -6.9999
v  6.0001 2.9999 -6.9999
v  -4.3261 0.0010 7.0829
v  -3.1211 0.9999 5.8779
v  -1.7067 0.9999 7.2922
v  -2.9118 0.0010 8.4972
v  -5.5326 -0.9998 8.2894
v  -4.1183 -0.9998 9.7037
v  -0.2926 0.9999 8.7064
v  -1.4976 0.0010 9.9114
v  -2.7041 -0.9998 11.1179
v  1.1224 0.9999 10.1213
v  -0.0826 0.0010 11.3264
v  -1.2891 -0.9998 12.5328
v  -1.9157 1.9990 4.6725
v  -0.5014 1.9990 6.0868
v  -0.7103 2.9999 3.4671
v  0.7040 2.9999 4.8814
v  0.9128 1.9990 7.5010
v  2.1182 2.9999 6.2956
v  2.3278 1.9990 8.9159
v  3.5332 2.9999 7.7105
v  4.0000 2.9999 4.9998
v  4.0000 2.9999 2.9998
v  4.0000 2.9999 0.9998
v  2.0000 2.9999 2.9998
v  2.0000 2.9999 0.9998
v  4.2413 2.9999 7.0024
v  2.8263 2.9999 5.5875
v  1.4121 2.9999 4.1733
v  -0.0022 2.9999 2.7590
v  -0.0000 2.9999 0.9998
v  -6.0000 -1.0001 10.9999
v  -6.0000 -1.0001 12.9999
v  -8.0000 -1.0001 12.9998
v  -8.0000 -1.0001 10.9998
v  -6.0000 -1.0001 14.9999
v  -8.0000 -1.0001 14.9999
v  -4.0000 -1.0001 12.9999
v  -4.0000 -1.0001 14.9999
v  -6.2411 -1.0000 8.9979
v  -8.0000 -1.0001 8.9998
v  -4.8268 -1.0000 10.4122
v  -3.4126 -1.0000 11.8264
v  -1.9976 -1.0001 13.2413
v  -2.0000 -1.0001 14.9999
v  -1.9169 4.0011 -4.6738
v  -3.1220 5.0001 -5.8788
v  -1.7077 5.0001 -7.2931
v  -0.5026 4.0011 -6.0881
v  -0.7104 3.0004 -3.4673
v  0.7039 3.0004 -4.8816
v  -0.2935 5.0001 -8.7073
v  0.9116 4.0011 -7.5023
v  2.1181 3.0004 -6.2958
v  1.1215 5.0001 -10.1223
v  2.3266 4.0011 -8.9172
v  3.5330 3.0004 -7.7108
v  -4.3273 5.9992 -7.0842
v  -2.9130 5.9992 -8.4985
v  -5.5328 7.0001 -8.2896
v  -4.1185 7.0001 -9.7039
v  -1.4988 5.9992 -9.9127
v  -2.7043 7.0001 -11.1181
v  -0.0839 5.9992 -11.3277
v  -1.2893 7.0001 -12.5331
v  -4.0000 7.0001 -12.9999
v  -6.0000 7.0001 -12.9999
v  -6.0000 7.0001 -14.9999
v  -4.0000 7.0001 -14.9999
v  -8.0000 7.0001 -12.9999
v  -8.0000 7.0001 -14.9999
v  -6.0000 7.0001 -10.9999
v  -8.0000 7.0001 -10.9999
v  -1.9974 7.0001 -13.2412
v  -2.0000 7.0001 -14.9999
v  -3.4124 7.0001 -11.8262
v  -4.8265 7.0001 -10.4120
v  -6.2409 7.0001 -8.9977
v  -8.0000 7.0001 -8.9999
v  2.0000 3.0000 -2.9999
v  4.0000 3.0000 -2.9999
v  4.0000 3.0000 -1.0000
v  2.0000 3.0000 -1.0000
v  4.0000 3.0000 -4.9999
v  -0.0020 3.0001 -2.7588
v  0.0000 3.0000 -1.0000
v  1.4124 3.0002 -4.1731
v  2.8265 3.0002 -5.5873
v  4.2415 3.0001 -7.0023
# 120 vertices

vn 0.0000 -1.0000 0.0000
vn -0.0000 -1.0000 0.0000
vn -0.0000 -1.0000 -0.0000
vn -0.0001 -1.0000 -0.0000
vn -0.0001 -1.0000 0.0000
vn 0.3577 -0.8626 -0.3577
vn 0.3576 -0.8627 -0.3576
vn 0.3578 -0.8625 -0.3578
vn 0.3580 -0.8623 -0.3580
vn 0.0000 -1.0000 -0.0000
vn 0.0001 -1.0000 -0.0000
vn 0.0000 -1.0000 -0.0001
vn 0.0001 -1.0000 -0.0001
vn -0.3577 -0.8626 -0.3577
vn -0.3576 -0.8627 -0.3576
vn -0.3578 -0.8625 -0.3578
vn -0.3580 -0.8623 -0.3580
vn -0.0000 -1.0000 -0.0001
vn -0.0001 -1.0000 -0.0001
# 19 vertex normals

vt 0.3339 -0.9986 0.0000
vt 0.3339 -0.6661 0.0000
vt 0.0001 -0.6661 0.0000
vt 0.0001 -0.9986 0.0000
vt 0.6666 -0.9986 0.0000
vt 0.6666 -0.6661 0.0000
vt 0.9999 -0.9986 0.0000
vt 0.9999 -0.6661 0.0000
vt 0.3339 -0.3339 0.0000
vt 0.0001 -0.3339 0.0000
vt 0.6666 -0.3339 0.0000
vt 0.9999 -0.3339 0.0000
vt 0.3339 -0.0013 0.0000
vt 0.0001 -0.0013 0.0000
vt 0.6666 -0.0013 0.0000
vt 0.9999 -0.0013 0.0000
vt 1.3333 -0.9999 0.0000
vt 1.0000 -0.9999 0.0000
vt 1.0000 -0.6666 0.0000
vt 1.3333 -0.6666 0.0000
vt 1.6673 -1.0003 0.0000
vt 1.6673 -0.6670 0.0000
vt 1.0000 -0.3334 0.0000
vt 1.3333 -0.3334 0.0000
vt 1.6667 -0.3334 0.0000
vt 1.0000 -0.0000 0.0000
vt 1.3333 -0.0000 0.0000
vt 1.6673 0.0003 0.0000
vt 1.6667 -1.0000 0.0000
vt 1.6673 -0.6663 0.0000
vt 1.6667 -0.0000 0.0000
vt 1.2934 -0.9999 0.0000
vt 1.5288 -0.7646 0.0000
vt 1.7643 -0.5291 0.0000
vt 2.0000 -0.2934 0.0000
vt 2.0000 -0.0000 0.0000
vt 1.2929 -1.0005 0.0000
vt 1.5288 -0.7648 0.0000
# 38 texture coords

o Object57123884
g Object57123884
f 301/139/25 302/140/25 303/141/25 304/142/25 
f 305/143/26 306/144/26 302/140/25 301/139/25 
f 307/145/26 308/146/26 306/144/26 305/143/26 
f 302/140/25 309/147/25 310/148/25 303/141/25 
f 306/144/26 311/149/26 309/147/25 302/140/25 
f 308/146/26 312/150/27 311/149/26 306/144/26 
f 309/147/25 313/151/25 314/152/25 310/148/25 
f 311/149/26 315/153/26 313/151/25 309/147/25 
f 312/150/27 316/154/27 315/153/26 311/149/26 
f 313/147/25 317/151/25 318/152/25 314/148/25 
f 315/149/26 319/153/26 317/151/25 313/147/25 
f 316/150/27 320/154/28 319/153/26 315/149/26 
f 317/139/25 321/140/25 322/141/25 318/142/25 
f 319/143/26 323/144/26 321/140/25 317/139/25 
f 320/145/28 324/146/28 323/144/26 319/143/26 
f 321/140/25 325/147/25 326/148/25 322/141/25 
f 323/144/26 327/149/26 325/147/25 321/140/25 
f 324/146/28 328/150/29 327/149/26 323/144/26 
f 325/147/25 329/151/25 330/152/25 326/148/25 
f 327/149/26 331/153/26 329/151/25 325/147/25 
f 328/150/29 332/154/29 331/153/26 327/149/26 
f 333/155/30 334/156/31 335/157/31 336/158/30 
f 337/159/30 333/155/30 336/158/30 338/160/30 
f 336/158/30 335/157/31 339/161/31 340/162/30 
f 338/160/30 336/158/30 340/162/30 341/163/30 
f 340/162/30 339/161/31 342/164/31 343/165/30 
f 341/163/30 340/162/30 343/165/30 344/166/30 
f 345/155/32 346/158/32 335/157/31 334/156/31 
f 347/167/33 348/168/33 346/158/32 345/155/32 
f 346/158/32 349/162/32 339/161/31 335/157/31 
f 348/168/33 350/163/33 349/162/32 346/158/32 
f 349/162/32 351/165/32 342/164/31 339/161/31 
f 350/163/33 352/166/33 351/165/32 349/162/32 
f 353/158/26 354/162/27 312/161/27 308/157/26 
f 354/162/27 355/165/27 316/164/27 312/161/27 
f 356/163/26 357/169/34 355/165/27 354/162/27 
f 358/170/26 353/158/26 308/157/26 307/156/26 
f 353/158/26 358/170/26 359/171/26 
f 353/158/26 359/171/26 360/172/26 356/163/26 354/162/27 
f 356/163/26 360/172/26 361/173/26 
f 356/163/26 361/173/26 362/174/27 357/169/34 
f 363/158/35 364/162/26 365/161/26 366/157/27 
f 364/162/26 367/165/26 368/164/26 365/161/26 
f 369/163/36 370/169/25 367/165/26 364/162/26 
f 371/175/34 363/158/35 366/157/27 372/156/34 
f 363/158/35 371/175/34 373/176/37 
f 363/158/35 373/176/37 374/172/37 369/163/36 364/162/26 
f 369/163/36 374/172/37 375/173/34 
f 369/163/36 375/173/34 376/174/34 370/169/25 
f 377/155/38 378/156/39 379/157/39 380/158/38 
f 381/159/38 377/155/38 380/158/38 382/160/38 
f 380/158/38 379/157/39 383/161/39 384/162/38 
f 382/160/38 380/158/38 384/162/38 385/163/38 
f 384/162/38 383/161/39 386/164/39 387/165/38 
f 385/163/38 384/162/38 387/165/38 388/166/38 
f 389/155/40 390/158/40 379/157/39 378/156/39 
f 391/167/41 392/168/41 390/158/40 389/155/40 
f 390/158/40 393/162/40 383/161/39 379/157/39 
f 392/168/41 394/163/41 393/162/40 390/158/40 
f 393/162/40 395/165/40 386/164/39 383/161/39 
f 394/163/41 396/166/41 395/165/40 393/162/40 
f 397/158/25 398/162/27 399/161/27 400/157/34 
f 398/162/27 401/165/27 402/164/27 399/161/27 
f 403/163/25 404/169/26 401/165/27 398/162/27 
f 405/170/25 397/158/25 400/157/34 406/156/34 
f 397/158/25 405/170/25 407/171/25 
f 397/158/25 407/171/25 408/172/25 403/163/25 398/162/27 
f 403/163/25 408/172/25 409/173/25 
f 403/163/25 409/173/25 410/174/26 404/169/26 
f 411/158/42 412/162/27 413/161/27 414/157/34 
f 412/162/27 324/165/28 320/164/28 413/161/27 
f 415/163/28 328/169/29 324/165/28 412/162/27 
f 416/175/42 411/158/42 414/157/34 417/156/36 
f 411/158/42 416/175/42 418/176/43 
f 411/158/42 418/176/43 419/172/43 415/163/28 412/162/27 
f 415/163/28 419/172/43 420/173/28 
f 415/163/28 420/173/28 332/174/29 328/169/29 
f 355/139/27 413/140/27 320/141/28 316/142/27 
f 357/143/34 414/144/34 413/140/27 355/139/27 
f 362/145/27 417/146/36 414/144/34 357/143/34 
# 72 polygons - 8 triangles

#
# object Object57123874
#

v  -8.0000 -7.0001 14.9999
v  -8.0000 -7.0001 15.9999
v  -6.0000 -7.0001 15.9999
v  -6.0000 -7.0001 14.9999
v  -4.0000 -7.0001 15.9998
v  -4.0000 -7.0001 14.9999
v  -2.0000 -7.0001 15.9998
v  -2.0000 -6.9999 14.9999
v  -8.0000 -6.9999 8.9999
v  -9.0000 -7.0001 8.9998
v  -9.0000 -7.0001 10.9998
v  -8.0000 -7.0001 10.9998
v  -9.0000 -7.0001 12.9998
v  -8.0000 -7.0001 12.9998
v  -9.0000 -7.0001 14.9999
v  -2.0000 1.0001 -14.9999
v  -2.0000 1.0001 -15.9999
v  -4.0000 1.0001 -15.9999
v  -4.0000 1.0001 -14.9999
v  -6.0000 1.0001 -15.9999
v  -6.0000 1.0001 -14.9999
v  -8.0000 1.0001 -15.9999
v  -8.0000 1.0001 -14.9999
v  -9.0000 1.0001 -14.9999
v  -9.0000 1.0001 -12.9999
v  -8.0000 1.0001 -12.9999
v  -9.0000 1.0001 -10.9999
v  -8.0000 1.0001 -10.9999
v  -9.0000 1.0001 -8.9998
v  -8.0000 1.0001 -8.9999
# 30 vertices

vn 0.0000 1.0000 -0.0000
vn -0.0000 1.0000 -0.0000
vn -0.0001 1.0000 -0.0000
vn 0.0000 1.0000 0.0002
vn -0.0001 1.0000 0.0002
vn -0.0002 1.0000 0.0001
vn -0.0002 1.0000 -0.0000
vn 0.0000 1.0000 0.0001
vn 0.0000 1.0000 0.0000
vn -0.0000 1.0000 0.0000
# 10 vertex normals

vt 2.9998 0.0010 0.0000
vt 2.9998 0.1662 0.0000
vt 2.6677 0.1662 0.0000
vt 2.6677 0.0010 0.0000
vt 2.3351 0.1662 0.0000
vt 2.3351 0.0010 0.0000
vt 2.0011 0.1662 0.0000
vt 2.0011 0.0010 0.0000
# 8 texture coords

o Object57123874
g Object57123874
f 421/177/44 422/178/44 423/179/45 424/180/44 
f 424/180/44 423/179/45 425/181/45 426/182/46 
f 426/182/46 425/181/45 427/183/47 428/184/48 
f 429/177/49 430/178/50 431/179/44 432/180/51 
f 432/180/51 431/179/44 433/181/44 434/182/44 
f 434/182/44 433/181/44 435/183/44 421/184/44 
f 436/177/52 437/178/53 438/179/53 439/180/44 
f 439/180/44 438/179/53 440/181/44 441/182/44 
f 441/182/44 440/181/44 442/183/44 443/184/44 
f 443/177/44 444/178/44 445/179/44 446/180/44 
f 446/180/44 445/179/44 447/181/45 448/182/52 
f 448/182/52 447/181/45 449/183/44 450/184/52 
# 12 polygons

#
# object Object57123873
#

v  -8.0000 -6.9999 8.9999
v  -8.0000 -5.0001 8.9998
v  -9.0000 -5.0001 8.9998
v  -9.0000 -7.0001 8.9998
v  -8.0000 -3.0001 8.9998
v  -9.0000 -3.0001 8.9998
v  -8.0000 -1.0001 8.9998
v  -9.0000 -1.0001 8.9998
v  -8.0000 -7.0001 14.9999
v  -9.0000 -7.0001 14.9999
v  -9.0000 -5.0001 14.9999
v  -8.0000 -5.0001 14.9999
v  -9.0000 -3.0001 14.9999
v  -8.0000 -3.0001 14.9999
v  -9.0000 -1.0001 14.9998
v  -8.0000 -1.0001 14.9999
v  -8.0000 -5.0001 15.9999
v  -8.0000 -7.0001 15.9999
v  -8.0000 -3.0001 15.9999
v  -8.0000 -1.0001 15.9999
v  -2.0000 -6.9999 14.9999
v  -2.0000 -7.0001 15.9998
v  -2.0000 -5.0001 15.9999
v  -2.0000 -5.0001 14.9999
v  -2.0000 -3.0001 15.9999
v  -2.0000 -3.0001 14.9999
v  -2.0000 -1.0001 15.9999
v  -2.0000 -1.0001 14.9999
v  -2.0000 1.0001 -14.9999
v  -2.0000 3.0001 -14.9999
v  -2.0000 3.0001 -15.9999
v  -2.0000 1.0001 -15.9999
v  -2.0000 5.0001 -14.9999
v  -2.0000 5.0001 -15.9999
v  -2.0000 7.0001 -14.9999
v  -2.0000 7.0001 -15.9999
v  -8.0000 1.0001 -14.9999
v  -8.0000 1.0001 -15.9999
v  -8.0000 3.0001 -15.9999
v  -8.0000 3.0001 -14.9999
v  -8.0000 5.0001 -15.9999
v  -8.0000 5.0001 -14.9999
v  -8.0000 7.0001 -15.9999
v  -8.0000 7.0001 -14.9999
v  -9.0000 3.0001 -14.9999
v  -9.0000 1.0001 -14.9999
v  -9.0000 5.0001 -14.9999
v  -9.0000 7.0001 -14.9999
v  -8.0000 1.0001 -8.9999
v  -9.0000 1.0001 -8.9999
v  -9.0000 3.0001 -8.9999
v  -8.0000 3.0001 -8.9999
v  -9.0000 5.0001 -8.9999
v  -8.0000 5.0001 -8.9999
v  -9.0000 7.0001 -8.9999
v  -8.0000 7.0001 -8.9999
# 56 vertices

vn -0.0000 0.0000 1.0000
vn 0.0000 0.0000 1.0000
vn 0.0000 -0.0000 1.0000
vn -0.0000 -0.0000 1.0000
vn 0.7071 0.0000 -0.7071
vn 0.0000 0.0000 -1.0000
vn 0.7072 0.0000 -0.7070
vn 0.0000 -0.0000 -1.0000
vn 0.7070 0.0000 -0.7072
vn 1.0000 0.0000 0.0000
vn -1.0000 0.0000 0.0000
vn -1.0000 -0.0000 0.0000
vn -1.0000 -0.0000 -0.0000
vn 0.7071 0.0000 0.7071
vn 1.0000 0.0000 -0.0000
vn 1.0000 -0.0000 -0.0000
vn 0.7072 0.0000 0.7070
vn -0.0000 0.0000 -1.0000
vn -0.0000 -0.0000 -1.0000
# 19 vertex normals

vt 0.0001 -0.9986 1.0000
vt 0.0001 -0.6661 1.0000
vt 0.1673 -0.6661 1.0000
vt 0.1673 -0.9986 1.0000
vt 0.0001 -0.3339 1.0000
vt 0.1673 -0.3339 1.0000
vt 0.0001 -0.0013 1.0000
vt 0.1673 -0.0013 1.0000
# 8 texture coords

o Object57123873
g Object57123873
f 451/185/54 452/186/55 453/187/55 454/188/54 
f 452/186/55 455/189/56 456/190/55 453/187/55 
f 455/189/56 457/191/57 458/192/54 456/190/55 
f 459/185/58 460/188/59 461/187/59 462/186/60 
f 462/186/60 461/187/59 463/190/61 464/189/60 
f 464/189/60 463/190/61 465/192/61 466/191/62 
f 459/185/58 462/186/60 467/187/63 468/188/63 
f 462/186/60 464/189/60 469/190/63 467/187/63 
f 464/189/60 466/191/62 470/192/63 469/190/63 
f 471/185/64 472/188/64 473/187/64 474/186/64 
f 474/186/64 473/187/64 475/190/65 476/189/65 
f 476/189/65 475/190/65 477/192/66 478/191/66 
f 479/185/64 480/186/64 481/187/64 482/188/64 
f 480/186/64 483/189/64 484/190/64 481/187/64 
f 483/189/64 485/191/64 486/192/64 484/190/64 
f 487/185/67 488/188/68 489/187/68 490/186/67 
f 490/186/67 489/187/68 491/190/69 492/189/67 
f 492/189/67 491/190/69 493/192/69 494/191/70 
f 487/185/67 490/186/67 495/187/55 496/188/55 
f 490/186/67 492/189/67 497/190/55 495/187/55 
f 492/189/67 494/191/70 498/192/55 497/190/55 
f 499/185/71 500/188/72 501/187/72 502/186/71 
f 502/186/71 501/187/72 503/190/72 504/189/72 
f 504/189/72 503/190/72 505/192/72 506/191/72 
# 24 polygons

#
# object Object57123871
#

v  4.2413 2.9999 7.0024
v  3.5332 2.9999 7.7105
v  2.1182 2.9999 6.2956
v  2.8263 2.9999 5.5875
v  0.7040 2.9999 4.8814
v  1.4121 2.9999 4.1733
v  -0.7103 2.9999 3.4671
v  -0.0022 2.9999 2.7590
v  -5.5326 -0.9998 8.2894
v  -4.1183 -0.9998 9.7037
v  -4.8268 -1.0000 10.4122
v  -6.2411 -1.0001 8.9979
v  -2.7041 -0.9998 11.1179
v  -3.4126 -1.0000 11.8264
v  -1.2891 -0.9998 12.5328
v  -1.9976 -1.0001 13.2413
v  -8.0000 -1.0001 14.9999
v  -9.0000 -1.0001 14.9998
v  -9.0000 -1.0001 12.9998
v  -8.0000 -1.0001 12.9998
v  -9.0000 -1.0001 10.9998
v  -8.0000 -1.0001 10.9998
v  -9.0000 -1.0001 8.9998
v  -8.0000 -1.0001 8.9998
v  -2.0000 -1.0001 14.9999
v  -2.0000 -1.0001 15.9999
v  -4.0000 -1.0001 15.9999
v  -4.0000 -1.0001 14.9999
v  -6.0000 -1.0001 15.9999
v  -6.0000 -1.0001 14.9999
v  -8.0000 -1.0001 15.9999
v  -1.9974 7.0001 -13.2412
v  -1.2893 7.0001 -12.5331
v  -2.7043 7.0001 -11.1181
v  -3.4124 7.0001 -11.8262
v  -4.1185 7.0001 -9.7039
v  -4.8265 7.0001 -10.4120
v  -5.5328 7.0001 -8.2896
v  -6.2409 7.0001 -8.9977
v  -0.7104 3.0004 -3.4673
v  0.7039 3.0004 -4.8816
v  1.4123 3.0002 -4.1731
v  -0.0020 3.0001 -2.7588
v  2.1181 3.0004 -6.2958
v  2.8265 3.0002 -5.5873
v  3.5330 3.0004 -7.7108
v  4.2415 3.0001 -7.0023
v  -8.0000 7.0001 -8.9999
v  -9.0000 7.0001 -8.9999
v  -9.0000 7.0001 -10.9999
v  -8.0000 7.0001 -10.9999
v  -9.0000 7.0001 -12.9999
v  -8.0000 7.0001 -12.9999
v  -9.0000 7.0001 -14.9999
v  -8.0000 7.0001 -14.9999
v  -8.0000 7.0001 -15.9999
v  -6.0000 7.0001 -15.9999
v  -6.0000 7.0001 -14.9999
v  -4.0000 7.0001 -15.9999
v  -4.0000 7.0001 -14.9999
v  -2.0000 7.0001 -15.9999
v  -2.0000 7.0001 -14.9999
# 62 vertices

vn 0.0000 -1.0000 -0.0000
vn 0.0002 -1.0000 -0.0002
vn 0.0001 -1.0000 -0.0001
vn -0.0000 -1.0000 0.0000
vn -0.0000 -1.0000 -0.0000
vn 0.0000 -1.0000 0.0000
vn -0.0002 -1.0000 -0.0002
vn -0.0001 -1.0000 -0.0001
# 8 vertex normals

vt 1.9995 -0.9993 0.0000
vt 1.9995 -0.8314 0.0000
vt 1.6681 -0.8314 0.0000
vt 1.6681 -0.9993 0.0000
vt 1.3335 -0.8314 0.0000
vt 1.3335 -0.9993 0.0000
vt 1.0007 -0.8314 0.0000
vt 1.0007 -0.9993 0.0000
# 8 texture coords

o Object57123871
g Object57123871
f 507/193/73 508/194/73 509/195/73 510/196/73 
f 510/196/73 509/195/73 511/197/73 512/198/73 
f 512/198/73 511/197/73 513/199/73 514/200/73 
f 515/193/74 516/196/75 517/195/75 518/194/74 
f 516/196/75 519/198/75 520/197/75 517/195/75 
f 519/198/75 521/200/74 522/199/74 520/197/75 
f 523/193/76 524/194/77 525/195/77 526/196/76 
f 526/196/76 525/195/77 527/197/76 528/198/77 
f 528/198/77 527/197/76 529/199/76 530/200/77 
f 531/193/78 532/194/76 533/195/76 534/196/78 
f 534/196/78 533/195/76 535/197/78 536/198/76 
f 536/198/76 535/197/78 537/199/78 523/200/76 
f 538/193/73 539/194/73 540/195/73 541/196/73 
f 541/196/73 540/195/73 542/197/73 543/198/73 
f 543/198/73 542/197/73 544/199/73 545/200/73 
f 546/193/79 547/196/80 548/195/80 549/194/79 
f 547/196/80 550/198/80 551/197/80 548/195/80 
f 550/198/80 552/200/79 553/199/79 551/197/80 
f 554/193/76 555/194/76 556/195/76 557/196/76 
f 557/196/76 556/195/76 558/197/76 559/198/77 
f 559/198/77 558/197/76 560/199/76 561/200/77 
f 561/193/77 562/194/73 563/195/73 564/196/77 
f 564/196/77 563/195/73 565/197/73 566/198/73 
f 566/198/73 565/197/73 567/199/73 568/200/73 
# 24 polygons

#
# object Object57123881
#

v  12.0001 -2.9999 -4.9999
v  12.0001 -0.9999 -4.9999
v  12.0001 -0.9999 -7.0000
v  12.0001 -2.9999 -7.0000
v  12.0001 -2.9999 -2.9999
v  12.0001 -0.9999 -2.9999
v  12.0001 -2.9999 -1.0000
v  12.0001 -0.9999 -1.0000
v  12.0001 1.0001 -4.9999
v  12.0001 1.0001 -7.0000
v  12.0001 1.0001 -2.9999
v  12.0001 1.0001 -1.0000
v  12.0001 3.0001 -4.9999
v  12.0001 3.0001 -7.0000
v  12.0001 3.0001 -2.9999
v  12.0001 3.0001 -1.0000
v  12.0001 -2.9999 2.9998
v  12.0001 -0.9999 2.9998
v  12.0001 -0.9999 0.9999
v  12.0001 -2.9999 0.9999
v  12.0001 -2.9999 4.9998
v  12.0001 -0.9999 4.9998
v  12.0001 -2.9999 6.9998
v  12.0001 -0.9999 6.9998
v  12.0001 1.0001 2.9998
v  12.0001 1.0001 0.9999
v  12.0001 1.0001 4.9998
v  12.0001 1.0001 6.9998
v  12.0001 3.0001 2.9998
v  12.0001 3.0001 0.9999
v  12.0001 3.0001 4.9998
v  12.0001 3.0001 6.9998
v  8.0001 -2.9999 -7.0000
v  8.0001 -0.9999 -7.0000
v  6.0001 -0.9999 -7.0000
v  6.0001 -2.9998 -7.0000
v  10.0001 -2.9999 -7.0000
v  10.0001 -0.9999 -7.0000
v  8.0001 1.0001 -7.0000
v  6.0001 1.0001 -7.0000
v  10.0001 1.0001 -7.0000
v  8.0001 3.0001 -7.0000
v  6.0001 3.0001 -7.0000
v  10.0001 3.0001 -7.0000
v  -4.3261 -5.9994 7.0829
v  -4.3261 -3.9986 7.0829
v  -5.5326 -4.9992 8.2894
v  -5.5326 -6.9999 8.2894
v  -3.1211 -5.0005 5.8778
v  -3.1211 -2.9993 5.8778
v  -4.3261 -1.9986 7.0829
v  -5.5326 -2.9992 8.2894
v  -3.1211 -0.9993 5.8778
v  -4.3261 0.0010 7.0829
v  -5.5326 -0.9998 8.2894
v  -3.1211 0.9999 5.8778
v  -1.9157 -4.0008 4.6725
v  -1.9157 -2.0000 4.6725
v  -0.7103 -3.0007 3.4671
v  -0.7103 -1.0009 3.4671
v  -1.9157 -0.0000 4.6725
v  -0.7103 0.9996 3.4671
v  -1.9157 1.9990 4.6725
v  -0.7103 2.9999 3.4671
v  2.3278 -4.0008 8.9159
v  2.3278 -2.0000 8.9159
v  3.5332 -1.0009 7.7105
v  3.5332 -3.0007 7.7105
v  1.1224 -5.0005 10.1213
v  1.1224 -2.9993 10.1213
v  2.3278 -0.0000 8.9159
v  3.5332 0.9996 7.7105
v  1.1224 -0.9993 10.1213
v  2.3278 1.9990 8.9159
v  3.5332 2.9999 7.7105
v  1.1224 0.9999 10.1213
v  -0.0826 -5.9994 11.3264
v  -0.0826 -3.9986 11.3264
v  -1.2891 -6.9999 12.5328
v  -1.2891 -4.9992 12.5328
v  -0.0826 -1.9986 11.3264
v  -1.2891 -2.9992 12.5328
v  -0.0826 0.0010 11.3264
v  -1.2891 -0.9998 12.5328
v  -0.0000 -3.0001 0.9998
v  -0.0000 -3.0000 -0.0000
v  -0.0000 -1.0000 -0.0000
v  -0.0000 -1.0001 0.9998
v  -0.0000 1.0000 -0.0000
v  -0.0000 0.9999 0.9998
v  -0.0000 3.0000 -0.0000
v  -0.0000 2.9999 0.9998
v  -6.2411 -6.9999 8.9979
v  -6.2411 -5.0001 8.9979
v  -8.0000 -5.0001 8.9998
v  -8.0000 -6.9999 8.9998
v  -6.2411 -3.0001 8.9979
v  -8.0000 -3.0001 8.9998
v  -6.2411 -1.0001 8.9979
v  -8.0000 -1.0001 8.9998
v  -1.9976 -6.9999 13.2413
v  -2.0000 -6.9999 14.9999
v  -2.0000 -5.0001 14.9998
v  -1.9976 -5.0001 13.2413
v  -2.0000 -3.0001 14.9998
v  -1.9976 -3.0001 13.2413
v  -2.0000 -1.0001 14.9999
v  -1.9976 -1.0001 13.2413
v  4.2413 -3.0001 7.0024
v  4.2413 -1.0001 7.0024
v  6.0000 -1.0000 6.9998
v  6.0000 -3.0000 6.9998
v  4.2413 0.9999 7.0024
v  6.0000 1.0000 6.9998
v  4.2413 2.9999 7.0024
v  6.0000 3.0000 6.9998
v  -0.0022 -3.0001 2.7590
v  -0.0022 -1.0001 2.7590
v  -0.0022 0.9999 2.7590
v  -0.0022 2.9999 2.7590
v  -1.9169 -1.9993 -4.6738
v  -1.9169 0.0016 -4.6738
v  -0.7104 -0.9990 -3.4673
v  -0.7104 -2.9997 -3.4673
v  -3.1220 -1.0003 -5.8788
v  -3.1220 1.0009 -5.8788
v  -1.9169 2.0016 -4.6738
v  -0.7104 1.0010 -3.4673
v  -3.1220 3.0009 -5.8788
v  -1.9169 4.0011 -4.6738
v  -0.7104 3.0004 -3.4673
v  -3.1220 5.0001 -5.8788
v  -4.3273 -0.0006 -7.0842
v  -4.3273 2.0002 -7.0842
v  -5.5328 0.9995 -8.2896
v  -5.5328 2.9993 -8.2896
v  -4.3273 4.0002 -7.0842
v  -5.5328 4.9998 -8.2896
v  -4.3273 5.9992 -7.0842
v  -5.5328 7.0001 -8.2896
v  -0.0839 -0.0006 -11.3277
v  -0.0839 2.0002 -11.3277
v  -1.2893 2.9993 -12.5331
v  -1.2893 0.9995 -12.5331
v  1.1215 -1.0003 -10.1223
v  1.1215 1.0009 -10.1223
v  -0.0839 4.0002 -11.3277
v  -1.2893 4.9998 -12.5331
v  1.1215 3.0009 -10.1223
v  -0.0839 5.9992 -11.3277
v  -1.2893 7.0001 -12.5331
v  1.1215 5.0001 -10.1223
v  2.3266 -1.9993 -8.9172
v  2.3266 0.0016 -8.9172
v  3.5330 -2.9997 -7.7108
v  3.5330 -0.9990 -7.7108
v  2.3266 2.0016 -8.9172
v  3.5330 1.0010 -7.7108
v  2.3266 4.0011 -8.9172
v  3.5330 3.0004 -7.7108
v  0.0000 -2.9997 -0.9999
v  0.0000 -0.9999 -0.9999
v  0.0000 1.0001 -0.9999
v  0.0000 3.0001 -0.9999
v  -0.0020 -2.9997 -2.7588
v  -0.0020 -0.9999 -2.7588
v  -0.0020 1.0001 -2.7588
v  -0.0020 3.0001 -2.7588
v  4.2415 -2.9997 -7.0023
v  4.2415 -0.9999 -7.0023
v  4.2415 1.0001 -7.0023
v  4.2415 3.0001 -7.0023
v  -1.9974 1.0001 -13.2412
v  -1.9974 3.0001 -13.2412
v  -2.0000 3.0001 -14.9999
v  -2.0000 1.0001 -14.9999
v  -1.9974 5.0001 -13.2412
v  -2.0000 5.0001 -14.9999
v  -1.9974 7.0001 -13.2412
v  -2.0000 7.0001 -14.9999
v  -6.2409 1.0001 -8.9977
v  -8.0000 1.0001 -8.9999
v  -8.0000 3.0001 -8.9999
v  -6.2409 3.0001 -8.9977
v  -8.0000 5.0001 -8.9999
v  -6.2409 5.0001 -8.9977
v  -8.0000 7.0001 -8.9999
v  -6.2409 7.0001 -8.9977
v  10.0000 -2.9999 6.9998
v  10.0000 -0.9999 6.9998
v  8.0000 -2.9999 6.9998
v  8.0000 -0.9999 6.9998
v  10.0000 1.0001 6.9998
v  8.0000 1.0001 6.9998
v  10.0000 3.0001 6.9998
v  8.0000 3.0001 6.9998
# 196 vertices

vn -1.0000 0.0000 -0.0000
vn -0.7071 0.0000 0.7071
vn -1.0000 0.0000 0.0000
vn -0.7071 0.0000 -0.7071
vn 0.0000 0.0000 1.0000
vn -0.0006 0.0000 1.0000
vn -0.0000 0.0000 1.0000
vn -0.0006 -0.0000 1.0000
vn 0.7071 0.0000 0.7071
vn 1.0000 0.0000 0.0006
vn 1.0000 0.0000 0.0000
vn 1.0000 -0.0000 0.0000
vn 1.0000 -0.0000 0.0006
vn 0.3831 0.0000 0.9237
vn 0.3832 0.0000 0.9237
vn 0.0011 0.0000 1.0000
vn 0.0011 -0.0000 1.0000
vn 0.3833 0.0000 0.9236
vn -0.9236 0.0000 -0.3833
vn -1.0000 0.0000 -0.0013
vn -1.0000 -0.0000 -0.0013
vn -0.3834 0.0000 -0.9236
vn -0.0007 0.0000 -1.0000
vn -0.3833 0.0000 -0.9236
vn 0.9236 0.0000 0.3833
vn 0.9236 0.0000 0.3832
vn 0.7071 0.0000 -0.7071
vn 1.0000 0.0000 -0.0005
vn 1.0000 0.0000 -0.0006
vn 1.0000 -0.0000 -0.0006
vn 0.9237 0.0000 -0.3831
vn 0.9237 0.0000 -0.3832
vn 0.9236 0.0000 -0.3833
vn -0.3832 0.0000 0.9237
vn -0.3833 0.0000 0.9236
vn -0.3834 0.0000 0.9236
vn -0.9236 0.0000 0.3834
vn -1.0000 0.0000 0.0015
vn -0.9236 0.0000 0.3833
vn 0.3834 0.0000 -0.9236
vn 0.0012 0.0000 -1.0000
vn 0.3833 0.0000 -0.9236
vn 0.0012 -0.0000 -1.0000
vn 0.0000 0.0000 -1.0000
# 44 vertex normals

vt 0.3339 -0.9986 0.0000
vt 0.3339 -0.6661 0.0000
vt 0.0001 -0.6661 0.0000
vt 0.0001 -0.9986 0.0000
vt 0.6666 -0.9986 0.0000
vt 0.6666 -0.6661 0.0000
vt 0.9999 -0.9986 0.0000
vt 0.9999 -0.6661 0.0000
vt 0.3339 -0.3339 0.0000
vt 0.0001 -0.3339 0.0000
vt 0.6666 -0.3339 0.0000
vt 0.9999 -0.3339 0.0000
vt 0.3339 -0.0013 0.0000
vt 0.0001 -0.0013 0.0000
vt 0.6666 -0.0013 0.0000
vt 0.9999 -0.0013 0.0000
vt 0.0001 -0.9986 1.0000
vt 0.1673 -0.9986 1.0000
vt 0.1673 -0.6661 1.0000
vt 0.0001 -0.6661 1.0000
vt 0.1673 -0.3339 1.0000
vt 0.0001 -0.3339 1.0000
vt 0.1673 -0.0013 1.0000
vt 0.0001 -0.0013 1.0000
vt 0.5003 -0.9986 0.0000
vt 0.5003 -0.6661 0.0000
vt 0.5003 -0.3339 0.0000
vt 0.5003 -0.0013 0.0000
# 28 texture coords

o Object57123881
g Object57123881
f 569/201/81 570/202/81 571/203/82 572/204/82 
f 573/205/81 574/206/81 570/202/81 569/201/81 
f 575/207/83 576/208/83 574/206/81 573/205/81 
f 570/202/81 577/209/81 578/210/82 571/203/82 
f 574/206/81 579/211/81 577/209/81 570/202/81 
f 576/208/83 580/212/83 579/211/81 574/206/81 
f 577/209/81 581/213/81 582/214/82 578/210/82 
f 579/211/81 583/215/81 581/213/81 577/209/81 
f 580/212/83 584/216/83 583/215/81 579/211/81 
f 585/201/81 586/202/81 587/203/83 588/204/83 
f 589/205/81 590/206/81 586/202/81 585/201/81 
f 591/207/84 592/208/84 590/206/81 589/205/81 
f 586/202/81 593/209/81 594/210/83 587/203/83 
f 590/206/81 595/211/81 593/209/81 586/202/81 
f 592/208/84 596/212/84 595/211/81 590/206/81 
f 593/209/81 597/213/81 598/214/83 594/210/83 
f 595/211/81 599/215/81 597/213/81 593/209/81 
f 596/212/84 600/216/84 599/215/81 595/211/81 
f 588/201/83 587/202/83 576/203/83 575/204/83 
f 587/202/83 594/209/83 580/210/83 576/203/83 
f 594/209/83 598/213/83 584/214/83 580/210/83 
f 601/201/85 602/202/85 603/203/86 604/204/86 
f 605/205/87 606/206/87 602/202/85 601/201/85 
f 572/207/82 571/208/82 606/206/87 605/205/87 
f 602/202/85 607/209/85 608/210/88 603/203/86 
f 606/206/87 609/211/87 607/209/85 602/202/85 
f 571/208/82 578/212/82 609/211/87 606/206/87 
f 607/209/85 610/213/85 611/214/88 608/210/88 
f 609/211/87 612/215/87 610/213/85 607/209/85 
f 578/212/82 582/216/82 612/215/87 609/211/87 
f 613/201/89 614/202/89 615/203/89 616/204/89 
f 617/205/89 618/206/89 614/202/89 613/201/89 
f 614/202/89 619/209/89 620/210/89 615/203/89 
f 618/206/89 621/211/89 619/209/89 614/202/89 
f 619/209/89 622/213/89 623/214/89 620/210/89 
f 621/211/89 624/215/89 622/213/89 619/209/89 
f 625/201/89 626/202/89 618/203/89 617/204/89 
f 627/205/89 628/206/89 626/202/89 625/201/89 
f 626/202/89 629/209/89 621/210/89 618/203/89 
f 628/206/89 630/211/89 629/209/89 626/202/89 
f 629/209/89 631/213/89 624/214/89 621/210/89 
f 630/211/89 632/215/89 631/213/89 629/209/89 
f 633/201/84 634/202/84 635/203/84 636/204/84 
f 637/205/84 638/206/84 634/202/84 633/201/84 
f 634/202/84 639/209/84 640/210/84 635/203/84 
f 638/206/84 641/211/84 639/209/84 634/202/84 
f 639/209/84 642/213/84 643/214/84 640/210/84 
f 641/211/84 644/215/84 642/213/84 639/209/84 
f 645/201/84 646/202/84 638/203/84 637/204/84 
f 647/205/84 648/206/84 646/202/84 645/201/84 
f 646/202/84 649/209/84 641/210/84 638/203/84 
f 648/206/84 650/211/84 649/209/84 646/202/84 
f 649/209/84 651/213/84 644/214/84 641/210/84 
f 650/211/84 652/215/84 651/213/84 649/209/84 
f 653/217/90 654/218/91 655/219/91 656/220/90 
f 656/220/90 655/219/91 657/221/92 658/222/93 
f 658/222/93 657/221/92 659/223/92 660/224/93 
f 661/225/94 662/226/95 663/203/96 664/204/96 
f 662/226/95 665/227/95 666/210/97 663/203/96 
f 665/227/95 667/228/98 668/214/97 666/210/97 
f 669/225/99 670/204/100 671/203/100 672/226/99 
f 672/226/99 671/203/100 673/210/101 674/227/99 
f 674/227/99 673/210/101 675/214/101 676/228/99 
f 677/225/102 678/226/102 679/203/103 680/204/103 
f 678/226/102 681/227/102 682/210/103 679/203/103 
f 681/227/102 683/228/104 684/214/103 682/210/103 
f 685/225/105 653/204/90 656/203/90 686/226/106 
f 686/226/106 656/203/90 658/210/93 687/227/106 
f 687/227/106 658/210/93 660/214/93 688/228/105 
f 616/217/89 615/220/89 662/219/95 661/218/94 
f 615/220/89 620/222/89 665/221/95 662/219/95 
f 620/222/89 623/224/89 667/223/98 665/221/95 
f 647/217/84 669/218/99 672/219/99 648/220/84 
f 648/220/84 672/219/99 674/221/99 650/222/84 
f 650/222/84 674/221/99 676/223/99 652/224/84 
f 627/217/89 685/218/105 686/219/106 628/220/89 
f 628/220/89 686/219/106 687/221/106 630/222/89 
f 630/222/89 687/221/106 688/223/105 632/224/89 
f 636/217/84 635/220/84 678/219/102 677/218/102 
f 635/220/84 640/222/84 681/221/102 678/219/102 
f 640/222/84 643/224/84 683/223/104 681/221/102 
f 689/201/107 690/202/107 691/203/107 692/204/107 
f 693/205/107 694/206/107 690/202/107 689/201/107 
f 690/202/107 695/209/107 696/210/107 691/203/107 
f 694/206/107 697/211/107 695/209/107 690/202/107 
f 695/209/107 698/213/107 699/214/107 696/210/107 
f 697/211/107 700/215/107 698/213/107 695/209/107 
f 701/201/107 702/202/107 694/203/107 693/204/107 
f 703/205/107 704/206/107 702/202/107 701/201/107 
f 702/202/107 705/209/107 697/210/107 694/203/107 
f 704/206/107 706/211/107 705/209/107 702/202/107 
f 705/209/107 707/213/107 700/214/107 697/210/107 
f 706/211/107 708/215/107 707/213/107 705/209/107 
f 709/201/82 710/202/82 711/203/82 712/204/82 
f 713/205/82 714/206/82 710/202/82 709/201/82 
f 710/202/82 715/209/82 716/210/82 711/203/82 
f 714/206/82 717/211/82 715/209/82 710/202/82 
f 715/209/82 718/213/82 719/214/82 716/210/82 
f 717/211/82 720/215/82 718/213/82 715/209/82 
f 721/201/82 722/202/82 714/203/82 713/204/82 
f 723/205/82 724/206/82 722/202/82 721/201/82 
f 722/202/82 725/209/82 717/210/82 714/203/82 
f 724/206/82 726/211/82 725/209/82 722/202/82 
f 725/209/82 727/213/82 720/214/82 717/210/82 
f 726/211/82 728/215/82 727/213/82 725/209/82 
f 729/217/108 730/220/109 655/219/91 654/218/91 
f 730/220/109 731/222/110 657/221/92 655/219/91 
f 731/222/110 732/224/110 659/223/92 657/221/92 
f 733/225/111 734/226/112 730/203/109 729/204/108 
f 734/226/112 735/227/112 731/210/110 730/203/109 
f 735/227/112 736/228/113 732/214/110 731/210/110 
f 737/225/114 604/204/86 603/203/86 738/226/115 
f 738/226/115 603/203/86 608/210/88 739/227/115 
f 739/227/115 608/210/88 611/214/88 740/228/116 
f 741/225/117 742/226/117 743/203/118 744/204/118 
f 742/226/117 745/227/117 746/210/118 743/203/118 
f 745/227/117 747/228/119 748/214/118 746/210/118 
f 749/225/120 750/204/121 751/203/121 752/226/122 
f 752/226/122 751/203/121 753/210/123 754/227/122 
f 754/227/122 753/210/123 755/214/123 756/228/122 
f 692/217/107 691/220/107 734/219/112 733/218/111 
f 691/220/107 696/222/107 735/221/112 734/219/112 
f 696/222/107 699/224/107 736/223/113 735/221/112 
f 723/217/82 737/218/114 738/219/115 724/220/82 
f 724/220/82 738/219/115 739/221/115 726/222/82 
f 726/222/82 739/221/115 740/223/116 728/224/82 
f 703/217/107 749/218/120 752/219/122 704/220/107 
f 704/220/107 752/219/122 754/221/122 706/222/107 
f 706/222/107 754/221/122 756/223/122 708/224/107 
f 712/217/82 711/220/82 742/219/117 741/218/117 
f 711/220/82 716/222/82 745/221/117 742/219/117 
f 716/222/82 719/224/82 747/223/119 745/221/117 
f 757/201/124 758/202/124 592/203/84 591/204/84 
f 759/205/124 760/206/124 758/202/124 757/201/124 
f 680/207/103 679/208/103 760/206/124 759/205/124 
f 758/202/124 761/209/124 596/210/84 592/203/84 
f 760/206/124 762/211/124 761/209/124 758/202/124 
f 679/208/103 682/212/103 762/211/124 760/206/124 
f 761/209/124 763/213/124 600/214/84 596/210/84 
f 762/211/124 764/215/124 763/213/124 761/209/124 
f 682/212/103 684/216/103 764/215/124 762/211/124 
# 141 polygons

#
# object blocker009
#

v  -0.7102 -3.0007 3.4671
v  -5.5325 -7.0001 8.2894
v  -1.2897 -7.0001 12.5322
v  3.5324 -3.0007 7.7097
v  -5.5328 0.9994 -8.2896
v  -0.7104 -3.0000 -3.4673
v  3.5324 -3.0000 -7.7102
v  -1.2901 0.9994 -12.5322
# 8 vertices

vn -0.3577 0.8626 0.3577
vn 0.3577 0.8626 0.3577
# 2 vertex normals

vt 0.0000 1.0000 0.0000
vt 0.0000 0.0000 0.0000
vt 1.0000 0.0000 0.0000
vt 1.0000 1.0000 0.0000
# 4 texture coords

o blocker009
g blocker009
f 765/229/125 766/230/125 767/231/125 768/232/125 
f 769/229/126 770/230/126 771/231/126 772/232/126 
# 2 polygons

