# 3ds Max Wavefront OBJ Exporter v0.97b - (c)2007 guruware
# File Created: 24.10.2020 02:49:10

#
# object Object57123966
#

v  -6.5177 -2.5610 -0.9998
v  -6.9345 -2.9062 -2.9953
v  -7.3588 -1.0000 -2.9933
v  -7.6994 -0.9975 -1.0000
v  -7.7536 1.0065 -2.9984
v  -7.4409 1.0000 -1.0000
v  -6.9271 2.9552 -3.0319
v  -6.7200 2.8300 -1.0000
v  -5.0310 3.5744 -3.0061
v  -5.0121 3.8577 -1.0000
v  -2.9968 3.7195 -2.9961
v  -3.0002 3.8763 -1.0000
v  -0.9616 2.9963 -2.9774
v  -1.0887 3.2493 -1.0155
v  -6.8362 -2.7681 3.0002
v  -7.4672 -1.0000 3.0004
v  -7.8087 -0.9991 5.0000
v  -6.6951 -2.4691 4.9972
v  -6.5163 -2.4137 1.0001
v  -7.3037 -0.9888 0.9901
v  -7.5308 1.0063 3.0000
v  -7.8568 1.0045 5.0000
v  -7.7536 1.0065 0.9985
v  -6.9561 3.0379 2.9984
v  -6.9524 3.0042 5.0000
v  -6.9271 2.9552 1.0319
v  -1.4300 -2.3579 4.9892
v  -0.4173 -0.9724 4.9964
v  -0.5690 -0.9996 3.4057
v  -1.0510 -2.8903 2.9937
v  -0.1710 1.0000 5.0000
v  -0.6465 1.0000 3.4639
v  -1.0784 2.9091 5.0000
v  -1.0006 2.9823 3.0224
v  -5.0235 3.8602 2.9993
v  -5.0006 3.8314 5.0000
v  -5.0310 3.5744 1.0061
v  -2.9868 3.4258 2.9985
v  -2.9937 3.7604 5.0000
v  -2.9968 3.7195 0.9961
v  -0.9796 3.3784 1.0155
v  -6.9507 -2.9314 9.0044
v  -7.4846 -1.0000 9.0051
v  -7.0000 -1.0000 11.0000
v  -7.0000 -3.0000 11.0000
v  -6.5539 -2.2536 6.9900
v  -7.6901 -0.9846 6.9954
v  -7.2757 1.0025 9.0012
v  -7.0000 1.0000 11.0000
v  -7.4125 1.0103 7.0005
v  -6.8592 2.8566 8.9748
v  -7.0000 3.0000 11.0000
v  -6.8282 2.9536 7.0110
v  -1.4532 -2.3641 6.9908
v  -0.5622 -0.9769 6.9933
v  -1.0415 -2.9478 9.0046
v  -0.6267 -1.0000 9.0050
v  -1.0000 -3.0000 11.0000
v  -1.0000 -1.0000 11.0000
v  -0.4015 1.0008 6.9980
v  -0.5704 1.0043 9.0015
v  -1.0000 1.0000 11.0000
v  -1.0285 2.9682 7.0119
v  -1.0313 2.9154 8.9742
v  -1.0000 3.0000 11.0000
v  -5.0010 3.0963 9.0034
v  -5.0000 3.0000 11.0000
v  -5.0002 3.7098 6.9982
v  -2.9992 3.0275 9.0044
v  -3.0000 3.0000 11.0000
v  -2.9939 3.5827 6.9990
v  -4.9045 -2.6951 -0.9998
v  -4.9822 -2.4793 -2.9957
v  -2.9895 -2.7952 -1.0000
v  -3.0014 -2.7148 -2.9958
v  -1.0159 -2.7198 -0.9911
v  -1.0097 -2.9542 -2.9738
v  -4.9256 -2.6815 0.9963
v  -4.9691 -2.7015 2.9990
v  -4.9423 -2.5727 4.9983
v  -2.9945 -2.5356 0.9956
v  -3.0174 -2.4791 2.9988
v  -3.0776 -2.5670 4.9972
v  -1.0092 -2.8425 0.9961
v  -4.9101 -2.5160 6.9969
v  -4.9954 -2.9545 9.0042
v  -5.0000 -3.0000 11.0000
v  -3.0785 -2.6177 6.9974
v  -3.0026 -2.9806 9.0045
v  -3.0000 -3.0000 11.0000
v  2.9877 -2.3388 -2.5409
v  2.9922 -0.9972 -3.6012
v  1.0000 -1.0000 -3.7181
v  0.9993 -2.6215 -2.8223
v  5.0010 -2.9983 -2.9984
v  5.0010 -1.0000 -3.0788
v  7.0000 -3.0000 -3.0000
v  7.0000 -1.0000 -3.0000
v  2.9974 0.9993 -3.8333
v  1.0000 1.0063 -3.5308
v  5.0010 1.0000 -3.3473
v  7.0000 1.0000 -3.0000
v  3.0346 2.7574 -2.7947
v  0.9984 3.0379 -2.9561
v  4.9922 2.8906 -2.9107
v  7.0000 3.0000 -3.0000
v  4.9991 -2.9346 2.9471
v  5.0010 -1.0000 3.3661
v  7.0000 -1.0000 3.0000
v  7.0000 -3.0000 3.0000
v  2.9684 -2.2106 2.4895
v  2.9900 -0.9912 3.7463
v  0.9981 -2.7362 2.7909
v  1.0004 -1.0000 3.8866
v  5.0010 1.0000 3.7126
v  7.0000 1.0000 3.0000
v  2.9963 1.0019 3.6153
v  1.0004 1.0000 3.7137
v  4.9958 3.0387 3.0480
v  7.0000 3.0000 3.0000
v  3.0339 2.9098 2.8549
v  1.0000 2.9273 2.9711
v  2.9956 3.5861 -1.0007
v  0.9993 3.8602 -1.0235
v  5.0008 3.0043 -1.0000
v  7.0000 3.0000 -1.0000
v  2.9947 3.8781 1.0002
v  1.0000 3.8763 0.9998
v  5.0010 3.4031 1.0000
v  7.0000 3.0000 1.0000
v  -0.5978 -1.0000 -3.1760
v  -0.5371 1.0033 -3.3734
v  5.0010 -2.9989 -0.9999
v  7.0000 -3.0000 -1.0000
v  2.9938 -2.5883 -0.9515
v  0.9980 -2.6232 -0.9772
v  4.9994 -2.9599 0.9960
v  7.0000 -3.0000 1.0000
v  2.9903 -2.3692 0.9154
v  0.9972 -2.5580 0.9596
v  -6.5409 -2.3388 -6.9877
v  -7.6012 -0.9972 -6.9922
v  -7.7181 -1.0000 -5.0000
v  -6.8223 -2.6215 -4.9993
v  -6.9984 -2.9983 -9.0010
v  -7.0788 -1.0000 -9.0010
v  -7.0000 -3.0000 -11.0000
v  -7.0000 -1.0000 -11.0000
v  -7.8333 0.9993 -6.9974
v  -7.5308 1.0063 -5.0000
v  -7.3473 1.0000 -9.0010
v  -7.0000 1.0000 -11.0000
v  -6.7947 2.7574 -7.0346
v  -6.9561 3.0379 -4.9984
v  -6.9107 2.8906 -8.9922
v  -7.0000 3.0000 -11.0000
v  -1.0529 -2.9346 -8.9991
v  -0.6339 -1.0000 -9.0010
v  -1.0000 -1.0000 -11.0000
v  -1.0000 -3.0000 -11.0000
v  -1.5105 -2.2106 -6.9684
v  -0.2537 -0.9912 -6.9900
v  -1.2091 -2.7362 -4.9981
v  -0.1134 -1.0000 -5.0004
v  -0.2874 1.0000 -9.0010
v  -1.0000 1.0000 -11.0000
v  -0.3847 1.0019 -6.9963
v  -0.2863 1.0000 -5.0004
v  -0.9520 3.0387 -8.9958
v  -1.0000 3.0000 -11.0000
v  -1.1451 2.9098 -7.0339
v  -1.0289 2.9273 -5.0000
v  -5.0007 3.5861 -6.9956
v  -5.0235 3.8602 -4.9993
v  -5.0000 3.0043 -9.0008
v  -5.0000 3.0000 -11.0000
v  -2.9998 3.8781 -6.9947
v  -3.0002 3.8763 -5.0000
v  -3.0000 3.4031 -9.0010
v  -3.0000 3.0000 -11.0000
v  -4.9999 -2.9989 -9.0010
v  -5.0000 -3.0000 -11.0000
v  -4.9515 -2.5883 -6.9938
v  -4.9772 -2.6232 -4.9980
v  -3.0040 -2.9599 -8.9994
v  -3.0000 -3.0000 -11.0000
v  -3.0846 -2.3692 -6.9903
v  -3.0404 -2.5580 -4.9972
# 188 vertices

vn 0.4602 0.8737 -0.1578
vn 0.5449 0.8371 -0.0487
vn 0.9787 0.2054 -0.0038
vn 0.9691 0.2464 -0.0133
vn 0.9946 -0.1013 -0.0222
vn 0.9677 -0.2521 -0.0000
vn 0.6789 -0.7302 -0.0763
vn 0.7609 -0.6489 -0.0000
vn 0.1948 -0.9808 -0.0012
vn 0.2647 -0.9643 -0.0000
vn -0.1363 -0.9907 0.0001
vn -0.1519 -0.9884 -0.0002
vn -0.3969 -0.8617 0.3162
vn -0.0269 -0.9950 0.0960
vn 0.5618 0.8266 0.0327
vn 0.9748 0.1858 0.1236
vn 0.9449 0.3234 0.0498
vn 0.4685 0.8713 -0.1462
vn 0.5769 0.8118 0.0903
vn 0.9319 0.3586 -0.0546
vn 0.9920 -0.1233 0.0255
vn 0.9807 -0.1937 -0.0271
vn 0.9959 -0.0878 0.0221
vn 0.7474 -0.6643 0.0131
vn 0.7011 -0.7121 -0.0371
vn 0.6789 -0.7302 0.0763
vn -0.4990 0.8506 -0.1655
vn -0.9318 0.3630 0.0079
vn -0.5960 0.1733 -0.7840
vn -0.1395 0.9336 -0.3300
vn -0.9842 -0.1532 0.0884
vn -0.7683 -0.1521 -0.6217
vn -0.6980 -0.7160 -0.0079
vn -0.3529 -0.8660 -0.3543
vn 0.0952 -0.9935 0.0620
vn 0.1803 -0.9829 -0.0379
vn 0.1948 -0.9808 0.0012
vn -0.2134 -0.9769 0.0093
vn -0.2212 -0.9745 0.0367
vn -0.0474 -0.9927 -0.1111
vn 0.0443 -0.9967 -0.0685
vn 0.5940 0.7810 0.1930
vn 0.9826 0.0814 -0.1671
vn 0.9717 0.0000 -0.2361
vn 0.7044 0.7086 0.0417
vn 0.4728 0.8719 0.1277
vn 0.9546 0.2879 -0.0768
vn 0.9816 -0.1614 -0.1016
vn 0.9906 0.0000 -0.1367
vn 0.9672 -0.2118 -0.1403
vn 0.6788 -0.7334 0.0371
vn 0.7034 -0.7039 0.0987
vn 0.7345 -0.6773 -0.0424
vn -0.5344 0.8269 0.1753
vn -0.9461 0.3203 -0.0474
vn -0.6230 0.7623 0.1755
vn -0.9873 0.1178 -0.1065
vn -0.7055 0.7079 0.0332
vn -0.9829 -0.0000 -0.1839
vn -0.9887 -0.1127 -0.0988
vn -0.9838 -0.1038 -0.1461
vn -0.9777 0.0000 -0.2102
vn -0.7029 -0.7112 0.0089
vn -0.6453 -0.7638 0.0100
vn -0.7007 -0.7123 0.0406
vn 0.0479 -0.9839 -0.1720
vn -0.0000 -0.9988 -0.0482
vn 0.1585 -0.9721 -0.1727
vn -0.0463 -0.9889 -0.1409
vn 0.0000 -0.9999 -0.0138
vn -0.1778 -0.9685 -0.1745
vn 0.0672 0.9965 0.0494
vn -0.0501 0.9986 0.0187
vn 0.0070 0.9990 -0.0443
vn 0.1182 0.9913 0.0573
vn -0.0428 0.9987 -0.0280
vn -0.2562 0.9411 0.2206
vn 0.0453 0.9990 0.0023
vn -0.0740 0.9969 -0.0274
vn 0.0280 0.9985 -0.0467
vn 0.0390 0.9962 -0.0781
vn 0.0471 0.9988 0.0089
vn -0.0639 0.9974 0.0336
vn 0.0055 0.9991 0.0426
vn 0.1055 0.9899 0.0945
vn 0.0123 0.9928 0.1189
vn 0.0000 0.9997 0.0228
vn -0.0481 0.9935 0.1033
vn -0.0020 0.9956 0.0941
vn 0.0000 1.0000 0.0097
vn 0.0994 0.8641 0.4934
vn -0.1429 0.3734 0.9166
vn 0.1270 0.1965 0.9722
vn -0.1843 0.8411 0.5085
vn 0.1739 0.7164 0.6757
vn -0.1453 0.0855 0.9857
vn 0.0012 0.7071 0.7071
vn -0.0394 0.0000 0.9992
vn -0.0410 -0.1991 0.9791
vn 0.1238 -0.1823 0.9754
vn -0.2040 -0.0464 0.9779
vn -0.1712 -0.0000 0.9852
vn -0.0312 -0.7392 0.6727
vn -0.0704 -0.6665 0.7422
vn 0.0797 -0.7610 0.6438
vn 0.0698 -0.7075 0.7032
vn 0.2043 0.7621 -0.6144
vn -0.1793 0.1883 -0.9656
vn -0.1802 -0.0000 -0.9836
vn 0.0418 0.7078 -0.7051
vn 0.0500 0.9093 -0.4132
vn -0.1188 0.3522 -0.9283
vn -0.1963 0.8841 -0.4240
vn 0.1063 0.2275 -0.9679
vn -0.1422 -0.0692 -0.9874
vn -0.3358 0.0000 -0.9419
vn -0.0006 -0.2217 -0.9751
vn 0.0491 -0.2228 -0.9736
vn 0.0410 -0.7502 -0.6600
vn -0.0306 -0.7078 -0.7057
vn 0.0359 -0.6738 -0.7380
vn -0.0427 -0.6744 -0.7372
vn -0.2000 -0.9403 0.2754
vn 0.0702 -0.9775 0.1991
vn -0.1397 -0.9821 0.1261
vn -0.0021 -1.0000 0.0000
vn -0.1110 -0.9805 -0.1621
vn 0.1179 -0.9699 -0.2131
vn -0.2144 -0.9767 0.0099
vn -0.1977 -0.9803 0.0000
vn -0.6445 0.1571 0.7483
vn -0.7289 -0.1079 0.6761
vn 0.1008 0.9949 -0.0094
vn 0.0006 1.0000 0.0000
vn 0.0932 0.9955 0.0179
vn -0.0326 0.9993 -0.0164
vn 0.1528 0.9881 -0.0159
vn 0.0200 0.9998 -0.0000
vn 0.0965 0.9895 -0.1072
vn -0.1166 0.9927 0.0315
vn 0.4934 0.8641 -0.0994
vn 0.9166 0.3734 0.1429
vn 0.9782 0.2000 -0.0568
vn 0.5106 0.8430 0.1691
vn 0.6757 0.7164 -0.1739
vn 0.9857 0.0855 0.1453
vn 0.7071 0.7071 -0.0012
vn 0.9992 0.0000 0.0394
vn 0.9791 -0.1991 0.0410
vn 0.9826 -0.1848 -0.0192
vn 0.9779 -0.0464 0.2040
vn 0.9852 -0.0000 0.1712
vn 0.6727 -0.7392 0.0312
vn 0.7431 -0.6670 0.0541
vn 0.6438 -0.7610 -0.0798
vn 0.7032 -0.7075 -0.0698
vn -0.6144 0.7621 -0.2043
vn -0.9656 0.1883 0.1793
vn -0.9836 -0.0000 0.1802
vn -0.7051 0.7078 -0.0418
vn -0.4132 0.9093 -0.0500
vn -0.9283 0.3522 0.1188
vn -0.4251 0.8802 0.2110
vn -0.9695 0.2286 -0.0888
vn -0.9874 -0.0692 0.1422
vn -0.9419 -0.0000 0.3358
vn -0.9751 -0.2217 0.0006
vn -0.9736 -0.2227 -0.0500
vn -0.6600 -0.7502 -0.0410
vn -0.7057 -0.7078 0.0306
vn -0.7380 -0.6738 -0.0359
vn -0.7370 -0.6742 0.0478
vn 0.2754 -0.9403 0.2000
vn 0.2007 -0.9796 -0.0014
vn 0.1261 -0.9821 0.1397
vn 0.0000 -1.0000 0.0021
vn -0.1621 -0.9805 0.1110
vn -0.2171 -0.9754 -0.0382
vn 0.0099 -0.9767 0.2144
vn -0.0000 -0.9803 0.1977
vn -0.0094 0.9949 -0.1008
vn 0.0000 1.0000 -0.0006
vn 0.0179 0.9955 -0.0932
vn -0.0163 0.9995 -0.0272
vn -0.0159 0.9881 -0.1528
vn -0.0000 0.9998 -0.0200
vn -0.1072 0.9895 -0.0965
vn 0.0316 0.9958 0.0855
# 188 vertex normals

vt 0.9999 -0.9986 0.0000
vt 0.6666 -0.9986 0.0000
vt 0.6666 -0.6661 0.0000
vt 0.9999 -0.6661 0.0000
vt 0.6666 -0.3339 0.0000
vt 0.9999 -0.3339 0.0000
vt 0.6666 -0.0013 0.0000
vt 0.9999 -0.0013 0.0000
vt 2.0000 -0.9999 0.0000
vt 1.6667 -0.9999 0.0000
vt 1.6666 -0.6666 0.0000
vt 2.0000 -0.6666 0.0000
vt 1.6667 -0.3334 0.0000
vt 2.0000 -0.3334 0.0000
vt 1.6667 -0.0000 0.0000
vt 2.0000 -0.0000 0.0000
vt 0.3339 -0.9986 0.0000
vt 0.3339 -0.6661 0.0000
vt 0.0001 -0.6661 0.0000
vt 0.0001 -0.9986 0.0000
vt 0.3339 -0.3339 0.0000
vt 0.0001 -0.3339 0.0000
vt 0.3339 -0.0013 0.0000
vt 0.0001 -0.0013 0.0000
vt 1.3333 -0.9999 0.0000
vt 1.3333 -0.6666 0.0000
vt 1.0000 -0.6666 0.0000
vt 1.0000 -0.9999 0.0000
vt 1.3333 -0.3334 0.0000
vt 1.0000 -0.3334 0.0000
vt 1.3333 -0.0000 0.0000
vt 1.0000 -0.0000 0.0000
vt 2.3335 -0.0010 0.0000
vt 1.9994 -0.0010 0.0000
vt 1.9994 0.3339 0.0000
vt 2.3335 0.3339 0.0000
vt 1.9994 0.6672 0.0000
vt 2.3335 0.6672 0.0000
vt 1.9994 0.9977 0.0000
vt 2.3335 0.9977 0.0000
vt 2.6661 -0.0010 0.0000
vt 2.6661 0.3339 0.0000
vt 3.0000 -0.0010 0.0000
vt 3.0000 0.3339 0.0000
vt 2.6661 0.6672 0.0000
vt 3.0000 0.6672 0.0000
vt 2.6661 0.9977 0.0000
vt 3.0000 0.9977 0.0000
# 48 texture coords

o Object57123966
g Object57123966
f 1/1/1 2/2/2 3/3/3 4/4/4 
f 4/4/4 3/3/3 5/5/5 6/6/6 
f 6/6/6 5/5/5 7/7/7 8/8/8 
f 8/9/8 7/10/7 9/11/9 10/12/10 
f 10/12/10 9/11/9 11/13/11 12/14/12 
f 12/14/12 11/13/11 13/15/13 14/16/14 
f 15/17/15 16/18/16 17/19/17 18/20/18 
f 19/2/19 20/3/20 16/18/16 15/17/15 
f 1/1/1 4/4/4 20/3/20 19/2/19 
f 16/18/16 21/21/21 22/22/22 17/19/17 
f 20/3/20 23/5/23 21/21/21 16/18/16 
f 4/4/4 6/6/6 23/5/23 20/3/20 
f 21/21/21 24/23/24 25/24/25 22/22/22 
f 23/5/23 26/7/26 24/23/24 21/21/21 
f 6/6/6 8/8/8 26/7/26 23/5/23 
f 27/1/27 28/4/28 29/3/29 30/2/30 
f 28/4/28 31/6/31 32/5/32 29/3/29 
f 31/6/31 33/8/33 34/7/34 32/5/32 
f 24/25/24 35/26/35 36/27/36 25/28/25 
f 26/10/26 37/11/37 35/26/35 24/25/24 
f 8/9/8 10/12/10 37/11/37 26/10/26 
f 35/26/35 38/29/38 39/30/39 36/27/36 
f 37/11/37 40/13/40 38/29/38 35/26/35 
f 10/12/10 12/14/12 40/13/40 37/11/37 
f 38/29/38 34/31/34 33/32/33 39/30/39 
f 40/13/40 41/15/41 34/31/34 38/29/38 
f 12/14/12 14/16/14 41/15/41 40/13/40 
f 42/17/42 43/18/43 44/19/44 45/20/45 
f 46/2/46 47/3/47 43/18/43 42/17/42 
f 18/1/18 17/4/17 47/3/47 46/2/46 
f 43/18/43 48/21/48 49/22/49 44/19/44 
f 47/3/47 50/5/50 48/21/48 43/18/43 
f 17/4/17 22/6/22 50/5/50 47/3/47 
f 48/21/48 51/23/51 52/24/52 49/22/49 
f 50/5/50 53/7/53 51/23/51 48/21/48 
f 22/6/22 25/8/25 53/7/53 50/5/50 
f 54/17/54 55/18/55 28/19/28 27/20/27 
f 56/2/56 57/3/57 55/18/55 54/17/54 
f 58/1/58 59/4/59 57/3/57 56/2/56 
f 55/18/55 60/21/60 31/22/31 28/19/28 
f 57/3/57 61/5/61 60/21/60 55/18/55 
f 59/4/59 62/6/62 61/5/61 57/3/57 
f 60/21/60 63/23/63 33/24/33 31/22/31 
f 61/5/61 64/7/64 63/23/63 60/21/60 
f 62/6/62 65/8/65 64/7/64 61/5/61 
f 51/25/51 66/26/66 67/27/67 52/28/52 
f 53/10/53 68/11/68 66/26/66 51/25/51 
f 25/9/25 36/12/36 68/11/68 53/10/53 
f 66/26/66 69/29/69 70/30/70 67/27/67 
f 68/11/68 71/13/71 69/29/69 66/26/66 
f 36/12/36 39/14/39 71/13/71 68/11/68 
f 69/29/69 64/31/64 65/32/65 70/30/70 
f 71/13/71 63/15/63 64/31/64 69/29/69 
f 39/14/39 33/16/33 63/15/63 71/13/71 
f 2/33/2 1/34/1 72/35/72 73/36/73 
f 73/36/73 72/35/72 74/37/74 75/38/75 
f 75/38/75 74/37/74 76/39/76 77/40/77 
f 19/33/19 78/36/78 72/35/72 1/34/1 
f 15/41/15 79/42/79 78/36/78 19/33/19 
f 18/43/18 80/44/80 79/42/79 15/41/15 
f 78/36/78 81/38/81 74/37/74 72/35/72 
f 79/42/79 82/45/82 81/38/81 78/36/78 
f 80/44/80 83/46/83 82/45/82 79/42/79 
f 81/38/81 84/40/84 76/39/76 74/37/74 
f 82/45/82 30/47/30 84/40/84 81/38/81 
f 83/46/83 27/48/27 30/47/30 82/45/82 
f 46/33/46 85/36/85 80/35/80 18/34/18 
f 42/41/42 86/42/86 85/36/85 46/33/46 
f 45/43/45 87/44/87 86/42/86 42/41/42 
f 85/36/85 88/38/88 83/37/83 80/35/80 
f 86/42/86 89/45/89 88/38/88 85/36/85 
f 87/44/87 90/46/90 89/45/89 86/42/86 
f 88/38/88 54/40/54 27/39/27 83/37/83 
f 89/45/89 56/47/56 54/40/54 88/38/88 
f 90/46/90 58/48/58 56/47/56 89/45/89 
f 91/17/91 92/18/92 93/19/93 94/20/94 
f 95/2/95 96/3/96 92/18/92 91/17/91 
f 97/1/97 98/4/98 96/3/96 95/2/95 
f 92/18/92 99/21/99 100/22/100 93/19/93 
f 96/3/96 101/5/101 99/21/99 92/18/92 
f 98/4/98 102/6/102 101/5/101 96/3/96 
f 99/21/99 103/23/103 104/24/104 100/22/100 
f 101/5/101 105/7/105 103/23/103 99/21/99 
f 102/6/102 106/8/106 105/7/105 101/5/101 
f 107/17/107 108/18/108 109/19/109 110/20/110 
f 111/2/111 112/3/112 108/18/108 107/17/107 
f 113/1/113 114/4/114 112/3/112 111/2/111 
f 108/18/108 115/21/115 116/22/116 109/19/109 
f 112/3/112 117/5/117 115/21/115 108/18/108 
f 114/4/114 118/6/118 117/5/117 112/3/112 
f 115/21/115 119/23/119 120/24/120 116/22/116 
f 117/5/117 121/7/121 119/23/119 115/21/115 
f 118/6/118 122/8/122 121/7/121 117/5/117 
f 103/25/103 123/26/123 124/27/124 104/28/104 
f 105/10/105 125/11/125 123/26/123 103/25/103 
f 106/9/106 126/12/126 125/11/125 105/10/105 
f 123/26/123 127/29/127 128/30/128 124/27/124 
f 125/11/125 129/13/129 127/29/127 123/26/123 
f 126/12/126 130/14/130 129/13/129 125/11/125 
f 127/29/127 121/31/121 122/32/122 128/30/128 
f 129/13/129 119/15/119 121/31/121 127/29/127 
f 130/14/130 120/16/120 119/15/119 129/13/129 
f 77/2/77 94/17/94 93/18/93 131/3/131 
f 131/3/131 93/18/93 100/21/100 132/5/132 
f 132/5/132 100/21/100 104/23/104 13/7/13 
f 113/2/113 30/17/30 29/18/29 114/3/114 
f 114/3/114 29/18/29 32/21/32 118/5/118 
f 118/5/118 32/21/32 34/23/34 122/7/122 
f 13/10/13 104/25/104 124/26/124 14/11/14 
f 14/11/14 124/26/124 128/29/128 41/13/41 
f 41/13/41 128/29/128 122/31/122 34/15/34 
f 95/33/95 133/36/133 134/35/134 97/34/97 
f 91/41/91 135/42/135 133/36/133 95/33/95 
f 94/43/94 136/44/136 135/42/135 91/41/91 
f 133/36/133 137/38/137 138/37/138 134/35/134 
f 135/42/135 139/45/139 137/38/137 133/36/133 
f 136/44/136 140/46/140 139/45/139 135/42/135 
f 137/38/137 107/40/107 110/39/110 138/37/138 
f 139/45/139 111/47/111 107/40/107 137/38/137 
f 140/46/140 113/48/113 111/47/111 139/45/139 
f 94/41/94 77/33/77 76/36/76 136/42/136 
f 136/42/136 76/36/76 84/38/84 140/45/140 
f 140/45/140 84/38/84 30/40/30 113/47/113 
f 141/17/141 142/18/142 143/19/143 144/20/144 
f 145/2/145 146/3/146 142/18/142 141/17/141 
f 147/1/147 148/4/148 146/3/146 145/2/145 
f 142/18/142 149/21/149 150/22/150 143/19/143 
f 146/3/146 151/5/151 149/21/149 142/18/142 
f 148/4/148 152/6/152 151/5/151 146/3/146 
f 149/21/149 153/23/153 154/24/154 150/22/150 
f 151/5/151 155/7/155 153/23/153 149/21/149 
f 152/6/152 156/8/156 155/7/155 151/5/151 
f 157/17/157 158/18/158 159/19/159 160/20/160 
f 161/2/161 162/3/162 158/18/158 157/17/157 
f 163/1/163 164/4/164 162/3/162 161/2/161 
f 158/18/158 165/21/165 166/22/166 159/19/159 
f 162/3/162 167/5/167 165/21/165 158/18/158 
f 164/4/164 168/6/168 167/5/167 162/3/162 
f 165/21/165 169/23/169 170/24/170 166/22/166 
f 167/5/167 171/7/171 169/23/169 165/21/165 
f 168/6/168 172/8/172 171/7/171 167/5/167 
f 153/25/153 173/26/173 174/27/174 154/28/154 
f 155/10/155 175/11/175 173/26/173 153/25/153 
f 156/9/156 176/12/176 175/11/175 155/10/155 
f 173/26/173 177/29/177 178/30/178 174/27/174 
f 175/11/175 179/13/179 177/29/177 173/26/173 
f 176/12/176 180/14/180 179/13/179 175/11/175 
f 177/29/177 171/31/171 172/32/172 178/30/178 
f 179/13/179 169/15/169 171/31/171 177/29/177 
f 180/14/180 170/16/170 169/15/169 179/13/179 
f 2/2/2 144/17/144 143/18/143 3/3/3 
f 3/3/3 143/18/143 150/21/150 5/5/5 
f 5/5/5 150/21/150 154/23/154 7/7/7 
f 163/2/163 77/17/77 131/18/131 164/3/164 
f 164/3/164 131/18/131 132/21/132 168/5/168 
f 168/5/168 132/21/132 13/23/13 172/7/172 
f 7/10/7 154/25/154 174/26/174 9/11/9 
f 9/11/9 174/26/174 178/29/178 11/13/11 
f 11/13/11 178/29/178 172/31/172 13/15/13 
f 145/33/145 181/36/181 182/35/182 147/34/147 
f 141/41/141 183/42/183 181/36/181 145/33/145 
f 144/43/144 184/44/184 183/42/183 141/41/141 
f 181/36/181 185/38/185 186/37/186 182/35/182 
f 183/42/183 187/45/187 185/38/185 181/36/181 
f 184/44/184 188/46/188 187/45/187 183/42/183 
f 185/38/185 157/40/157 160/39/160 186/37/186 
f 187/45/187 161/47/161 157/40/157 185/38/185 
f 188/46/188 163/48/163 161/47/161 187/45/187 
f 144/41/144 2/33/2 73/36/73 184/42/184 
f 184/42/184 73/36/73 75/38/75 188/45/188 
f 188/45/188 75/38/75 77/40/77 163/47/163 
# 171 polygons

#
# object Object57123964
#

v  -7.0000 -1.0000 3.5000
v  -6.0000 -1.0000 3.5000
v  -6.0000 -3.0000 3.5000
v  -7.0000 -3.0000 3.5000
v  -1.0000 1.0000 3.5000
v  -2.0000 1.0000 3.5000
v  -2.0000 2.0000 3.5000
v  -1.0000 2.0000 3.5000
v  -7.0000 1.0000 3.5000
v  -7.0000 2.0000 3.5000
v  -6.0000 2.0000 3.5000
v  -6.0000 1.0000 3.5000
v  -1.0000 -1.0000 3.5000
v  -1.0000 -3.0000 3.5000
v  -2.0000 -3.0000 3.5000
v  -2.0000 -1.0000 3.5000
v  -7.0000 -1.0000 4.5000
v  -7.0000 -3.0000 4.5000
v  -6.0000 -3.0000 4.5000
v  -6.0000 -1.0000 4.5000
v  -1.0000 1.0000 4.5000
v  -1.0000 2.0000 4.5000
v  -2.0000 2.0000 4.5000
v  -2.0000 1.0000 4.5000
v  -7.0000 1.0000 4.5000
v  -6.0000 1.0000 4.5000
v  -6.0000 2.0000 4.5000
v  -7.0000 2.0000 4.5000
v  -1.0000 -1.0000 4.5000
v  -2.0000 -1.0000 4.5000
v  -2.0000 -3.0000 4.5000
v  -1.0000 -3.0000 4.5000
# 32 vertices

vn 0.0000 0.0000 -1.0000
vn 0.7071 0.0000 -0.7071
vn -0.0000 0.0000 -1.0000
vn -0.7071 0.0000 -0.7071
vn 0.0000 -0.0000 -1.0000
vn -0.0000 0.0000 1.0000
vn 0.0000 0.0000 1.0000
vn 0.7071 -0.0000 0.7071
vn -0.7071 0.0000 0.7071
vn 0.7071 0.0000 0.7071
# 10 vertex normals

vt 0.9999 0.3356 0.0000
vt 0.8346 0.3356 0.0000
vt 0.8346 0.0000 0.0000
vt 0.9999 0.0000 0.0000
vt 0.0000 0.6644 0.0000
vt 0.1653 0.6644 0.0000
vt 0.1653 0.8322 0.0000
vt 0.0000 0.8322 0.0000
vt 0.9999 0.6644 0.0000
vt 0.9999 0.8322 0.0000
vt 0.8346 0.8322 0.0000
vt 0.8346 0.6644 0.0000
vt 0.0000 0.3356 0.0000
vt 0.0000 0.0000 0.0000
vt 0.1653 0.0000 0.0000
vt 0.1653 0.3356 0.0000
vt 0.1673 -0.9986 0.0000
vt 0.3339 -0.9986 0.0000
vt 0.3339 -0.6661 0.0000
vt 0.1673 -0.6661 0.0000
vt 0.3339 -0.3339 0.0000
vt 0.1673 -0.3339 0.0000
vt 0.3339 -0.1676 0.0000
vt 0.1673 -0.1676 0.0000
vt 0.0001 -0.9986 1.0000
vt 0.1673 -0.9986 1.0000
vt 0.1673 -0.6661 1.0000
vt 0.0001 -0.6661 1.0000
vt 0.1673 -0.3339 1.0000
vt 0.0001 -0.3339 1.0000
vt 0.1673 -0.1676 1.0000
vt 0.0001 -0.1676 1.0000
# 32 texture coords

o Object57123964
g Object57123964
f 189/49/189 190/50/190 191/51/190 192/52/191 
f 193/53/191 194/54/192 195/55/192 196/56/191 
f 197/57/193 198/58/193 199/59/190 200/60/190 
f 201/61/191 202/62/191 203/63/192 204/64/192 
f 197/57/193 200/60/190 190/50/190 189/49/189 
f 201/61/191 204/64/192 194/54/192 193/53/191 
f 205/49/194 206/52/195 207/51/196 208/50/196 
f 209/53/195 210/56/195 211/55/197 212/54/197 
f 213/57/194 214/60/198 215/59/198 216/58/195 
f 217/61/195 218/64/197 219/63/197 220/62/195 
f 213/57/194 205/49/194 208/50/196 214/60/198 
f 217/61/195 209/53/195 212/54/197 218/64/197 
f 207/65/196 191/66/190 190/67/190 208/68/196 
f 208/68/196 190/67/190 200/69/190 214/70/198 
f 214/70/198 200/69/190 199/71/190 215/72/198 
f 203/73/192 219/74/197 218/75/197 204/76/192 
f 204/76/192 218/75/197 212/77/197 194/78/192 
f 194/78/192 212/77/197 211/79/197 195/80/192 
# 18 polygons

#
# object cap009
#

v  -3.0000 3.0000 3.5000
v  -3.0000 2.0000 3.5000
v  -5.0000 2.0000 3.5000
v  -5.0000 3.0000 3.5000
v  -3.0000 3.0000 4.5000
v  -5.0000 3.0000 4.5000
v  -5.0000 2.0000 4.5000
v  -3.0000 2.0000 4.5000
v  -6.0000 3.0000 3.5000
v  -6.0000 2.0000 3.5000
v  -2.0000 3.0000 4.5000
v  -2.0000 2.0000 4.5000
v  -2.0000 2.0000 3.5000
v  -2.0000 3.0000 3.5000
v  -1.0000 3.0000 3.5000
v  -1.0000 2.0000 3.5000
v  -7.0000 2.0000 3.5000
v  -7.0000 3.0000 3.5000
v  -1.0000 2.0000 4.5000
v  -1.0000 3.0000 4.5000
v  -6.0000 2.0000 4.5000
v  -6.0000 3.0000 4.5000
v  -7.0000 3.0000 4.5000
v  -7.0000 2.0000 4.5000
v  -1.0000 -3.0000 4.5000
v  -2.0000 -3.0000 4.5000
v  -2.0000 -3.0000 3.5000
v  -1.0000 -3.0000 3.5000
v  -6.0000 -3.0000 4.5000
v  -7.0000 -3.0000 4.5000
v  -7.0000 -3.0000 3.5000
v  -6.0000 -3.0000 3.5000
v  -7.0000 -1.0000 4.5000
v  -7.0000 -1.0000 3.5000
v  -7.0000 1.0000 4.5000
v  -7.0000 1.0000 3.5000
v  -1.0000 1.0000 4.5000
v  -1.0000 1.0000 3.5000
v  -1.0000 -1.0000 4.5000
v  -1.0000 -1.0000 3.5000
# 40 vertices

vn -0.0000 0.7071 -0.7071
vn 0.0000 -0.7071 -0.7071
vn -0.0000 -0.7071 -0.7071
vn -0.0000 0.7071 0.7071
vn -0.0000 -0.7071 0.7071
vn 0.0000 -0.7071 0.7071
vn -0.0000 -0.0000 -1.0000
vn 0.0000 -0.4472 -0.8944
vn 0.0000 0.0000 1.0000
vn 0.0000 -0.4472 0.8944
vn 0.5773 0.5774 -0.5773
vn 0.0000 0.0000 -1.0000
vn -0.5774 0.5773 -0.5774
vn 0.5773 0.5774 0.5773
vn -0.0000 -0.4472 0.8944
vn -0.5774 0.5773 0.5774
vn -0.0000 -0.0000 1.0000
vn 0.7071 -0.7071 -0.0000
vn -0.0000 -1.0000 0.0000
vn 0.0000 -1.0000 0.0000
vn -0.7071 -0.7071 0.0000
vn -1.0000 0.0000 0.0000
vn -1.0000 -0.0000 0.0000
vn 1.0000 0.0000 -0.0000
# 24 vertex normals

vt 0.3306 0.9999 0.0000
vt 0.3306 0.8322 0.0000
vt 0.6693 0.8322 0.0000
vt 0.6693 0.9999 0.0000
vt 0.8346 0.9999 0.0000
vt 0.8346 0.8322 0.0000
vt 0.1653 0.9999 0.0000
vt 0.1653 0.8322 0.0000
vt 0.0000 0.9999 0.0000
vt 0.0000 0.8322 0.0000
vt 0.9999 0.8322 0.0000
vt 0.9999 0.9999 0.0000
vt 0.0016 -0.8332 0.0000
vt 0.3349 -0.8332 0.0000
vt 0.3349 -0.9976 0.0000
vt 0.0016 -0.9976 0.0000
vt 0.6674 -0.8332 0.0000
vt 0.6674 -0.9976 0.0000
vt 0.9997 -0.8332 0.0000
vt 0.9997 -0.9976 0.0000
vt 0.9997 -0.9976 1.0000
vt 0.8335 -0.9976 1.0000
vt 0.8335 -0.8332 1.0000
vt 0.9997 -0.8332 1.0000
vt 0.1683 -0.9976 1.0000
vt 0.0016 -0.9976 1.0000
vt 0.0016 -0.8332 1.0000
vt 0.1683 -0.8332 1.0000
vt 1.8334 -0.9986 0.0000
vt 1.8334 -0.8307 0.0000
vt 1.6677 -0.8307 0.0000
vt 1.6677 -0.9986 0.0000
vt 1.3331 -0.8307 0.0000
vt 1.3331 -0.9986 0.0000
vt 1.1667 -0.8307 0.0000
vt 1.1667 -0.9986 0.0000
# 36 texture coords

o cap009
g cap009
f 221/81/199 222/82/200 223/83/201 224/84/199 
f 225/81/202 226/84/202 227/83/203 228/82/204 
f 229/85/205 224/84/199 223/83/201 230/86/206 
f 231/87/207 225/81/202 228/82/204 232/88/208 
f 233/88/206 234/87/205 235/89/209 236/90/205 
f 237/91/210 238/92/211 229/85/205 230/86/206 
f 239/90/207 240/89/212 231/87/207 232/88/208 
f 241/86/213 242/85/207 243/92/214 244/91/215 
f 222/82/200 221/81/199 234/87/205 233/88/206 
f 227/83/203 226/84/202 242/85/207 241/86/213 
f 235/93/209 221/94/199 225/95/202 240/96/212 
f 221/94/199 224/97/199 226/98/202 225/95/202 
f 224/97/199 238/99/211 243/100/214 226/98/202 
f 245/101/216 246/102/217 247/103/218 248/104/216 
f 249/105/218 250/106/219 251/107/219 252/108/218 
f 250/100/219 253/98/220 254/97/221 251/99/219 
f 253/98/220 255/95/221 256/94/221 254/97/221 
f 255/95/221 243/96/214 238/93/211 256/94/221 
f 240/100/212 257/98/222 258/97/222 235/99/209 
f 257/98/222 259/95/222 260/94/222 258/97/222 
f 259/95/222 245/96/216 248/93/216 260/94/222 
f 233/109/206 232/110/208 228/111/204 222/112/200 
f 222/112/200 228/111/204 227/113/203 223/114/201 
f 223/114/201 227/113/203 241/115/213 230/116/206 
# 24 polygons

#
# object Object57123965
#

v  -7.0000 -1.0000 -4.5000
v  -6.0000 -1.0000 -4.5000
v  -6.0000 -3.0000 -4.5000
v  -7.0000 -3.0000 -4.5000
v  -1.0000 1.0000 -4.5000
v  -2.0000 1.0000 -4.5000
v  -2.0000 2.0000 -4.5000
v  -1.0000 2.0000 -4.5000
v  -7.0000 1.0000 -4.5000
v  -7.0000 2.0000 -4.5000
v  -6.0000 2.0000 -4.5000
v  -6.0000 1.0000 -4.5000
v  -1.0000 -1.0000 -4.5000
v  -1.0000 -3.0000 -4.5000
v  -2.0000 -3.0000 -4.5000
v  -2.0000 -1.0000 -4.5000
v  -7.0000 -1.0000 -3.5000
v  -7.0000 -3.0000 -3.5000
v  -6.0000 -3.0000 -3.5000
v  -6.0000 -1.0000 -3.5000
v  -1.0000 1.0000 -3.5000
v  -1.0000 2.0000 -3.5000
v  -2.0000 2.0000 -3.5000
v  -2.0000 1.0000 -3.5000
v  -7.0000 1.0000 -3.5000
v  -6.0000 1.0000 -3.5000
v  -6.0000 2.0000 -3.5000
v  -7.0000 2.0000 -3.5000
v  -1.0000 -1.0000 -3.5000
v  -2.0000 -1.0000 -3.5000
v  -2.0000 -3.0000 -3.5000
v  -1.0000 -3.0000 -3.5000
# 32 vertices

vn 0.0000 0.0000 -1.0000
vn 0.7071 0.0000 -0.7071
vn -0.0000 0.0000 -1.0000
vn -0.7071 0.0000 -0.7071
vn 0.0000 -0.0000 -1.0000
vn -0.0000 0.0000 1.0000
vn 0.0000 0.0000 1.0000
vn 0.7071 -0.0000 0.7071
vn -0.7071 0.0000 0.7071
vn 0.7071 0.0000 0.7071
# 10 vertex normals

vt 0.9999 0.3356 0.0000
vt 0.8346 0.3356 0.0000
vt 0.8346 0.0000 0.0000
vt 0.9999 0.0000 0.0000
vt 0.0000 0.6644 0.0000
vt 0.1653 0.6644 0.0000
vt 0.1653 0.8322 0.0000
vt 0.0000 0.8322 0.0000
vt 0.9999 0.6644 0.0000
vt 0.9999 0.8322 0.0000
vt 0.8346 0.8322 0.0000
vt 0.8346 0.6644 0.0000
vt 0.0000 0.3356 0.0000
vt 0.0000 0.0000 0.0000
vt 0.1653 0.0000 0.0000
vt 0.1653 0.3356 0.0000
vt 0.1673 -0.9986 0.0000
vt 0.3339 -0.9986 0.0000
vt 0.3339 -0.6661 0.0000
vt 0.1673 -0.6661 0.0000
vt 0.3339 -0.3339 0.0000
vt 0.1673 -0.3339 0.0000
vt 0.3339 -0.1676 0.0000
vt 0.1673 -0.1676 0.0000
vt 0.0001 -0.9986 1.0000
vt 0.1673 -0.9986 1.0000
vt 0.1673 -0.6661 1.0000
vt 0.0001 -0.6661 1.0000
vt 0.1673 -0.3339 1.0000
vt 0.0001 -0.3339 1.0000
vt 0.1673 -0.1676 1.0000
vt 0.0001 -0.1676 1.0000
# 32 texture coords

o Object57123965
g Object57123965
f 261/117/223 262/118/224 263/119/224 264/120/225 
f 265/121/225 266/122/226 267/123/226 268/124/225 
f 269/125/227 270/126/227 271/127/224 272/128/224 
f 273/129/225 274/130/225 275/131/226 276/132/226 
f 269/125/227 272/128/224 262/118/224 261/117/223 
f 273/129/225 276/132/226 266/122/226 265/121/225 
f 277/117/228 278/120/229 279/119/230 280/118/230 
f 281/121/229 282/124/229 283/123/231 284/122/231 
f 285/125/228 286/128/232 287/127/232 288/126/229 
f 289/129/229 290/132/231 291/131/231 292/130/229 
f 285/125/228 277/117/228 280/118/230 286/128/232 
f 289/129/229 281/121/229 284/122/231 290/132/231 
f 279/133/230 263/134/224 262/135/224 280/136/230 
f 280/136/230 262/135/224 272/137/224 286/138/232 
f 286/138/232 272/137/224 271/139/224 287/140/232 
f 275/141/226 291/142/231 290/143/231 276/144/226 
f 276/144/226 290/143/231 284/145/231 266/146/226 
f 266/146/226 284/145/231 283/147/231 267/148/226 
# 18 polygons

#
# object cap010
#

v  -3.0000 3.0000 -4.5000
v  -3.0000 2.0000 -4.5000
v  -5.0000 2.0000 -4.5000
v  -5.0000 3.0000 -4.5000
v  -3.0000 3.0000 -3.5000
v  -5.0000 3.0000 -3.5000
v  -5.0000 2.0000 -3.5000
v  -3.0000 2.0000 -3.5000
v  -6.0000 3.0000 -4.5000
v  -6.0000 2.0000 -4.5000
v  -2.0000 3.0000 -3.5000
v  -2.0000 2.0000 -3.5000
v  -2.0000 2.0000 -4.5000
v  -2.0000 3.0000 -4.5000
v  -1.0000 3.0000 -4.5000
v  -1.0000 2.0000 -4.5000
v  -7.0000 2.0000 -4.5000
v  -7.0000 3.0000 -4.5000
v  -1.0000 2.0000 -3.5000
v  -1.0000 3.0000 -3.5000
v  -6.0000 2.0000 -3.5000
v  -6.0000 3.0000 -3.5000
v  -7.0000 3.0000 -3.5000
v  -7.0000 2.0000 -3.5000
v  -1.0000 -3.0000 -3.5000
v  -2.0000 -3.0000 -3.5000
v  -2.0000 -3.0000 -4.5000
v  -1.0000 -3.0000 -4.5000
v  -6.0000 -3.0000 -3.5000
v  -7.0000 -3.0000 -3.5000
v  -7.0000 -3.0000 -4.5000
v  -6.0000 -3.0000 -4.5000
v  -7.0000 -1.0000 -3.5000
v  -7.0000 -1.0000 -4.5000
v  -7.0000 1.0000 -3.5000
v  -7.0000 1.0000 -4.5000
v  -1.0000 1.0000 -3.5000
v  -1.0000 1.0000 -4.5000
v  -1.0000 -1.0000 -3.5000
v  -1.0000 -1.0000 -4.5000
# 40 vertices

vn -0.0000 0.7071 -0.7071
vn 0.0000 -0.7071 -0.7071
vn -0.0000 -0.7071 -0.7071
vn -0.0000 0.7071 0.7071
vn -0.0000 -0.7071 0.7071
vn 0.0000 -0.7071 0.7071
vn -0.0000 -0.0000 -1.0000
vn 0.0000 -0.4472 -0.8944
vn 0.0000 0.0000 1.0000
vn 0.0000 -0.4472 0.8944
vn 0.5773 0.5774 -0.5773
vn 0.0000 0.0000 -1.0000
vn -0.5774 0.5773 -0.5774
vn 0.5773 0.5774 0.5773
vn -0.0000 -0.4472 0.8944
vn -0.5774 0.5773 0.5774
vn -0.0000 -0.0000 1.0000
vn 0.7071 -0.7071 -0.0000
vn -0.0000 -1.0000 0.0000
vn 0.0000 -1.0000 0.0000
vn -0.7071 -0.7071 0.0000
vn -1.0000 0.0000 0.0000
vn -1.0000 -0.0000 0.0000
vn 1.0000 0.0000 -0.0000
# 24 vertex normals

vt 0.3306 0.9999 0.0000
vt 0.3306 0.8322 0.0000
vt 0.6693 0.8322 0.0000
vt 0.6693 0.9999 0.0000
vt 0.8346 0.9999 0.0000
vt 0.8346 0.8322 0.0000
vt 0.1653 0.9999 0.0000
vt 0.1653 0.8322 0.0000
vt 0.0000 0.9999 0.0000
vt 0.0000 0.8322 0.0000
vt 0.9999 0.8322 0.0000
vt 0.9999 0.9999 0.0000
vt 0.0016 -0.8332 0.0000
vt 0.3349 -0.8332 0.0000
vt 0.3349 -0.9976 0.0000
vt 0.0016 -0.9976 0.0000
vt 0.6674 -0.8332 0.0000
vt 0.6674 -0.9976 0.0000
vt 0.9997 -0.8332 0.0000
vt 0.9997 -0.9976 0.0000
vt 0.9997 -0.9976 1.0000
vt 0.8335 -0.9976 1.0000
vt 0.8335 -0.8332 1.0000
vt 0.9997 -0.8332 1.0000
vt 0.1683 -0.9976 1.0000
vt 0.0016 -0.9976 1.0000
vt 0.0016 -0.8332 1.0000
vt 0.1683 -0.8332 1.0000
vt 1.8334 -0.9986 0.0000
vt 1.8334 -0.8307 0.0000
vt 1.6677 -0.8307 0.0000
vt 1.6677 -0.9986 0.0000
vt 1.3331 -0.8307 0.0000
vt 1.3331 -0.9986 0.0000
vt 1.1667 -0.8307 0.0000
vt 1.1667 -0.9986 0.0000
# 36 texture coords

o cap010
g cap010
f 293/149/233 294/150/234 295/151/235 296/152/233 
f 297/149/236 298/152/236 299/151/237 300/150/238 
f 301/153/239 296/152/233 295/151/235 302/154/240 
f 303/155/241 297/149/236 300/150/238 304/156/242 
f 305/156/240 306/155/239 307/157/243 308/158/239 
f 309/159/244 310/160/245 301/153/239 302/154/240 
f 311/158/241 312/157/246 303/155/241 304/156/242 
f 313/154/247 314/153/241 315/160/248 316/159/249 
f 294/150/234 293/149/233 306/155/239 305/156/240 
f 299/151/237 298/152/236 314/153/241 313/154/247 
f 307/161/243 293/162/233 297/163/236 312/164/246 
f 293/162/233 296/165/233 298/166/236 297/163/236 
f 296/165/233 310/167/245 315/168/248 298/166/236 
f 317/169/250 318/170/251 319/171/252 320/172/250 
f 321/173/252 322/174/253 323/175/253 324/176/252 
f 322/168/253 325/166/254 326/165/255 323/167/253 
f 325/166/254 327/163/255 328/162/255 326/165/255 
f 327/163/255 315/164/248 310/161/245 328/162/255 
f 312/168/246 329/166/256 330/165/256 307/167/243 
f 329/166/256 331/163/256 332/162/256 330/165/256 
f 331/163/256 317/164/250 320/161/250 332/162/256 
f 305/177/240 304/178/242 300/179/238 294/180/234 
f 294/180/234 300/179/238 299/181/237 295/182/235 
f 295/182/235 299/181/237 313/183/247 302/184/240 
# 24 polygons

#
# object Object57123967
#

v  -1.0000 3.0000 11.0000
v  -1.0000 3.0000 12.0000
v  -3.0000 3.0000 12.0000
v  -3.0000 3.0000 11.0000
v  -5.0000 3.0000 12.0000
v  -5.0000 3.0000 11.0000
v  -7.0000 3.0000 12.0000
v  -7.0000 3.0000 11.0000
v  -7.0000 -3.0000 11.0000
v  -7.0000 -3.0000 12.0000
v  -5.0000 -3.0000 12.0000
v  -5.0000 -3.0000 11.0000
v  -3.0000 -3.0000 12.0000
v  -3.0000 -3.0000 11.0000
v  -1.0000 -3.0000 12.0000
v  -1.0000 -3.0000 11.0000
v  7.0000 3.0000 -3.0000
v  8.0000 3.0000 -3.0000
v  8.0000 3.0000 -1.0000
v  7.0000 3.0000 -1.0000
v  8.0000 3.0000 1.0000
v  7.0000 3.0000 1.0000
v  8.0000 3.0000 3.0000
v  7.0000 3.0000 3.0000
v  7.0000 -3.0000 3.0000
v  8.0000 -3.0000 3.0000
v  8.0000 -3.0000 1.0000
v  7.0000 -3.0000 1.0000
v  8.0000 -3.0000 -1.0000
v  7.0000 -3.0000 -1.0000
v  8.0000 -3.0000 -3.0000
v  7.0000 -3.0000 -3.0000
v  -7.0000 3.0000 -11.0000
v  -7.0000 3.0000 -12.0000
v  -5.0000 3.0000 -12.0000
v  -5.0000 3.0000 -11.0000
v  -3.0000 3.0000 -12.0000
v  -3.0000 3.0000 -11.0000
v  -1.0000 3.0000 -12.0000
v  -1.0000 3.0000 -11.0000
v  -1.0000 -3.0000 -11.0000
v  -1.0000 -3.0000 -12.0000
v  -3.0000 -3.0000 -12.0000
v  -3.0000 -3.0000 -11.0000
v  -5.0000 -3.0000 -12.0000
v  -5.0000 -3.0000 -11.0000
v  -7.0000 -3.0000 -12.0000
v  -7.0000 -3.0000 -11.0000
# 48 vertices

vn -0.0000 -1.0000 -0.0000
vn 0.0000 -1.0000 -0.0000
vn -0.0000 -1.0000 0.0000
vn 0.0000 1.0000 0.0000
vn -0.0000 1.0000 0.0000
vn -0.0000 1.0000 -0.0000
vn 0.0000 1.0000 -0.0000
vn 0.0000 -1.0000 0.0000
# 8 vertex normals

vt 1.9995 -0.9993 0.0000
vt 1.9995 -0.8314 0.0000
vt 1.6681 -0.8314 0.0000
vt 1.6681 -0.9993 0.0000
vt 1.3335 -0.8314 0.0000
vt 1.3335 -0.9993 0.0000
vt 1.0007 -0.8314 0.0000
vt 1.0007 -0.9993 0.0000
vt 2.9998 0.0010 0.0000
vt 2.9998 0.1662 0.0000
vt 2.6677 0.1662 0.0000
vt 2.6677 0.0010 0.0000
vt 2.3351 0.1662 0.0000
vt 2.3351 0.0010 0.0000
vt 2.0011 0.1662 0.0000
vt 2.0011 0.0010 0.0000
# 16 texture coords

o Object57123967
g Object57123967
f 333/185/257 334/186/257 335/187/257 336/188/258 
f 336/188/258 335/187/257 337/189/259 338/190/259 
f 338/190/259 337/189/259 339/191/257 340/192/257 
f 341/193/260 342/194/260 343/195/260 344/196/260 
f 344/196/260 343/195/260 345/197/261 346/198/260 
f 346/198/260 345/197/261 347/199/262 348/200/263 
f 349/185/259 350/186/259 351/187/259 352/188/259 
f 352/188/259 351/187/259 353/189/259 354/190/257 
f 354/190/257 353/189/259 355/191/259 356/192/257 
f 357/193/263 358/194/263 359/195/263 360/196/263 
f 360/196/263 359/195/263 361/197/260 362/198/260 
f 362/198/260 361/197/260 363/199/260 364/200/263 
f 365/185/264 366/186/264 367/187/264 368/188/264 
f 368/188/264 367/187/264 369/189/264 370/190/259 
f 370/190/259 369/189/264 371/191/264 372/192/259 
f 373/193/262 374/194/262 375/195/262 376/196/262 
f 376/196/262 375/195/262 377/197/263 378/198/263 
f 378/198/263 377/197/263 379/199/263 380/200/262 
# 18 polygons

#
# object Object57123968
#

v  -7.0000 -3.0000 12.0000
v  -7.0000 -3.0000 11.0000
v  -7.0000 -1.0000 11.0000
v  -7.0000 -1.0000 12.0000
v  -7.0000 1.0000 11.0000
v  -7.0000 1.0000 12.0000
v  -7.0000 3.0000 11.0000
v  -7.0000 3.0000 12.0000
v  -1.0000 -3.0000 11.0000
v  -1.0000 -3.0000 12.0000
v  -1.0000 -1.0000 12.0000
v  -1.0000 -1.0000 11.0000
v  -1.0000 1.0000 12.0000
v  -1.0000 1.0000 11.0000
v  -1.0000 3.0000 12.0000
v  -1.0000 3.0000 11.0000
v  8.0000 -3.0000 3.0000
v  7.0000 -3.0000 3.0000
v  7.0000 -1.0000 3.0000
v  8.0000 -1.0000 3.0000
v  7.0000 1.0000 3.0000
v  8.0000 1.0000 3.0000
v  7.0000 3.0000 3.0000
v  8.0000 3.0000 3.0000
v  7.0000 -3.0000 -3.0000
v  8.0000 -3.0000 -3.0000
v  8.0000 -1.0000 -3.0000
v  7.0000 -1.0000 -3.0000
v  8.0000 1.0000 -3.0000
v  7.0000 1.0000 -3.0000
v  8.0000 3.0000 -3.0000
v  7.0000 3.0000 -3.0000
v  -1.0000 -3.0000 -12.0000
v  -1.0000 -3.0000 -11.0000
v  -1.0000 -1.0000 -11.0000
v  -1.0000 -1.0000 -12.0000
v  -1.0000 1.0000 -11.0000
v  -1.0000 1.0000 -12.0000
v  -1.0000 3.0000 -11.0000
v  -1.0000 3.0000 -12.0000
v  -7.0000 -3.0000 -11.0000
v  -7.0000 -3.0000 -12.0000
v  -7.0000 -1.0000 -12.0000
v  -7.0000 -1.0000 -11.0000
v  -7.0000 1.0000 -12.0000
v  -7.0000 1.0000 -11.0000
v  -7.0000 3.0000 -12.0000
v  -7.0000 3.0000 -11.0000
# 48 vertices

vn 1.0000 -0.0000 0.0000
vn 1.0000 0.0000 0.0000
vn 1.0000 0.0000 -0.0000
vn 1.0000 -0.0000 -0.0000
vn -1.0000 -0.0000 -0.0000
vn -1.0000 0.0000 -0.0000
vn -1.0000 0.0000 0.0000
vn -1.0000 -0.0000 0.0000
vn -0.0000 0.0000 -1.0000
vn -0.0000 -0.0000 -1.0000
vn 0.0000 0.0000 1.0000
vn 0.0000 -0.0000 1.0000
# 12 vertex normals

vt 0.1673 -0.9986 0.0000
vt 0.3339 -0.9986 0.0000
vt 0.3339 -0.6661 0.0000
vt 0.1673 -0.6661 0.0000
vt 0.3339 -0.3339 0.0000
vt 0.1673 -0.3339 0.0000
vt 0.3339 -0.0013 0.0000
vt 0.1673 -0.0013 0.0000
vt 0.0001 -0.9986 1.0000
vt 0.1673 -0.9986 1.0000
vt 0.1673 -0.6661 1.0000
vt 0.0001 -0.6661 1.0000
vt 0.1673 -0.3339 1.0000
vt 0.0001 -0.3339 1.0000
vt 0.1673 -0.0013 1.0000
vt 0.0001 -0.0013 1.0000
# 16 texture coords

o Object57123968
g Object57123968
f 381/201/265 382/202/266 383/203/267 384/204/268 
f 384/204/268 383/203/267 385/205/267 386/206/267 
f 386/206/267 385/205/267 387/207/267 388/208/267 
f 389/209/269 390/210/270 391/211/271 392/212/271 
f 392/212/271 391/211/271 393/213/272 394/214/271 
f 394/214/271 393/213/272 395/215/269 396/216/270 
f 397/201/273 398/202/274 399/203/274 400/204/273 
f 400/204/273 399/203/274 401/205/273 402/206/273 
f 402/206/273 401/205/273 403/207/273 404/208/273 
f 405/209/275 406/210/276 407/211/276 408/212/275 
f 408/212/275 407/211/276 409/213/276 410/214/276 
f 410/214/276 409/213/276 411/215/276 412/216/276 
f 413/201/271 414/202/272 415/203/272 416/204/271 
f 416/204/271 415/203/272 417/205/271 418/206/271 
f 418/206/271 417/205/271 419/207/271 420/208/271 
f 421/209/267 422/210/268 423/211/268 424/212/267 
f 424/212/267 423/211/268 425/213/268 426/214/268 
f 426/214/268 425/213/268 427/215/268 428/216/268 
# 18 polygons

