# 3ds Max Wavefront OBJ Exporter v0.97b - (c)2007 guruware
# File Created: 14.10.2020 19:31:58

#
# object ceiling001
#

v  0.5000 3.5000 3.0000
v  0.5000 3.5000 1.0000
v  2.5000 3.5000 1.0000
v  2.5000 3.5000 3.0000
v  -1.5000 3.5000 3.0000
v  -1.5000 3.5000 1.0000
v  -3.5000 3.5000 3.0000
v  -3.5000 3.5000 1.0000
v  0.5000 3.5000 -1.0000
v  2.5000 3.5000 -1.0000
v  -1.5000 3.5000 -1.0000
v  -3.5000 3.5000 -1.0000
v  0.5000 3.5000 -3.0000
v  2.5000 3.5000 -3.0000
v  -1.5000 3.5000 -3.0000
v  -3.5000 3.5000 -3.0000
# 16 vertices

vn 0.0000 -1.0000 -0.0000
# 1 vertex normals

vt 1.3333 -0.9999 0.0000
vt 1.3333 -0.6666 0.0000
vt 1.0000 -0.6666 0.0000
vt 1.0000 -0.9999 0.0000
vt 1.6667 -0.9999 0.0000
vt 1.6666 -0.6666 0.0000
vt 2.0000 -0.9999 0.0000
vt 2.0000 -0.6666 0.0000
vt 1.3333 -0.3334 0.0000
vt 1.0000 -0.3334 0.0000
vt 1.6667 -0.3334 0.0000
vt 2.0000 -0.3334 0.0000
vt 1.3333 -0.0000 0.0000
vt 1.0000 -0.0000 0.0000
vt 1.6667 -0.0000 0.0000
vt 2.0000 -0.0000 0.0000
# 16 texture coords

o ceiling001
g ceiling001
f 1/1/1 2/2/1 3/3/1 4/4/1 
f 5/5/1 6/6/1 2/2/1 1/1/1 
f 7/7/1 8/8/1 6/6/1 5/5/1 
f 2/2/1 9/9/1 10/10/1 3/3/1 
f 6/6/1 11/11/1 9/9/1 2/2/1 
f 8/8/1 12/12/1 11/11/1 6/6/1 
f 9/9/1 13/13/1 14/14/1 10/10/1 
f 11/11/1 15/15/1 13/13/1 9/9/1 
f 12/12/1 16/16/1 15/15/1 11/11/1 
# 9 polygons

#
# object Object57dda1237
#

v  2.5000 3.5000 -3.0000
v  3.5000 3.5000 -3.0000
v  3.5000 3.5000 -1.0000
v  2.5000 3.5000 -1.0000
v  3.5000 3.5000 1.0000
v  2.5000 3.5000 1.0000
v  3.5000 3.5000 3.0000
v  2.5000 3.5000 3.0000
# 8 vertices

vn 0.0000 -1.0000 -0.0000
# 1 vertex normals

vt 1.9995 -0.9993 0.0000
vt 1.9995 -0.8314 0.0000
vt 1.6681 -0.8314 0.0000
vt 1.6681 -0.9993 0.0000
vt 1.3335 -0.8314 0.0000
vt 1.3335 -0.9993 0.0000
vt 1.0007 -0.8314 0.0000
vt 1.0007 -0.9993 0.0000
# 8 texture coords

o Object57dda1237
g Object57dda1237
f 17/17/2 18/18/2 19/19/2 20/20/2 
f 20/20/2 19/19/2 21/21/2 22/22/2 
f 22/22/2 21/21/2 23/23/2 24/24/2 
# 3 polygons

#
# object Object57vsad
#

v  3.5000 -2.5000 3.0000
v  2.5000 -2.5000 3.0000
v  2.5000 -0.5000 3.0000
v  3.5000 -0.5000 3.0000
v  2.5000 1.5000 3.0000
v  3.5000 1.5000 3.0000
v  2.5000 3.5000 3.0000
v  3.5000 3.5000 3.0000
v  2.5000 -2.5000 -3.0000
v  3.5000 -2.5000 -3.0000
v  3.5000 -0.5000 -3.0000
v  2.5000 -0.5000 -3.0000
v  3.5000 1.5000 -3.0000
v  2.5000 1.5000 -3.0000
v  3.5000 3.5000 -3.0000
v  2.5000 3.5000 -3.0000
# 16 vertices

vn -0.0000 0.0000 -1.0000
vn 0.0000 0.0000 1.0000
# 2 vertex normals

vt 0.1673 -0.9986 0.0000
vt 0.3339 -0.9986 0.0000
vt 0.3339 -0.6661 0.0000
vt 0.1673 -0.6661 0.0000
vt 0.3339 -0.3339 0.0000
vt 0.1673 -0.3339 0.0000
vt 0.3339 -0.0013 0.0000
vt 0.1673 -0.0013 0.0000
vt 0.0001 -0.9986 1.0000
vt 0.1673 -0.9986 1.0000
vt 0.1673 -0.6661 1.0000
vt 0.0001 -0.6661 1.0000
vt 0.1673 -0.3339 1.0000
vt 0.0001 -0.3339 1.0000
vt 0.1673 -0.0013 1.0000
vt 0.0001 -0.0013 1.0000
# 16 texture coords

o Object57vsad
g Object57vsad
f 25/25/3 26/26/3 27/27/3 28/28/3 
f 28/28/3 27/27/3 29/29/3 30/30/3 
f 30/30/3 29/29/3 31/31/3 32/32/3 
f 33/33/4 34/34/4 35/35/4 36/36/4 
f 36/36/4 35/35/4 37/37/4 38/38/4 
f 38/38/4 37/37/4 39/39/4 40/40/4 
# 6 polygons

#
# object Object57123fav7
#

v  2.5000 -3.5000 -3.0000
v  2.5000 -2.5000 -3.0000
v  0.5000 -2.5000 -3.0000
v  0.5000 -3.5000 -3.0000
v  -1.5000 -2.5000 -3.0000
v  -1.5000 -3.5000 -3.0000
v  -3.5000 -2.5000 -3.0000
v  -3.5000 -3.5000 -3.0000
v  -3.5000 -3.5000 3.0000
v  -3.5000 -2.5000 3.0000
v  -1.5000 -2.5000 3.0000
v  -1.5000 -3.5000 3.0000
v  0.5000 -2.5000 3.0000
v  0.5000 -3.5000 3.0000
v  2.5000 -2.5000 3.0000
v  2.5000 -3.5000 3.0000
v  -3.5000 -3.5000 1.0000
v  -3.5000 -2.5000 1.0000
v  -3.5000 -3.5000 -1.0000
v  -3.5000 -2.5000 -1.0000
v  2.5000 -2.5000 1.0000
v  2.5000 -3.5000 1.0000
v  2.5000 -2.5000 -1.0000
v  2.5000 -3.5000 -1.0000
# 24 vertices

vn -0.7071 0.0000 0.7071
vn 0.0000 0.0000 1.0000
vn -0.0000 0.0000 1.0000
vn 0.7071 0.0000 0.7071
vn 0.7071 -0.0000 -0.7071
vn 0.0000 0.0000 -1.0000
vn -0.0000 0.0000 -1.0000
vn -0.7071 0.0000 -0.7071
vn 1.0000 0.0000 -0.0000
vn -1.0000 0.0000 0.0000
vn -1.0000 0.0000 -0.0000
# 11 vertex normals

vt 0.9997 -0.8328 0.0000
vt 0.9997 -0.6684 0.0000
vt 0.6674 -0.6684 0.0000
vt 0.6674 -0.8328 0.0000
vt 0.3349 -0.6684 0.0000
vt 0.3349 -0.8328 0.0000
vt 0.0016 -0.6684 0.0000
vt 0.0016 -0.8328 0.0000
vt 0.9997 -0.8328 1.0000
vt 0.9997 -0.6684 1.0000
vt 0.6674 -0.6684 1.0000
vt 0.6674 -0.8328 1.0000
vt 0.3349 -0.6684 1.0000
vt 0.3349 -0.8328 1.0000
vt 0.0016 -0.6684 1.0000
vt 0.0016 -0.8328 1.0000
# 16 texture coords

o Object57123fav7
g Object57123fav7
f 41/41/5 42/42/5 43/43/6 44/44/6 
f 44/44/6 43/43/6 45/45/7 46/46/7 
f 46/46/7 45/45/7 47/47/8 48/48/8 
f 49/41/9 50/42/9 51/43/10 52/44/11 
f 52/44/11 51/43/10 53/45/11 54/46/11 
f 54/46/11 53/45/11 55/47/12 56/48/12 
f 50/47/9 49/48/9 57/46/13 58/45/13 
f 58/45/13 57/46/13 59/44/13 60/43/13 
f 60/43/13 59/44/13 48/41/8 47/42/8 
f 56/49/12 55/50/12 61/51/14 62/52/14 
f 62/52/14 61/51/14 63/53/15 64/54/15 
f 64/54/15 63/53/15 42/55/5 41/56/5 
# 12 polygons

#
# object wall006
#

v  0.5000 -2.5000 3.0000
v  0.5000 -0.5000 3.0000
v  2.5000 -0.5000 3.0000
v  2.5000 -2.5000 3.0000
v  -1.5000 -2.5000 3.0000
v  -1.5000 -0.5000 3.0000
v  -3.5000 -2.5000 3.0000
v  -3.5000 -0.5000 3.0000
v  0.5000 1.5000 3.0000
v  2.5000 1.5000 3.0000
v  -1.5000 1.5000 3.0000
v  -3.5000 1.5000 3.0000
v  0.5000 3.5000 3.0000
v  2.5000 3.5000 3.0000
v  -1.5000 3.5000 3.0000
v  -3.5000 3.5000 3.0000
v  -3.5000 -2.5000 1.0000
v  -3.5000 -0.5000 1.0000
v  -3.5000 -2.5000 -1.0000
v  -3.5000 -0.5000 -1.0000
v  -3.5000 -2.5000 -3.0000
v  -3.5000 -0.5000 -3.0000
v  -3.5000 1.5000 1.0000
v  -3.5000 1.5000 -1.0000
v  -3.5000 1.5000 -3.0000
v  -3.5000 3.5000 1.0000
v  -3.5000 3.5000 -1.0000
v  -3.5000 3.5000 -3.0000
v  -1.5000 -2.5000 -3.0000
v  -1.5000 -0.5000 -3.0000
v  0.5000 -2.5000 -3.0000
v  0.5000 -0.5000 -3.0000
v  2.5000 -2.5000 -3.0000
v  2.5000 -0.5000 -3.0000
v  -1.5000 1.5000 -3.0000
v  0.5000 1.5000 -3.0000
v  2.5000 1.5000 -3.0000
v  -1.5000 3.5000 -3.0000
v  0.5000 3.5000 -3.0000
v  2.5000 3.5000 -3.0000
# 40 vertices

vn -0.0000 0.0000 -1.0000
vn 0.0000 0.0000 -1.0000
vn 0.7071 0.0000 -0.7071
vn 1.0000 0.0000 -0.0000
vn 0.7071 0.0000 0.7071
vn 0.0000 0.0000 1.0000
# 6 vertex normals

vt 0.3333 -0.9999 0.0000
vt 0.3333 -0.6666 0.0000
vt 0.0000 -0.6666 0.0000
vt 0.0000 -0.9999 0.0000
vt 0.6666 -0.9999 0.0000
vt 0.6666 -0.6666 0.0000
vt 0.9999 -0.9999 0.0000
vt 0.9999 -0.6667 0.0000
vt 0.3334 -0.3334 0.0000
vt 0.0001 -0.3334 0.0000
vt 0.6666 -0.3334 0.0000
vt 0.9999 -0.3333 0.0000
vt 0.3334 -0.0001 0.0000
vt 0.0001 -0.0001 0.0000
vt 0.6666 -0.0001 0.0000
vt 0.9999 -0.0001 0.0000
# 16 texture coords

o wall006
g wall006
f 65/57/16 66/58/16 67/59/16 68/60/16 
f 69/61/17 70/62/17 66/58/16 65/57/16 
f 71/63/18 72/64/18 70/62/17 69/61/17 
f 66/58/16 73/65/16 74/66/16 67/59/16 
f 70/62/17 75/67/17 73/65/16 66/58/16 
f 72/64/18 76/68/18 75/67/17 70/62/17 
f 73/65/16 77/69/16 78/70/16 74/66/16 
f 75/67/17 79/71/17 77/69/16 73/65/16 
f 76/68/18 80/72/18 79/71/17 75/67/17 
f 81/57/19 82/58/19 72/59/18 71/60/18 
f 83/61/19 84/62/19 82/58/19 81/57/19 
f 85/63/20 86/64/20 84/62/19 83/61/19 
f 82/58/19 87/65/19 76/66/18 72/59/18 
f 84/62/19 88/67/19 87/65/19 82/58/19 
f 86/64/20 89/68/20 88/67/19 84/62/19 
f 87/65/19 90/69/19 80/70/18 76/66/18 
f 88/67/19 91/71/19 90/69/19 87/65/19 
f 89/68/20 92/72/20 91/71/19 88/67/19 
f 93/57/21 94/58/21 86/59/20 85/60/20 
f 95/61/21 96/62/21 94/58/21 93/57/21 
f 97/63/21 98/64/21 96/62/21 95/61/21 
f 94/58/21 99/65/21 89/66/20 86/59/20 
f 96/62/21 100/67/21 99/65/21 94/58/21 
f 98/64/21 101/68/21 100/67/21 96/62/21 
f 99/65/21 102/69/21 92/70/20 89/66/20 
f 100/67/21 103/71/21 102/69/21 99/65/21 
f 101/68/21 104/72/21 103/71/21 100/67/21 
# 27 polygons

#
# object transition_floor020
#

v  2.5000 -2.5000 3.0000
v  3.5000 -2.5000 3.0000
v  3.5000 -2.5000 1.0000
v  2.5000 -2.5000 1.0000
v  3.5000 -2.5000 -1.0000
v  2.5000 -2.5000 -1.0000
v  3.5000 -2.5000 -3.0000
v  2.5000 -2.5000 -3.0000
# 8 vertices

vn 0.0000 1.0000 -0.0000
# 1 vertex normals

vt 2.9998 0.0010 0.0000
vt 2.9998 0.1662 0.0000
vt 2.6677 0.1662 0.0000
vt 2.6677 0.0010 0.0000
vt 2.3351 0.1662 0.0000
vt 2.3351 0.0010 0.0000
vt 2.0011 0.1662 0.0000
vt 2.0011 0.0010 0.0000
# 8 texture coords

o transition_floor020
g transition_floor020
f 105/73/22 106/74/22 107/75/22 108/76/22 
f 108/76/22 107/75/22 109/77/22 110/78/22 
f 110/78/22 109/77/22 111/79/22 112/80/22 
# 3 polygons

