# 3ds Max Wavefront OBJ Exporter v0.97b - (c)2007 guruware
# File Created: 20.10.2020 16:56:25

#
# object crate_small
#

v  -0.4764 -0.0000 -0.5000
v  0.4764 -0.0000 -0.5000
v  0.4764 -0.0000 0.5000
v  -0.4764 -0.0000 0.5000
v  0.4764 1.0000 0.5000
v  0.4764 1.0000 -0.5000
v  -0.4764 1.0000 -0.5000
v  -0.4764 1.0000 0.5000
# 8 vertices

vn -0.5774 -0.5774 -0.5774
vn 0.5774 -0.5774 -0.5774
vn 0.5774 -0.5774 0.5774
vn -0.5774 -0.5774 0.5774
vn 0.5774 0.5774 0.5774
vn 0.5774 0.5774 -0.5774
vn -0.5774 0.5774 -0.5774
vn -0.5774 0.5774 0.5774
# 8 vertex normals

vt 1.0094 0.2283 0.0000
vt 1.0708 0.2283 0.0000
vt 1.0708 0.2927 0.0000
vt 1.0094 0.2927 0.0000
vt 1.1966 0.1025 0.0000
vt 1.1966 0.1669 0.0000
vt 1.1352 0.1669 0.0000
vt 1.1352 0.1025 0.0000
vt 1.1352 0.2927 0.0000
vt 1.1352 0.3541 0.0000
vt 1.0708 0.3541 0.0000
vt 1.1352 0.2283 0.0000
vt 1.0708 0.1669 0.0000
vt 1.0708 0.1025 0.0000
# 14 texture coords

o crate_small
g crate_small
f 1/1/1 2/2/2 3/3/3 4/4/4 
f 5/5/5 6/6/6 7/7/7 8/8/8 
f 3/3/3 5/9/5 8/10/8 4/11/4 
f 2/2/2 6/12/6 5/9/5 3/3/3 
f 1/13/1 7/7/7 6/12/6 2/2/2 
f 4/14/4 8/8/8 7/7/7 1/13/1 
# 6 polygons

