# 3ds Max Wavefront OBJ Exporter v0.97b - (c)2007 guruware
# File Created: 20.10.2020 16:56:29

#
# object pipe_connector_L
#

v  -0.2828 -0.2828 0.7172
v  -0.2828 -1.0000 0.7172
v  -0.4000 -1.0000 1.0000
v  -0.4000 -0.0000 1.0000
v  -0.0000 -0.4000 0.6000
v  0.0000 -1.0000 0.6000
v  0.2828 -1.0000 1.2828
v  0.4000 -1.0000 1.0000
v  0.4000 -0.0000 1.0000
v  0.2828 0.2828 1.2828
v  0.0000 -1.0000 1.4000
v  0.0000 0.4000 1.4000
v  -0.2828 0.2828 1.2828
v  -0.2828 -1.0000 1.2828
v  0.2828 -1.0000 0.7172
v  0.2828 -0.2828 0.7172
v  0.0000 -1.0000 1.0000
v  0.2828 -0.2828 -0.0000
v  0.4000 0.0000 -0.0000
v  -0.0000 -0.4000 -0.0000
v  -0.2828 0.2828 -0.0000
v  -0.4000 0.0000 -0.0000
v  -0.0000 0.4000 -0.0000
v  0.2828 0.2828 -0.0000
v  -0.2828 -0.2828 -0.0000
v  -0.0000 0.0000 -0.0000
# 26 vertices

vn -0.8785 -0.3378 -0.3378
vn -0.5490 -0.6303 -0.5490
vn -0.7764 -0.6303 0.0000
vn -0.9905 0.0974 0.0974
vn -0.0000 -0.7071 -0.7071
vn 0.0000 -0.6302 -0.7764
vn 0.5490 -0.6303 0.5490
vn 0.7764 -0.6303 0.0000
vn 0.9905 0.0974 0.0974
vn 0.7107 0.4975 0.4975
vn 0.0000 -0.6302 0.7764
vn 0.0000 0.7071 0.7071
vn -0.7107 0.4975 0.4975
vn -0.5490 -0.6303 0.5490
vn 0.5490 -0.6303 -0.5490
vn 0.8785 -0.3378 -0.3378
vn 0.0000 -1.0000 -0.0000
vn 0.5490 -0.5490 -0.6303
vn 0.7764 0.0000 -0.6302
vn -0.0000 -0.7764 -0.6302
vn -0.5489 0.5490 -0.6303
vn -0.7764 0.0001 -0.6302
vn -0.0000 0.7764 -0.6302
vn 0.5490 0.5490 -0.6303
vn -0.5490 -0.5490 -0.6303
vn 0.0000 0.0000 -1.0000
# 26 vertex normals

vt 0.1575 0.1718 0.0000
vt 0.2037 0.1718 0.0000
vt 0.2037 0.1915 0.0000
vt 0.1392 0.1915 0.0000
vt 0.1650 0.1521 0.0000
vt 0.2037 0.1521 0.0000
vt 0.2037 0.0929 0.0000
vt 0.2037 0.1126 0.0000
vt 0.1392 0.1126 0.0000
vt 0.1210 0.0929 0.0000
vt 0.2037 0.0732 0.0000
vt 0.1135 0.0732 0.0000
vt 0.1210 0.2112 0.0000
vt 0.2037 0.2112 0.0000
vt 0.2037 0.2309 0.0000
vt 0.1135 0.2309 0.0000
vt 0.2037 0.1323 0.0000
vt 0.1575 0.1323 0.0000
vt 0.2176 0.1973 0.0000
vt 0.2275 0.2211 0.0000
vt 0.2373 0.1973 0.0000
vt 0.2513 0.2112 0.0000
vt 0.2513 0.2309 0.0000
vt 0.2373 0.2449 0.0000
vt 0.2176 0.2449 0.0000
# 25 texture coords

o pipe_connector_L
g pipe_connector_L
f 1/1/1 2/2/2 3/3/3 4/4/4 
f 5/5/5 6/6/6 2/2/2 1/1/1 
f 7/7/7 8/8/8 9/9/9 10/10/10 
f 11/11/11 7/7/7 10/10/10 12/12/12 
f 13/13/13 14/14/14 11/15/11 12/16/12 
f 4/4/4 3/3/3 14/14/14 13/13/13 
f 8/8/8 15/17/15 16/18/16 9/9/9 
f 15/17/15 6/6/6 5/5/5 16/18/16 
f 14/14/14 3/19/3 17/20/17 
f 3/19/3 2/21/2 17/20/17 
f 2/21/2 6/22/6 17/20/17 
f 6/22/6 15/23/15 17/20/17 
f 15/23/15 8/24/8 17/20/17 
f 8/24/8 7/25/7 17/20/17 
f 7/25/7 11/15/11 17/20/17 
f 11/15/11 14/14/14 17/20/17 
f 16/1/16 18/2/18 19/3/19 9/4/9 
f 5/5/5 20/6/20 18/2/18 16/1/16 
f 21/7/21 22/8/22 4/9/4 13/10/13 
f 23/11/23 21/7/21 13/10/13 12/12/12 
f 10/13/10 24/14/24 23/15/23 12/16/12 
f 9/4/9 19/3/19 24/14/24 10/13/10 
f 22/8/22 25/17/25 1/18/1 4/9/4 
f 25/17/25 20/6/20 5/5/5 1/18/1 
f 24/14/24 19/19/19 26/20/26 
f 19/19/19 18/21/18 26/20/26 
f 18/21/18 20/22/20 26/20/26 
f 20/22/20 25/23/25 26/20/26 
f 25/23/25 22/24/22 26/20/26 
f 22/24/22 21/25/21 26/20/26 
f 21/25/21 23/15/23 26/20/26 
f 23/15/23 24/14/24 26/20/26 
# 16 polygons - 16 triangles

