# 3ds Max Wavefront OBJ Exporter v0.97b - (c)2007 guruware
# File Created: 24.10.2020 13:53:19

#
# object Object035
#

v  -0.2828 -0.2828 -0.0000
v  -0.2828 -0.2828 0.1714
v  -0.4000 0.0000 0.1714
v  -0.4000 0.0000 -0.0000
v  0.0000 -0.4000 -0.0000
v  0.0000 -0.4000 0.1714
v  0.2828 -0.2828 -0.0000
v  0.2828 -0.2828 0.1714
v  0.4000 0.0000 -0.0000
v  0.4000 0.0000 0.1714
v  0.2828 0.2828 -0.0000
v  0.2828 0.2828 0.1714
v  0.0000 0.4000 -0.0000
v  0.0000 0.4000 0.1714
v  -0.2828 0.2828 -0.0000
v  -0.2828 0.2828 0.1714
v  0.0000 0.0000 -0.0000
v  -0.1766 -0.1766 0.1714
v  -0.2498 0.0000 0.1714
v  0.0000 -0.2498 0.1714
v  0.1766 -0.1766 0.1714
v  0.2498 0.0000 0.1714
v  0.1766 0.1766 0.1714
v  0.0000 0.2498 0.1714
v  -0.1766 0.1766 0.1714
v  0.2828 -0.2828 3.0000
v  0.2828 -0.2828 2.8274
v  0.4000 0.0000 2.8274
v  0.4000 0.0000 3.0000
v  -0.0000 -0.4000 3.0000
v  -0.0000 -0.4000 2.8274
v  -0.2828 -0.2828 3.0000
v  -0.2828 -0.2828 2.8274
v  -0.4000 0.0000 3.0000
v  -0.4000 0.0000 2.8274
v  -0.2828 0.2828 3.0000
v  -0.2828 0.2828 2.8274
v  -0.0000 0.4000 3.0000
v  -0.0000 0.4000 2.8274
v  0.2828 0.2828 3.0000
v  0.2828 0.2828 2.8274
v  -0.0000 0.0000 3.0000
v  0.1766 -0.1766 2.8274
v  0.2498 0.0000 2.8274
v  -0.0000 -0.2498 2.8274
v  -0.1766 -0.1766 2.8274
v  -0.2498 0.0000 2.8274
v  -0.1766 0.1766 2.8274
v  -0.0000 0.2498 2.8274
v  0.1766 0.1766 2.8274
# 50 vertices

vn -0.5490 -0.5489 -0.6303
vn -0.5490 -0.5489 0.6303
vn -0.7764 0.0000 0.6302
vn -0.7764 0.0000 -0.6302
vn 0.0000 -0.7764 -0.6303
vn 0.0000 -0.7764 0.6303
vn 0.5490 -0.5490 -0.6303
vn 0.5490 -0.5490 0.6303
vn 0.7764 0.0000 -0.6302
vn 0.7764 0.0000 0.6302
vn 0.5490 0.5490 -0.6303
vn 0.5490 0.5490 0.6303
vn 0.0000 0.7764 -0.6303
vn 0.0000 0.7764 0.6303
vn -0.5490 0.5489 -0.6303
vn -0.5490 0.5489 0.6303
vn 0.0000 0.0000 -1.0000
vn 0.0000 0.0000 1.0000
vn 0.5490 -0.5489 0.6303
vn 0.5490 -0.5489 -0.6303
vn -0.0000 -0.7764 0.6303
vn -0.0000 -0.7764 -0.6303
vn -0.5490 -0.5490 0.6303
vn -0.5490 -0.5490 -0.6303
vn -0.5490 0.5490 0.6303
vn -0.5490 0.5490 -0.6303
vn -0.0000 0.7764 0.6303
vn -0.0000 0.7764 -0.6303
vn 0.5490 0.5489 0.6303
vn 0.5490 0.5489 -0.6303
vn 0.4203 -0.4203 -0.8041
vn 0.5943 0.0000 -0.8042
vn -0.0000 -0.5943 -0.8042
vn -0.4203 -0.4203 -0.8041
vn -0.5943 0.0000 -0.8042
vn -0.4203 0.4203 -0.8041
vn -0.0000 0.5943 -0.8042
vn 0.4203 0.4203 -0.8041
vn 0.7071 -0.7071 -0.0000
vn 1.0000 0.0000 -0.0000
vn 0.0000 -1.0000 -0.0000
vn -0.7071 -0.7071 -0.0000
vn -1.0000 0.0000 -0.0000
vn -0.7071 0.7071 -0.0000
vn 0.0000 1.0000 -0.0000
vn 0.7071 0.7071 -0.0000
# 46 vertex normals

vt 1.5050 0.2467 0.0000
vt 1.5050 0.2576 0.0000
vt 1.4897 0.2576 0.0000
vt 1.4897 0.2467 0.0000
vt 1.5208 0.2467 0.0000
vt 1.5208 0.2576 0.0000
vt 1.4163 0.2467 0.0000
vt 1.4163 0.2576 0.0000
vt 1.4007 0.2576 0.0000
vt 1.4007 0.2467 0.0000
vt 1.4309 0.2467 0.0000
vt 1.4309 0.2576 0.0000
vt 1.4454 0.2467 0.0000
vt 1.4454 0.2576 0.0000
vt 1.4600 0.2467 0.0000
vt 1.4600 0.2576 0.0000
vt 1.4747 0.2467 0.0000
vt 1.4747 0.2576 0.0000
vt 1.4008 0.1999 0.0000
vt 1.4207 0.1999 0.0000
vt 1.4101 0.2234 0.0000
vt 1.4335 0.2149 0.0000
vt 1.4335 0.2350 0.0000
vt 1.3865 0.2331 0.0000
vt 1.3865 0.2135 0.0000
vt 1.5050 0.2666 0.0000
vt 1.4897 0.2666 0.0000
vt 1.5208 0.2666 0.0000
vt 1.4163 0.2666 0.0000
vt 1.4007 0.2666 0.0000
vt 1.4309 0.2666 0.0000
vt 1.4454 0.2666 0.0000
vt 1.4600 0.2666 0.0000
vt 1.4747 0.2666 0.0000
vt 1.5050 0.4484 0.0000
vt 1.4897 0.4484 0.0000
vt 1.5208 0.4484 0.0000
vt 1.4163 0.4484 0.0000
vt 1.4007 0.4484 0.0000
vt 1.4309 0.4484 0.0000
vt 1.4454 0.4484 0.0000
vt 1.4600 0.4484 0.0000
vt 1.4747 0.4484 0.0000
# 43 texture coords

o Object035
g Object035
f 1/1/1 2/2/2 3/3/3 4/4/4 
f 5/5/5 6/6/6 2/2/2 1/1/1 
f 7/7/7 8/8/8 6/9/6 5/10/5 
f 9/11/9 10/12/10 8/8/8 7/7/7 
f 11/13/11 12/14/12 10/12/10 9/11/9 
f 13/15/13 14/16/14 12/14/12 11/13/11 
f 15/17/15 16/18/16 14/16/14 13/15/13 
f 4/4/4 3/3/3 16/18/16 15/17/15 
f 15/19/15 13/20/13 17/21/17 
f 13/20/13 11/22/11 17/21/17 
f 11/22/11 9/23/9 17/21/17 
f 9/23/9 7/7/7 17/21/17 
f 7/7/7 5/10/5 17/21/17 
f 5/10/5 1/24/1 17/21/17 
f 1/24/1 4/25/4 17/21/17 
f 4/25/4 15/19/15 17/21/17 
f 2/2/2 18/26/18 19/27/18 3/3/3 
f 6/6/6 20/28/18 18/26/18 2/2/2 
f 8/8/8 21/29/18 20/30/18 6/9/6 
f 10/12/10 22/31/18 21/29/18 8/8/8 
f 12/14/12 23/32/18 22/31/18 10/12/10 
f 14/16/14 24/33/18 23/32/18 12/14/12 
f 16/18/16 25/34/18 24/33/18 14/16/14 
f 3/3/3 19/27/18 25/34/18 16/18/16 
f 26/1/19 27/2/20 28/3/9 29/4/10 
f 30/5/21 31/6/22 27/2/20 26/1/19 
f 32/7/23 33/8/24 31/9/22 30/10/21 
f 34/11/3 35/12/4 33/8/24 32/7/23 
f 36/13/25 37/14/26 35/12/4 34/11/3 
f 38/15/27 39/16/28 37/14/26 36/13/25 
f 40/17/29 41/18/30 39/16/28 38/15/27 
f 29/4/10 28/3/9 41/18/30 40/17/29 
f 40/19/29 38/20/27 42/21/18 
f 38/20/27 36/22/25 42/21/18 
f 36/22/25 34/23/3 42/21/18 
f 34/23/3 32/7/23 42/21/18 
f 32/7/23 30/10/21 42/21/18 
f 30/10/21 26/24/19 42/21/18 
f 26/24/19 29/25/10 42/21/18 
f 29/25/10 40/19/29 42/21/18 
f 27/2/20 43/26/31 44/27/32 28/3/9 
f 31/6/22 45/28/33 43/26/31 27/2/20 
f 33/8/24 46/29/34 45/30/33 31/9/22 
f 35/12/4 47/31/35 46/29/34 33/8/24 
f 37/14/26 48/32/36 47/31/35 35/12/4 
f 39/16/28 49/33/37 48/32/36 37/14/26 
f 41/18/30 50/34/38 49/33/37 39/16/28 
f 28/3/9 44/27/32 50/34/38 41/18/30 
f 43/26/31 21/35/39 22/36/40 44/27/32 
f 45/28/33 20/37/41 21/35/39 43/26/31 
f 46/29/34 18/38/42 20/39/41 45/30/33 
f 47/31/35 19/40/43 18/38/42 46/29/34 
f 48/32/36 25/41/44 19/40/43 47/31/35 
f 49/33/37 24/42/45 25/41/44 48/32/36 
f 50/34/38 23/43/46 24/42/45 49/33/37 
f 44/27/32 22/36/40 23/43/46 50/34/38 
# 40 polygons - 16 triangles

