%YAML 1.1
%TAG !u! tag:unity3d.com,2011:
--- !u!1 &6775670721419481411
GameObject:
  m_ObjectHideFlags: 0
  m_CorrespondingSourceObject: {fileID: 0}
  m_PrefabInstance: {fileID: 0}
  m_PrefabAsset: {fileID: 0}
  serializedVersion: 6
  m_Component:
  - component: {fileID: 3847192732427068579}
  - component: {fileID: 4104309886782786892}
  - component: {fileID: 1967451420113536978}
  m_Layer: 0
  m_Name: Point Light
  m_TagString: Untagged
  m_Icon: {fileID: 0}
  m_NavMeshLayer: 0
  m_StaticEditorFlags: 0
  m_IsActive: 1
--- !u!4 &3847192732427068579
Transform:
  m_ObjectHideFlags: 0
  m_CorrespondingSourceObject: {fileID: 0}
  m_PrefabInstance: {fileID: 0}
  m_PrefabAsset: {fileID: 0}
  m_GameObject: {fileID: 6775670721419481411}
  m_LocalRotation: {x: -0, y: -0, z: -0, w: 1}
  m_LocalPosition: {x: 0, y: 1, z: 1}
  m_LocalScale: {x: 1, y: 1, z: 1}
  m_Children: []
  m_Father: {fileID: 3751680371362775651}
  m_RootOrder: 2
  m_LocalEulerAnglesHint: {x: 0, y: 0, z: 0}
--- !u!108 &4104309886782786892
Light:
  m_ObjectHideFlags: 0
  m_CorrespondingSourceObject: {fileID: 0}
  m_PrefabInstance: {fileID: 0}
  m_PrefabAsset: {fileID: 0}
  m_GameObject: {fileID: 6775670721419481411}
  m_Enabled: 1
  serializedVersion: 10
  m_Type: 2
  m_Shape: 0
  m_Color: {r: 1, g: 0.453361, b: 0, a: 1}
  m_Intensity: 1
  m_Range: 7
  m_SpotAngle: 30
  m_InnerSpotAngle: 21.80208
  m_CookieSize: 10
  m_Shadows:
    m_Type: 1
    m_Resolution: -1
    m_CustomResolution: -1
    m_Strength: 1
    m_Bias: 0.05
    m_NormalBias: 0.4
    m_NearPlane: 0.2
    m_CullingMatrixOverride:
      e00: 1
      e01: 0
      e02: 0
      e03: 0
      e10: 0
      e11: 1
      e12: 0
      e13: 0
      e20: 0
      e21: 0
      e22: 1
      e23: 0
      e30: 0
      e31: 0
      e32: 0
      e33: 1
    m_UseCullingMatrixOverride: 0
  m_Cookie: {fileID: 0}
  m_DrawHalo: 0
  m_Flare: {fileID: 0}
  m_RenderMode: 0
  m_CullingMask:
    serializedVersion: 2
    m_Bits: 4294967295
  m_RenderingLayerMask: 1
  m_Lightmapping: 4
  m_LightShadowCasterMode: 0
  m_AreaSize: {x: 1, y: 1}
  m_BounceIntensity: 0
  m_ColorTemperature: 6570
  m_UseColorTemperature: 0
  m_BoundingSphereOverride: {x: 0, y: 0, z: 0, w: 0}
  m_UseBoundingSphereOverride: 0
  m_ShadowRadius: 0
  m_ShadowAngle: 0
--- !u!114 &1967451420113536978
MonoBehaviour:
  m_ObjectHideFlags: 0
  m_CorrespondingSourceObject: {fileID: 0}
  m_PrefabInstance: {fileID: 0}
  m_PrefabAsset: {fileID: 0}
  m_GameObject: {fileID: 6775670721419481411}
  m_Enabled: 1
  m_EditorHideFlags: 0
  m_Script: {fileID: 11500000, guid: 22bed0b011e73bb4b9a3f2b57a350802, type: 3}
  m_Name: 
  m_EditorClassIdentifier: 
  light: {fileID: 4104309886782786892}
  minIntensity: 0
  maxIntensity: 2
  smoothing: 10
--- !u!1 &7540878468726180491
GameObject:
  m_ObjectHideFlags: 0
  m_CorrespondingSourceObject: {fileID: 0}
  m_PrefabInstance: {fileID: 0}
  m_PrefabAsset: {fileID: 0}
  serializedVersion: 6
  m_Component:
  - component: {fileID: 3751680371362775651}
  m_Layer: 0
  m_Name: deco_torch_small
  m_TagString: Untagged
  m_Icon: {fileID: 0}
  m_NavMeshLayer: 0
  m_StaticEditorFlags: 0
  m_IsActive: 1
--- !u!4 &3751680371362775651
Transform:
  m_ObjectHideFlags: 0
  m_CorrespondingSourceObject: {fileID: 0}
  m_PrefabInstance: {fileID: 0}
  m_PrefabAsset: {fileID: 0}
  m_GameObject: {fileID: 7540878468726180491}
  m_LocalRotation: {x: 0, y: 0, z: 0, w: 1}
  m_LocalPosition: {x: 0, y: 0, z: 0}
  m_LocalScale: {x: 1, y: 1, z: 1}
  m_Children:
  - {fileID: 6401038769772475763}
  - {fileID: 9203020515294350301}
  - {fileID: 3847192732427068579}
  m_Father: {fileID: 0}
  m_RootOrder: 0
  m_LocalEulerAnglesHint: {x: 0, y: 0, z: 0}
--- !u!1001 &6872413478632018584
PrefabInstance:
  m_ObjectHideFlags: 0
  serializedVersion: 2
  m_Modification:
    m_TransformParent: {fileID: 3751680371362775651}
    m_Modifications:
    - target: {fileID: -8679921383154817045, guid: 78f1c3aa6d9d48e468c1c37052acb3f9,
        type: 3}
      propertyPath: m_LocalPosition.x
      value: 0
      objectReference: {fileID: 0}
    - target: {fileID: -8679921383154817045, guid: 78f1c3aa6d9d48e468c1c37052acb3f9,
        type: 3}
      propertyPath: m_LocalPosition.y
      value: 0
      objectReference: {fileID: 0}
    - target: {fileID: -8679921383154817045, guid: 78f1c3aa6d9d48e468c1c37052acb3f9,
        type: 3}
      propertyPath: m_LocalPosition.z
      value: 0
      objectReference: {fileID: 0}
    - target: {fileID: -8679921383154817045, guid: 78f1c3aa6d9d48e468c1c37052acb3f9,
        type: 3}
      propertyPath: m_LocalRotation.x
      value: 0
      objectReference: {fileID: 0}
    - target: {fileID: -8679921383154817045, guid: 78f1c3aa6d9d48e468c1c37052acb3f9,
        type: 3}
      propertyPath: m_LocalRotation.y
      value: 0.7071068
      objectReference: {fileID: 0}
    - target: {fileID: -8679921383154817045, guid: 78f1c3aa6d9d48e468c1c37052acb3f9,
        type: 3}
      propertyPath: m_LocalRotation.z
      value: 0
      objectReference: {fileID: 0}
    - target: {fileID: -8679921383154817045, guid: 78f1c3aa6d9d48e468c1c37052acb3f9,
        type: 3}
      propertyPath: m_LocalRotation.w
      value: 0.7071068
      objectReference: {fileID: 0}
    - target: {fileID: -8679921383154817045, guid: 78f1c3aa6d9d48e468c1c37052acb3f9,
        type: 3}
      propertyPath: m_RootOrder
      value: 0
      objectReference: {fileID: 0}
    - target: {fileID: -8679921383154817045, guid: 78f1c3aa6d9d48e468c1c37052acb3f9,
        type: 3}
      propertyPath: m_LocalEulerAnglesHint.x
      value: 0
      objectReference: {fileID: 0}
    - target: {fileID: -8679921383154817045, guid: 78f1c3aa6d9d48e468c1c37052acb3f9,
        type: 3}
      propertyPath: m_LocalEulerAnglesHint.y
      value: 90
      objectReference: {fileID: 0}
    - target: {fileID: -8679921383154817045, guid: 78f1c3aa6d9d48e468c1c37052acb3f9,
        type: 3}
      propertyPath: m_LocalEulerAnglesHint.z
      value: 0
      objectReference: {fileID: 0}
    - target: {fileID: 919132149155446097, guid: 78f1c3aa6d9d48e468c1c37052acb3f9,
        type: 3}
      propertyPath: m_Name
      value: torch_small
      objectReference: {fileID: 0}
    - target: {fileID: 919132149155446097, guid: 78f1c3aa6d9d48e468c1c37052acb3f9,
        type: 3}
      propertyPath: m_StaticEditorFlags
      value: 4294967295
      objectReference: {fileID: 0}
    - target: {fileID: 1895688183459702064, guid: 78f1c3aa6d9d48e468c1c37052acb3f9,
        type: 3}
      propertyPath: m_Materials.Array.data[0]
      value: 
      objectReference: {fileID: 2100000, guid: 869ef10d1480c754491fb6b981320422, type: 2}
    - target: {fileID: 8086574818559392529, guid: 78f1c3aa6d9d48e468c1c37052acb3f9,
        type: 3}
      propertyPath: m_StaticEditorFlags
      value: 4294967295
      objectReference: {fileID: 0}
    m_RemovedComponents: []
  m_SourcePrefab: {fileID: 100100000, guid: 78f1c3aa6d9d48e468c1c37052acb3f9, type: 3}
--- !u!4 &6401038769772475763 stripped
Transform:
  m_CorrespondingSourceObject: {fileID: -8679921383154817045, guid: 78f1c3aa6d9d48e468c1c37052acb3f9,
    type: 3}
  m_PrefabInstance: {fileID: 6872413478632018584}
  m_PrefabAsset: {fileID: 0}
--- !u!1001 &9203020515294744925
PrefabInstance:
  m_ObjectHideFlags: 0
  serializedVersion: 2
  m_Modification:
    m_TransformParent: {fileID: 3751680371362775651}
    m_Modifications:
    - target: {fileID: 100000, guid: 2a45265874e5a8840a8f7d0560357270, type: 3}
      propertyPath: m_Name
      value: Fire_torch_w_smoke
      objectReference: {fileID: 0}
    - target: {fileID: 400000, guid: 2a45265874e5a8840a8f7d0560357270, type: 3}
      propertyPath: m_LocalPosition.x
      value: 0
      objectReference: {fileID: 0}
    - target: {fileID: 400000, guid: 2a45265874e5a8840a8f7d0560357270, type: 3}
      propertyPath: m_LocalPosition.y
      value: 0.387
      objectReference: {fileID: 0}
    - target: {fileID: 400000, guid: 2a45265874e5a8840a8f7d0560357270, type: 3}
      propertyPath: m_LocalPosition.z
      value: 0.934
      objectReference: {fileID: 0}
    - target: {fileID: 400000, guid: 2a45265874e5a8840a8f7d0560357270, type: 3}
      propertyPath: m_LocalRotation.x
      value: -0.7071068
      objectReference: {fileID: 0}
    - target: {fileID: 400000, guid: 2a45265874e5a8840a8f7d0560357270, type: 3}
      propertyPath: m_LocalRotation.y
      value: 0
      objectReference: {fileID: 0}
    - target: {fileID: 400000, guid: 2a45265874e5a8840a8f7d0560357270, type: 3}
      propertyPath: m_LocalRotation.z
      value: 0
      objectReference: {fileID: 0}
    - target: {fileID: 400000, guid: 2a45265874e5a8840a8f7d0560357270, type: 3}
      propertyPath: m_LocalRotation.w
      value: 0.7071068
      objectReference: {fileID: 0}
    - target: {fileID: 400000, guid: 2a45265874e5a8840a8f7d0560357270, type: 3}
      propertyPath: m_RootOrder
      value: 1
      objectReference: {fileID: 0}
    - target: {fileID: 400000, guid: 2a45265874e5a8840a8f7d0560357270, type: 3}
      propertyPath: m_LocalEulerAnglesHint.x
      value: 0
      objectReference: {fileID: 0}
    - target: {fileID: 400000, guid: 2a45265874e5a8840a8f7d0560357270, type: 3}
      propertyPath: m_LocalEulerAnglesHint.y
      value: 0
      objectReference: {fileID: 0}
    - target: {fileID: 400000, guid: 2a45265874e5a8840a8f7d0560357270, type: 3}
      propertyPath: m_LocalEulerAnglesHint.z
      value: 0
      objectReference: {fileID: 0}
    - target: {fileID: 19800000, guid: 2a45265874e5a8840a8f7d0560357270, type: 3}
      propertyPath: InitialModule.startSizeY.minMaxState
      value: 3
      objectReference: {fileID: 0}
    - target: {fileID: 19800000, guid: 2a45265874e5a8840a8f7d0560357270, type: 3}
      propertyPath: InitialModule.startSizeZ.minMaxState
      value: 3
      objectReference: {fileID: 0}
    - target: {fileID: 19800000, guid: 2a45265874e5a8840a8f7d0560357270, type: 3}
      propertyPath: InitialModule.startRotationX.minMaxState
      value: 3
      objectReference: {fileID: 0}
    - target: {fileID: 19800000, guid: 2a45265874e5a8840a8f7d0560357270, type: 3}
      propertyPath: InitialModule.startRotationY.minMaxState
      value: 3
      objectReference: {fileID: 0}
    - target: {fileID: 19900000, guid: 2a45265874e5a8840a8f7d0560357270, type: 3}
      propertyPath: m_Materials.Array.size
      value: 1
      objectReference: {fileID: 0}
    - target: {fileID: 19900002, guid: 2a45265874e5a8840a8f7d0560357270, type: 3}
      propertyPath: m_Materials.Array.size
      value: 1
      objectReference: {fileID: 0}
    m_RemovedComponents: []
  m_SourcePrefab: {fileID: 100100000, guid: 2a45265874e5a8840a8f7d0560357270, type: 3}
--- !u!4 &9203020515294350301 stripped
Transform:
  m_CorrespondingSourceObject: {fileID: 400000, guid: 2a45265874e5a8840a8f7d0560357270,
    type: 3}
  m_PrefabInstance: {fileID: 9203020515294744925}
  m_PrefabAsset: {fileID: 0}
