%YAML 1.1
%TAG !u! tag:unity3d.com,2011:
--- !u!114 &11400000
MonoBehaviour:
  m_ObjectHideFlags: 0
  m_CorrespondingSourceObject: {fileID: 0}
  m_PrefabInstance: {fileID: 0}
  m_PrefabAsset: {fileID: 0}
  m_GameObject: {fileID: 0}
  m_Enabled: 1
  m_EditorHideFlags: 0
  m_Script: {fileID: 11500000, guid: 0b6d48caf27308246ab848b595dd969a, type: 3}
  m_Name: Composite Behavior
  m_EditorClassIdentifier: 
  behaviors:
  - {fileID: 11400000, guid: 77ecba9f94221ba47ba32432d27b663b, type: 2}
  - {fileID: 11400000, guid: 42bc64eefb64c0144933042dc9ceb8a0, type: 2}
  - {fileID: 11400000, guid: 6a873d6bbb2503d4aa227ca9d658750e, type: 2}
  - {fileID: 11400000, guid: 7dfb19ea7a41091489cf2445a947fc88, type: 2}
  - {fileID: 11400000, guid: be36928c17a94394d99528cbb39f841e, type: 2}
  - {fileID: 11400000, guid: e8a08682ce5581742802b60bcc22d03f, type: 2}
  weights:
  - 1
  - 1
  - 1
  - 1
  - 3
  - 0.5
