%YAML 1.1
%TAG !u! tag:unity3d.com,2011:
--- !u!114 &11400000
MonoBehaviour:
  m_ObjectHideFlags: 0
  m_CorrespondingSourceObject: {fileID: 0}
  m_PrefabInstance: {fileID: 0}
  m_PrefabAsset: {fileID: 0}
  m_GameObject: {fileID: 0}
  m_Enabled: 1
  m_EditorHideFlags: 0
  m_Script: {fileID: 11500000, guid: 19f0a60b936be5941a552f3a289bdf11, type: 3}
  m_Name: New Target Follow Behaviour
  m_EditorClassIdentifier: 
  filter: {fileID: 11400000, guid: f37746c01c708d24fa50832a8d5f2b36, type: 2}
