%YAML 1.1
%TAG !u! tag:unity3d.com,2011:
--- !u!114 &11400000
MonoBehaviour:
  m_ObjectHideFlags: 0
  m_CorrespondingSourceObject: {fileID: 0}
  m_PrefabInstance: {fileID: 0}
  m_PrefabAsset: {fileID: 0}
  m_GameObject: {fileID: 0}
  m_Enabled: 1
  m_EditorHideFlags: 0
  m_Script: {fileID: 11500000, guid: 70452a7bcd5f2e143a0a2bb30479447c, type: 3}
  m_Name: New Stay In Radius Behavior
  m_EditorClassIdentifier: 
  center: {x: 0, y: 0, z: 0}
  radius: 15
