%YAML 1.1
%TAG !u! tag:unity3d.com,2011:
--- !u!114 &11400000
MonoBehaviour:
  m_ObjectHideFlags: 0
  m_CorrespondingSourceObject: {fileID: 0}
  m_PrefabInstance: {fileID: 0}
  m_PrefabAsset: {fileID: 0}
  m_GameObject: {fileID: 0}
  m_Enabled: 1
  m_EditorHideFlags: 0
  m_Script: {fileID: 11500000, guid: 5a394a393ef74e747bfbe48dae562883, type: 3}
  m_Name: Player_Avoidance
  m_EditorClassIdentifier: 
  filter: {fileID: 11400000, guid: 17b875214519a2844b90058479e677dc, type: 2}
  squaredAvoidance: 0.5
