# 3ds Max Wavefront OBJ Exporter v0.97b - (c)2007 guruware
# File Created: 26.10.2020 23:22:10

#
# object scifi_terminal
#

v  1.0000 2.0000 -0.0000
v  1.0000 1.0000 -0.0000
v  1.0000 1.0000 -1.0000
v  1.0000 2.0000 -1.0000
v  1.0000 2.0000 0.5000
v  1.0000 1.0000 1.0000
v  1.0000 3.0000 -0.0000
v  1.0000 3.0000 -1.0000
v  1.0000 0.0000 -0.0000
v  1.0000 0.0000 -1.0000
v  1.0000 0.0000 1.0000
v  -0.0000 1.0000 1.0000
v  -0.0000 2.0000 0.5000
v  -1.0000 2.0000 0.5000
v  -1.0000 1.0000 1.0000
v  -0.0000 3.0000 -1.0000
v  -0.0000 3.0000 -0.0000
v  -1.0000 2.0000 -1.0000
v  -0.0000 2.0000 -1.0000
v  -0.0000 1.0000 -1.0000
v  -1.0000 1.0000 -1.0000
v  -1.0000 3.0000 -1.0000
v  -1.0000 3.0000 -0.0000
v  -1.0000 0.0000 1.0000
v  -0.0000 0.0000 1.0000
v  -0.0000 0.0000 -1.0000
v  -1.0000 0.0000 -1.0000
v  -1.0000 2.0000 -0.0000
v  -1.0000 1.0000 -0.0000
v  -1.0000 0.0000 -0.0000
# 30 vertices

vn 1.0000 0.0000 -0.0000
vn 0.0000 0.2298 0.9732
vn 0.0000 0.4472 0.8944
vn 0.0000 0.7071 -0.7071
vn 0.0000 0.8507 0.5257
vn 0.0000 0.0000 -1.0000
vn 0.0000 0.0000 1.0000
vn -1.0000 0.0000 -0.0000
# 8 vertex normals

vt 0.2021 0.5577 0.0000
vt 0.2020 0.4907 0.0000
vt 0.1350 0.4907 0.0000
vt 0.1350 0.5577 0.0000
vt 0.2356 0.5577 0.0000
vt 0.2691 0.4907 0.0000
vt 0.2021 0.6247 0.0000
vt 0.1350 0.6247 0.0000
vt 0.2020 0.4237 0.0000
vt 0.1350 0.4237 0.0000
vt 0.2691 0.4237 0.0000
vt 0.3361 0.4907 0.0000
vt 0.3361 0.5656 0.0000
vt 0.2691 0.5656 0.0000
vt 0.4031 0.7075 0.0000
vt 0.3361 0.7075 0.0000
vt 0.3361 0.6405 0.0000
vt 0.4031 0.6405 0.0000
vt 0.0680 0.5577 0.0000
vt 0.0680 0.4907 0.0000
vt 0.4031 0.4907 0.0000
vt 0.4031 0.5656 0.0000
vt 0.2691 0.7075 0.0000
vt 0.2691 0.6405 0.0000
vt 0.0010 0.6247 0.0000
vt 0.0010 0.5577 0.0000
vt 0.0680 0.6247 0.0000
vt 0.0010 0.4907 0.0000
vt 0.3361 0.4237 0.0000
vt 0.0010 0.4237 0.0000
vt 0.0680 0.4237 0.0000
vt 0.4031 0.4237 0.0000
# 32 texture coords

o scifi_terminal
g scifi_terminal
f 1/1/1 2/2/1 3/3/1 4/4/1 
f 5/5/1 6/6/1 2/2/1 1/1/1 
f 7/7/1 1/1/1 4/4/1 8/8/1 
f 5/5/1 1/1/1 7/7/1 
f 2/2/1 9/9/1 10/10/1 3/3/1 
f 6/6/1 11/11/1 9/9/1 2/2/1 
f 12/12/2 13/13/3 14/14/3 15/6/2 
f 8/15/4 16/16/4 17/17/5 7/18/5 
f 18/4/6 19/19/6 20/20/6 21/3/6 
f 6/21/2 5/22/3 13/13/3 12/12/2 
f 22/23/4 23/24/5 17/17/5 16/16/4 
f 8/25/4 4/26/6 19/19/6 16/27/4 
f 17/17/5 23/24/5 14/14/3 13/13/3 
f 22/8/4 16/27/4 19/19/6 18/4/6 
f 7/18/5 17/17/5 13/13/3 5/22/3 
f 3/28/6 20/20/6 19/19/6 4/26/6 
f 12/12/2 15/6/2 24/11/7 25/29/7 
f 20/20/6 3/28/6 10/30/6 26/31/6 
f 6/21/2 12/12/2 25/29/7 11/32/7 
f 21/3/6 20/20/6 26/31/6 27/10/6 
f 28/1/8 18/4/8 21/3/8 29/2/8 
f 14/5/8 28/1/8 29/2/8 15/6/8 
f 23/7/8 22/8/8 18/4/8 28/1/8 
f 14/5/8 23/7/8 28/1/8 
f 29/2/8 21/3/8 27/10/8 30/9/8 
f 15/6/8 29/2/8 30/9/8 24/11/8 
# 24 polygons - 2 triangles

