%YAML 1.1
%TAG !u! tag:unity3d.com,2011:
--- !u!114 &11400000
MonoBehaviour:
  m_ObjectHideFlags: 0
  m_CorrespondingSourceObject: {fileID: 0}
  m_PrefabInstance: {fileID: 0}
  m_PrefabAsset: {fileID: 0}
  m_GameObject: {fileID: 0}
  m_Enabled: 1
  m_EditorHideFlags: 0
  m_Script: {fileID: 11500000, guid: 8262952156c59c04fbfd822c97641569, type: 3}
  m_Name: Life Steal Mod
  m_EditorClassIdentifier: 
  displayName: VAMPIRE
  description: Set your life cap to half, but allows you to regain life by dealing
    damage.
  isPositive: 0
  value: 0.5
  image: {fileID: 21300000, guid: 68ca24a34adc7044981cccd9cf373ab9, type: 3}
  prefab: {fileID: 5839558853463949137, guid: fa962e4a6a0e46f43a2ea2a9b4f4a913, type: 3}
  OnModSet:
    m_PersistentCalls:
      m_Calls:
      - m_Target: {fileID: 11400000, guid: c02290ab40a81a14ea33b333c135b35d, type: 2}
        m_TargetAssemblyTypeName: ModifierHandler, Assembly-CSharp
        m_MethodName: Vampiric
        m_Mode: 0
        m_Arguments:
          m_ObjectArgument: {fileID: 0}
          m_ObjectArgumentAssemblyTypeName: UnityEngine.Object, UnityEngine
          m_IntArgument: 0
          m_FloatArgument: 0
          m_StringArgument: 
          m_BoolArgument: 0
        m_CallState: 2
      - m_Target: {fileID: 11400000, guid: c02290ab40a81a14ea33b333c135b35d, type: 2}
        m_TargetAssemblyTypeName: ModifierHandler, Assembly-CSharp
        m_MethodName: MaxHP
        m_Mode: 0
        m_Arguments:
          m_ObjectArgument: {fileID: 0}
          m_ObjectArgumentAssemblyTypeName: UnityEngine.Object, UnityEngine
          m_IntArgument: 0
          m_FloatArgument: 0
          m_StringArgument: 
          m_BoolArgument: 0
        m_CallState: 2
