# 3ds Max Wavefront OBJ Exporter v0.97b - (c)2007 guruware
# File Created: 18.10.2020 19:44:11

#
# object pickup_mod_pos_01
#

v  8.2684 -1.5335 1.3986
v  6.4867 -5.4147 1.3986
v  7.1142 -5.9344 -0.0000
v  9.0699 -1.6748 -0.0000
v  6.6653 -1.2507 1.3986
v  5.2315 -4.3756 1.3986
v  5.8637 -1.1094 -0.0000
v  4.6040 -3.8560 -0.0000
v  7.9450 2.6709 1.3986
v  8.7152 2.9354 -0.0000
v  6.4048 2.1419 1.3986
v  5.6348 1.8774 -0.0000
v  5.4751 6.3120 1.3986
v  6.0064 6.9297 -0.0000
v  4.4127 5.0764 1.3986
v  3.8813 4.4587 -0.0000
v  1.5052 8.2089 1.3986
v  1.6515 9.0099 -0.0000
v  1.2128 6.6068 1.3986
v  1.0667 5.8058 -0.0000
v  -2.7001 7.8990 1.3986
v  -2.9598 8.6704 -0.0000
v  -2.1805 6.3564 1.3986
v  -1.9207 5.5850 -0.0000
v  -6.2709 5.5562 1.3986
v  -6.8786 6.0989 -0.0000
v  -5.0555 4.4708 1.3986
v  -4.4479 3.9282 -0.0000
v  -8.2704 1.5382 1.3986
v  -9.0699 1.6957 -0.0000
v  -6.6716 1.2232 1.3986
v  -5.8722 1.0657 -0.0000
v  -7.9859 -2.7231 1.3986
v  -8.7579 -2.9810 -0.0000
v  -6.4420 -2.2073 1.3986
v  -5.6700 -1.9494 -0.0000
v  -5.6971 -6.2646 1.3986
v  -6.2480 -6.8643 -0.0000
v  -4.5955 -5.0652 1.3986
v  -4.0448 -4.4655 -0.0000
v  -2.1667 -9.0099 -0.0000
v  -1.8921 -8.2506 1.3986
v  -1.3430 -6.7317 1.3986
v  -1.0685 -5.9724 -0.0000
v  8.2684 -1.5335 -1.3986
v  6.4867 -5.4147 -1.3986
v  6.6653 -1.2507 -1.3986
v  5.2315 -4.3756 -1.3986
v  7.9450 2.6709 -1.3986
v  6.4048 2.1419 -1.3986
v  5.4751 6.3120 -1.3986
v  4.4127 5.0764 -1.3986
v  1.5052 8.2089 -1.3986
v  1.2128 6.6068 -1.3986
v  -2.7001 7.8990 -1.3986
v  -2.1805 6.3564 -1.3986
v  -6.2709 5.5562 -1.3986
v  -5.0555 4.4708 -1.3986
v  -8.2704 1.5382 -1.3986
v  -6.6716 1.2232 -1.3986
v  -7.9859 -2.7231 -1.3986
v  -6.4420 -2.2073 -1.3986
v  -5.6971 -6.2646 -1.3986
v  -4.5955 -5.0652 -1.3986
v  -1.8921 -8.2506 -1.3986
v  -1.3430 -6.7317 -1.3986
# 66 vertices

vn 0.5455 -0.0976 0.8324
vn 0.0030 -0.7216 0.6923
vn 0.3372 -0.9414 0.0000
vn 0.9844 -0.1757 -0.0000
vn -0.4267 0.0762 0.9012
vn -0.6677 -0.2943 0.6837
vn -0.9844 0.1760 -0.0000
vn -0.9958 -0.0917 0.0000
vn 0.5241 0.1836 0.8317
vn 0.9441 0.3297 -0.0000
vn -0.4074 -0.1423 0.9021
vn -0.9437 -0.3308 -0.0000
vn 0.3626 0.4217 0.8311
vn 0.6520 0.7582 -0.0000
vn -0.2805 -0.3262 0.9027
vn -0.6520 -0.7582 -0.0000
vn 0.1030 0.5457 0.8316
vn 0.1846 0.9828 -0.0000
vn -0.0797 -0.4241 0.9021
vn -0.1858 -0.9826 0.0000
vn -0.1782 0.5247 0.8324
vn -0.3211 0.9470 -0.0000
vn 0.1392 -0.4104 0.9012
vn 0.3214 -0.9469 -0.0000
vn -0.4160 0.3690 0.8311
vn -0.7477 0.6640 0.0000
vn 0.3217 -0.2857 0.9027
vn 0.7479 -0.6638 -0.0000
vn -0.5452 0.1093 0.8311
vn -0.9806 0.1961 -0.0000
vn 0.4219 -0.0843 0.9027
vn 0.9805 -0.1964 -0.0000
vn -0.5260 -0.1743 0.8324
vn -0.9491 -0.3149 0.0000
vn 0.4113 0.1365 0.9012
vn 0.9492 0.3146 -0.0000
vn -0.3736 -0.4103 0.8319
vn -0.6748 -0.7380 0.0000
vn 0.2893 0.3195 0.9023
vn 0.6684 0.7438 0.0000
vn 0.2427 -0.9701 -0.0000
vn 0.4016 -0.6037 0.6887
vn 0.7180 0.1265 0.6845
vn 0.8731 0.4875 -0.0000
vn 0.5455 -0.0976 -0.8324
vn 0.0030 -0.7216 -0.6923
vn -0.4267 0.0762 -0.9012
vn -0.6677 -0.2943 -0.6837
vn 0.5241 0.1836 -0.8317
vn -0.4074 -0.1423 -0.9021
vn 0.3626 0.4217 -0.8311
vn -0.2805 -0.3262 -0.9027
vn 0.1030 0.5457 -0.8316
vn -0.0797 -0.4241 -0.9021
vn -0.1782 0.5247 -0.8324
vn 0.1392 -0.4104 -0.9012
vn -0.4160 0.3690 -0.8311
vn 0.3217 -0.2857 -0.9027
vn -0.5452 0.1093 -0.8311
vn 0.4219 -0.0843 -0.9027
vn -0.5260 -0.1743 -0.8324
vn 0.4113 0.1365 -0.9012
vn -0.3736 -0.4103 -0.8319
vn 0.2893 0.3195 -0.9023
vn 0.4016 -0.6037 -0.6887
vn 0.7180 0.1265 -0.6845
# 66 vertex normals

vt 0.6067 0.9795 0.0000
vt 0.6273 0.9795 0.0000
vt 0.6273 0.9882 0.0000
vt 0.6067 0.9882 0.0000
vt 0.6067 0.9689 0.0000
vt 0.6273 0.9689 0.0000
vt 0.6067 0.9603 0.0000
vt 0.6273 0.9603 0.0000
vt 0.5872 0.9795 0.0000
vt 0.5872 0.9882 0.0000
vt 0.5872 0.9689 0.0000
vt 0.5872 0.9603 0.0000
vt 0.5675 0.9795 0.0000
vt 0.5675 0.9882 0.0000
vt 0.5675 0.9688 0.0000
vt 0.5675 0.9603 0.0000
vt 0.5482 0.9795 0.0000
vt 0.5482 0.9882 0.0000
vt 0.5482 0.9689 0.0000
vt 0.5482 0.9603 0.0000
vt 0.5300 0.9795 0.0000
vt 0.5300 0.9882 0.0000
vt 0.5300 0.9689 0.0000
vt 0.5300 0.9603 0.0000
vt 0.5115 0.9795 0.0000
vt 0.5115 0.9882 0.0000
vt 0.5115 0.9689 0.0000
vt 0.5115 0.9603 0.0000
vt 0.4918 0.9795 0.0000
vt 0.4918 0.9882 0.0000
vt 0.4918 0.9689 0.0000
vt 0.4918 0.9603 0.0000
vt 0.4727 0.9795 0.0000
vt 0.4727 0.9882 0.0000
vt 0.4727 0.9689 0.0000
vt 0.4727 0.9603 0.0000
vt 0.4532 0.9795 0.0000
vt 0.4532 0.9882 0.0000
vt 0.4532 0.9689 0.0000
vt 0.4532 0.9603 0.0000
vt 0.4320 0.9882 0.0000
vt 0.4320 0.9795 0.0000
vt 0.4320 0.9689 0.0000
vt 0.4320 0.9603 0.0000
vt 0.6353 0.9689 0.0000
vt 0.6353 0.9795 0.0000
vt 0.4240 0.9689 0.0000
vt 0.4240 0.9795 0.0000
# 48 texture coords

o pickup_mod_pos_01
g pickup_mod_pos_01
f 1/1/1 2/2/2 3/3/3 4/4/4 
f 5/5/5 6/6/6 2/2/2 1/1/1 
f 7/7/7 8/8/8 6/6/6 5/5/5 
f 9/9/9 1/1/1 4/4/4 10/10/10 
f 11/11/11 5/5/5 1/1/1 9/9/9 
f 12/12/12 7/7/7 5/5/5 11/11/11 
f 13/13/13 9/9/9 10/10/10 14/14/14 
f 15/15/15 11/11/11 9/9/9 13/13/13 
f 16/16/16 12/12/12 11/11/11 15/15/15 
f 17/17/17 13/13/13 14/14/14 18/18/18 
f 19/19/19 15/15/15 13/13/13 17/17/17 
f 20/20/20 16/16/16 15/15/15 19/19/19 
f 21/21/21 17/17/17 18/18/18 22/22/22 
f 23/23/23 19/19/19 17/17/17 21/21/21 
f 24/24/24 20/20/20 19/19/19 23/23/23 
f 25/25/25 21/21/21 22/22/22 26/26/26 
f 27/27/27 23/23/23 21/21/21 25/25/25 
f 28/28/28 24/24/24 23/23/23 27/27/27 
f 29/29/29 25/25/25 26/26/26 30/30/30 
f 31/31/31 27/27/27 25/25/25 29/29/29 
f 32/32/32 28/28/28 27/27/27 31/31/31 
f 33/33/33 29/29/29 30/30/30 34/34/34 
f 35/35/35 31/31/31 29/29/29 33/33/33 
f 36/36/36 32/32/32 31/31/31 35/35/35 
f 37/37/37 33/33/33 34/34/34 38/38/38 
f 39/39/39 35/35/35 33/33/33 37/37/37 
f 40/40/40 36/36/36 35/35/35 39/39/39 
f 41/41/41 42/42/42 37/37/37 38/38/38 
f 42/42/42 43/43/43 39/39/39 37/37/37 
f 43/43/43 44/44/44 40/40/40 39/39/39 
f 6/6/6 8/45/8 3/46/3 2/2/2 
f 44/47/44 43/43/43 42/42/42 41/48/41 
f 45/1/45 4/4/4 3/3/3 46/2/46 
f 47/5/47 45/1/45 46/2/46 48/6/48 
f 7/7/7 47/5/47 48/6/48 8/8/8 
f 49/9/49 10/10/10 4/4/4 45/1/45 
f 50/11/50 49/9/49 45/1/45 47/5/47 
f 12/12/12 50/11/50 47/5/47 7/7/7 
f 51/13/51 14/14/14 10/10/10 49/9/49 
f 52/15/52 51/13/51 49/9/49 50/11/50 
f 16/16/16 52/15/52 50/11/50 12/12/12 
f 53/17/53 18/18/18 14/14/14 51/13/51 
f 54/19/54 53/17/53 51/13/51 52/15/52 
f 20/20/20 54/19/54 52/15/52 16/16/16 
f 55/21/55 22/22/22 18/18/18 53/17/53 
f 56/23/56 55/21/55 53/17/53 54/19/54 
f 24/24/24 56/23/56 54/19/54 20/20/20 
f 57/25/57 26/26/26 22/22/22 55/21/55 
f 58/27/58 57/25/57 55/21/55 56/23/56 
f 28/28/28 58/27/58 56/23/56 24/24/24 
f 59/29/59 30/30/30 26/26/26 57/25/57 
f 60/31/60 59/29/59 57/25/57 58/27/58 
f 32/32/32 60/31/60 58/27/58 28/28/28 
f 61/33/61 34/34/34 30/30/30 59/29/59 
f 62/35/62 61/33/61 59/29/59 60/31/60 
f 36/36/36 62/35/62 60/31/60 32/32/32 
f 63/37/63 38/38/38 34/34/34 61/33/61 
f 64/39/64 63/37/63 61/33/61 62/35/62 
f 40/40/40 64/39/64 62/35/62 36/36/36 
f 41/41/41 38/38/38 63/37/63 65/42/65 
f 65/42/65 63/37/63 64/39/64 66/43/66 
f 66/43/66 64/39/64 40/40/40 44/44/44 
f 48/6/48 46/2/46 3/46/3 8/45/8 
f 44/47/44 41/48/41 65/42/65 66/43/66 
# 64 polygons

