# 3ds Max Wavefront OBJ Exporter v0.97b - (c)2007 guruware
# File Created: 18.10.2020 19:44:13

#
# object pickup_mod_pos_03
#

v  0.0000 11.2452 0.0000
v  10.0580 5.0290 0.0000
v  3.1081 5.0290 -9.5658
v  -8.1371 5.0290 -5.9119
v  -8.1371 5.0290 5.9119
v  3.1081 5.0290 9.5658
v  8.1371 -5.0290 5.9119
v  8.1370 -5.0290 -5.9119
v  -3.1081 -5.0290 -9.5658
v  -10.0580 -5.0290 0.0000
v  -3.1081 -5.0290 9.5658
v  0.0000 -11.2452 0.0000
# 12 vertices

vn 0.0000 1.0000 0.0000
vn 0.8944 0.4472 0.0000
vn 0.2764 0.4472 -0.8507
vn -0.7236 0.4472 -0.5257
vn -0.7236 0.4472 0.5257
vn 0.2764 0.4472 0.8507
vn 0.7236 -0.4472 0.5257
vn 0.7236 -0.4472 -0.5257
vn -0.2764 -0.4472 -0.8507
vn -0.8944 -0.4472 0.0000
vn -0.2764 -0.4472 0.8507
vn 0.0000 -1.0000 0.0000
# 12 vertex normals

vt 0.2075 0.8075 0.0000
vt 0.2404 0.7512 0.0000
vt 0.2727 0.8079 0.0000
vt 0.2398 0.8642 0.0000
vt 0.3050 0.8645 0.0000
vt 0.2720 0.9208 0.0000
vt 0.3373 0.9212 0.0000
vt 0.3043 0.9775 0.0000
vt 0.1752 0.7509 0.0000
vt 0.2080 0.6946 0.0000
vt 0.2733 0.6949 0.0000
vt 0.3056 0.7515 0.0000
vt 0.3379 0.8082 0.0000
vt 0.3702 0.8649 0.0000
vt 0.4025 0.9216 0.0000
vt 0.2409 0.6383 0.0000
vt 0.3061 0.6385 0.0000
vt 0.3695 0.9779 0.0000
vt 0.3708 0.7519 0.0000
vt 0.4032 0.8086 0.0000
vt 0.4354 0.8653 0.0000
vt 0.3385 0.6952 0.0000
# 22 texture coords

o pickup_mod_pos_03
g pickup_mod_pos_03
f 1/1/1 2/2/2 3/3/3 
f 1/4/1 3/3/3 4/5/4 
f 1/6/1 4/5/4 5/7/5 
f 1/6/1 5/7/5 6/8/6 
f 1/9/1 6/10/6 2/2/2 
f 2/2/2 7/11/7 8/12/8 
f 3/3/3 8/12/8 9/13/9 
f 4/5/4 9/13/9 10/14/10 
f 5/7/5 10/14/10 11/15/11 
f 6/16/6 11/17/11 7/11/7 
f 8/12/8 3/3/3 2/2/2 
f 9/13/9 4/5/4 3/3/3 
f 10/14/10 5/7/5 4/5/4 
f 11/15/11 6/18/6 5/7/5 
f 7/11/7 2/2/2 6/10/6 
f 12/19/12 9/13/9 8/12/8 
f 12/20/12 10/14/10 9/13/9 
f 12/20/12 11/21/11 10/14/10 
f 12/22/12 7/11/7 11/17/11 
f 12/22/12 8/12/8 7/11/7 
# 0 polygons - 20 triangles

