# 3ds Max Wavefront OBJ Exporter v0.97b - (c)2007 guruware
# File Created: 18.10.2020 19:44:10

#
# object pickup_mod_neg_06
#

v  1.9076 -5.7366 2.1983
v  2.5456 -4.2680 2.4138
v  3.7139 -4.9126 -0.3891
v  2.8842 -6.2824 -0.1802
v  3.6984 -4.0406 3.5286
v  5.3223 -4.9126 -0.2438
v  4.2132 -5.2818 4.4279
v  6.1011 -6.2824 0.1104
v  3.5751 -6.7503 4.2124
v  5.2715 -7.6521 0.3193
v  2.4223 -6.9778 3.0976
v  3.6630 -7.6521 0.1740
v  -0.8720 -5.1063 3.0581
v  -0.6000 -3.5530 3.4075
v  -0.7518 -3.0281 4.9318
v  -1.1757 -4.0564 6.1066
v  -1.4478 -5.6096 5.7571
v  -1.2959 -6.1346 4.2329
v  -3.2332 -4.4586 1.2797
v  -3.0686 -2.8794 1.5742
v  -4.2448 -2.0741 2.3408
v  -5.5857 -2.8482 2.8129
v  -5.7504 -4.4275 2.5184
v  -4.5741 -5.2328 1.7518
v  -3.1720 -3.7824 -1.7721
v  -3.0307 -2.2384 -1.3195
v  -4.2000 -1.1815 -1.6838
v  -5.5105 -1.6688 -2.5006
v  -5.6518 -3.2128 -2.9533
v  -4.4826 -4.2696 -2.5890
v  -0.5455 -3.0663 -3.5909
v  -0.7697 -1.6196 -2.9074
v  -1.1758 -0.3509 -3.8235
v  -1.3576 -0.5290 -5.4231
v  -1.1333 -1.9759 -6.1066
v  -0.7273 -3.2445 -5.1905
v  2.6388 -2.3007 -2.4675
v  1.7687 -1.0110 -2.0282
v  2.0421 0.4199 -2.7273
v  3.1855 0.5610 -3.8658
v  4.0557 -0.7287 -4.3051
v  3.7823 -2.1595 -3.6059
v  3.6555 -1.4770 0.9755
v  2.5354 -0.3997 0.5268
v  2.9585 1.1353 0.2555
v  4.5016 1.5931 0.4330
v  5.6217 0.5158 0.8817
v  5.1986 -1.0193 1.1529
v  1.3193 -0.5890 4.0036
v  0.8881 0.2279 2.6746
v  1.2241 1.8029 2.5526
v  1.9914 2.5608 3.7596
v  2.4226 1.7439 5.0886
v  2.0866 0.1690 5.2106
v  -1.9132 0.8856 2.5931
v  -2.7479 0.3672 3.8802
v  -1.4578 2.4322 2.4960
v  -1.8372 3.4604 3.6859
v  -2.6719 2.9420 4.9729
v  -3.1273 1.3954 5.0701
v  -3.5701 1.5863 0.1525
v  -5.1700 1.3926 0.3142
v  -2.9012 3.0354 0.4043
v  -3.8323 4.2908 0.8176
v  -5.4322 4.0971 0.9792
v  -6.1011 2.6480 0.7275
v  -2.4971 2.3419 -2.8004
v  -3.6271 2.4850 -3.9520
v  -2.0759 3.6264 -1.9139
v  -2.7848 5.0541 -2.1790
v  -3.9147 5.1972 -3.3306
v  -4.3359 3.9126 -4.2171
v  0.7427 3.1623 -3.7241
v  0.9219 3.6390 -5.2612
v  0.2711 4.2207 -2.5954
v  -0.0214 5.7558 -3.0039
v  0.1577 6.2325 -4.5410
v  0.6294 5.1741 -5.6697
v  4.7744 4.8458 -2.2514
v  3.5873 4.0549 -1.4866
v  2.2343 4.8344 -1.0605
v  2.0684 6.4048 -1.3992
v  3.2555 7.1956 -2.1640
v  4.6085 6.4162 -2.5901
v  5.2805 5.4387 0.1441
v  3.9770 4.5263 0.4212
v  2.5017 5.1769 0.3295
v  2.3298 6.7398 -0.0393
v  3.6333 7.6521 -0.3164
v  5.1086 7.0016 -0.2247
# 90 vertices

vn -0.6911 -0.1721 -0.7020
vn -0.2107 0.8257 -0.5233
vn -0.2457 0.5303 -0.8115
vn -0.6307 -0.1486 -0.7617
vn 0.4576 0.8627 0.2152
vn 0.5354 0.5644 -0.6284
vn 0.6865 0.1315 0.7152
vn 0.9113 -0.1028 -0.3986
vn 0.3408 -0.7009 0.6265
vn 0.5098 -0.7906 -0.3391
vn -0.3263 -0.9451 -0.0204
vn -0.2710 -0.8057 -0.5266
vn 0.0662 -0.3771 -0.9238
vn 0.2865 0.7106 -0.6426
vn 0.1676 0.9221 0.3488
vn -0.0957 0.2869 0.9532
vn -0.2718 -0.5729 0.7732
vn -0.2283 -0.9705 -0.0776
vn 0.6666 -0.5681 -0.4827
vn 0.8007 0.5474 -0.2435
vn -0.0141 0.9621 0.2722
vn -0.7522 0.4437 0.4871
vn -0.8519 -0.4268 0.3036
vn -0.2424 -0.9593 -0.1451
vn 0.6694 -0.7276 0.1496
vn 0.7834 0.3503 0.5134
vn -0.0592 0.9680 0.2440
vn -0.7696 0.5890 -0.2465
vn -0.8188 -0.2668 -0.5083
vn -0.1909 -0.9138 -0.3584
vn 0.2800 -0.8487 0.4486
vn 0.1054 0.1292 0.9860
vn -0.1993 0.9351 0.2931
vn -0.2690 0.7179 -0.6421
vn -0.1133 -0.0975 -0.9888
vn 0.1371 -0.8370 -0.5298
vn -0.0414 -0.9279 0.3705
vn -0.6991 -0.1026 0.7077
vn -0.4851 0.8597 0.1600
vn 0.2346 0.8252 -0.5139
vn 0.7064 0.0764 -0.7037
vn 0.6007 -0.7317 -0.3221
vn -0.1253 -0.9646 0.2320
vn -0.9404 -0.3295 -0.0844
vn -0.6013 0.7394 -0.3028
vn 0.3899 0.9057 -0.1662
vn 0.9619 0.2497 0.1112
vn 0.7444 -0.6017 0.2893
vn -0.1741 -0.9602 0.2185
vn -0.4859 -0.5360 -0.6903
vn -0.2137 0.5751 -0.7897
vn 0.2962 0.9543 0.0394
vn 0.4857 0.4168 0.7684
vn 0.2794 -0.4509 0.8477
vn 0.1591 -0.7092 -0.6868
vn -0.3635 -0.9172 0.1633
vn 0.5249 0.3719 -0.7656
vn 0.2455 0.9655 0.0865
vn -0.2550 0.5719 0.7797
vn -0.5200 -0.2840 0.8056
vn 0.4596 -0.8402 -0.2877
vn -0.5218 -0.8387 -0.1560
vn 0.9858 0.1403 -0.0920
vn 0.2834 0.9341 0.2170
vn -0.6499 0.7093 0.2728
vn -0.9892 -0.1060 0.1010
vn 0.3793 -0.9246 0.0346
vn -0.3098 -0.7284 -0.6112
vn 0.7028 -0.1039 0.7037
vn 0.1482 0.8555 0.4961
vn -0.5198 0.8229 -0.2295
vn -0.6985 0.0774 -0.7114
vn 0.2477 -0.9617 0.1174
vn 0.3035 -0.5904 -0.7479
vn -0.0832 -0.3424 0.9359
vn -0.3180 0.7269 0.6086
vn -0.1797 0.9065 -0.3820
vn 0.1124 0.2599 -0.9591
vn 0.8099 -0.4622 -0.3611
vn 0.1971 -0.9676 0.1576
vn -0.6478 -0.5112 0.5648
vn -0.7686 0.5583 0.3123
vn -0.0247 0.9550 -0.2954
vn 0.7065 0.4258 -0.5653
vn 0.7905 -0.1898 0.5823
vn 0.1488 -0.6265 0.7651
vn -0.5712 -0.2909 0.7676
vn -0.6540 0.4713 0.5917
vn -0.0196 0.9118 0.4102
vn 0.7060 0.5816 0.4041
# 90 vertex normals

vt 0.1217 0.9235 0.0000
vt 0.1302 0.9235 0.0000
vt 0.1302 0.9440 0.0000
vt 0.1217 0.9440 0.0000
vt 0.1387 0.9235 0.0000
vt 0.1387 0.9440 0.0000
vt 0.1472 0.9235 0.0000
vt 0.1472 0.9440 0.0000
vt 0.1557 0.9235 0.0000
vt 0.1557 0.9440 0.0000
vt 0.1643 0.9235 0.0000
vt 0.1643 0.9440 0.0000
vt 0.1132 0.9440 0.0000
vt 0.1132 0.9235 0.0000
vt 0.1217 0.8995 0.0000
vt 0.1302 0.8995 0.0000
vt 0.1387 0.8995 0.0000
vt 0.1472 0.8995 0.0000
vt 0.1557 0.8995 0.0000
vt 0.1643 0.8995 0.0000
vt 0.1132 0.8995 0.0000
vt 0.1217 0.8757 0.0000
vt 0.1302 0.8757 0.0000
vt 0.1387 0.8757 0.0000
vt 0.1472 0.8757 0.0000
vt 0.1557 0.8757 0.0000
vt 0.1643 0.8757 0.0000
vt 0.1132 0.8757 0.0000
vt 0.1217 0.8521 0.0000
vt 0.1302 0.8521 0.0000
vt 0.1387 0.8521 0.0000
vt 0.1472 0.8521 0.0000
vt 0.1557 0.8521 0.0000
vt 0.1643 0.8521 0.0000
vt 0.1132 0.8521 0.0000
vt 0.1217 0.8285 0.0000
vt 0.1302 0.8285 0.0000
vt 0.1387 0.8285 0.0000
vt 0.1472 0.8285 0.0000
vt 0.1557 0.8285 0.0000
vt 0.1643 0.8285 0.0000
vt 0.1132 0.8285 0.0000
vt 0.1217 0.8051 0.0000
vt 0.1302 0.8051 0.0000
vt 0.1387 0.8051 0.0000
vt 0.1472 0.8051 0.0000
vt 0.1557 0.8051 0.0000
vt 0.1643 0.8051 0.0000
vt 0.1132 0.8051 0.0000
vt 0.1217 0.7818 0.0000
vt 0.1302 0.7818 0.0000
vt 0.1387 0.7818 0.0000
vt 0.1472 0.7818 0.0000
vt 0.1557 0.7818 0.0000
vt 0.1643 0.7818 0.0000
vt 0.1132 0.7818 0.0000
vt 0.1217 0.7587 0.0000
vt 0.1302 0.7587 0.0000
vt 0.1387 0.7587 0.0000
vt 0.1472 0.7587 0.0000
vt 0.1557 0.7587 0.0000
vt 0.1643 0.7587 0.0000
vt 0.1132 0.7587 0.0000
vt 0.1302 0.7356 0.0000
vt 0.1217 0.7356 0.0000
vt 0.1387 0.7356 0.0000
vt 0.1472 0.7356 0.0000
vt 0.1557 0.7356 0.0000
vt 0.1643 0.7356 0.0000
vt 0.1132 0.7356 0.0000
vt 0.1302 0.7127 0.0000
vt 0.1217 0.7127 0.0000
vt 0.1387 0.7127 0.0000
vt 0.1472 0.7127 0.0000
vt 0.1557 0.7127 0.0000
vt 0.1643 0.7127 0.0000
vt 0.1132 0.7127 0.0000
vt 0.1302 0.6899 0.0000
vt 0.1217 0.6899 0.0000
vt 0.1387 0.6899 0.0000
vt 0.1472 0.6899 0.0000
vt 0.1557 0.6899 0.0000
vt 0.1643 0.6899 0.0000
vt 0.1132 0.6899 0.0000
vt 0.1302 0.6674 0.0000
vt 0.1217 0.6674 0.0000
vt 0.1387 0.6674 0.0000
vt 0.1472 0.6674 0.0000
vt 0.1557 0.6674 0.0000
vt 0.1643 0.6674 0.0000
vt 0.1132 0.6674 0.0000
vt 0.1217 0.6450 0.0000
vt 0.1302 0.6450 0.0000
vt 0.1387 0.6450 0.0000
vt 0.1472 0.6450 0.0000
vt 0.1557 0.6450 0.0000
vt 0.1643 0.6450 0.0000
vt 0.1132 0.6450 0.0000
vt 0.1217 0.6335 0.0000
vt 0.1302 0.6335 0.0000
vt 0.1387 0.6335 0.0000
vt 0.1472 0.6335 0.0000
vt 0.1557 0.6335 0.0000
vt 0.1643 0.6335 0.0000
vt 0.1132 0.6335 0.0000
vt 0.1170 0.9504 0.0000
vt 0.1348 0.9508 0.0000
vt 0.1521 0.6269 0.0000
vt 0.1343 0.6264 0.0000
vt 0.1479 0.6191 0.0000
vt 0.1390 0.6188 0.0000
vt 0.1213 0.9583 0.0000
vt 0.1302 0.9584 0.0000
# 113 texture coords

o pickup_mod_neg_06
g pickup_mod_neg_06
f 1/1/1 2/2/2 3/3/3 4/4/4 
f 2/2/2 5/5/5 6/6/6 3/3/3 
f 5/5/5 7/7/7 8/8/8 6/6/6 
f 9/9/9 10/10/10 8/8/8 7/7/7 
f 10/10/10 9/9/9 11/11/11 12/12/12 
f 12/13/12 11/14/11 1/1/1 4/4/4 
f 1/1/1 13/15/13 14/16/14 2/2/2 
f 15/17/15 5/5/5 2/2/2 14/16/14 
f 15/17/15 16/18/16 7/7/7 5/5/5 
f 16/18/16 17/19/17 9/9/9 7/7/7 
f 18/20/18 11/11/11 9/9/9 17/19/17 
f 11/14/11 18/21/18 13/15/13 1/1/1 
f 13/15/13 19/22/19 20/23/20 14/16/14 
f 21/24/21 15/17/15 14/16/14 20/23/20 
f 21/24/21 22/25/22 16/18/16 15/17/15 
f 22/25/22 23/26/23 17/19/17 16/18/16 
f 23/26/23 24/27/24 18/20/18 17/19/17 
f 19/22/19 13/15/13 18/21/18 24/28/24 
f 19/22/19 25/29/25 26/30/26 20/23/20 
f 27/31/27 21/24/21 20/23/20 26/30/26 
f 27/31/27 28/32/28 22/25/22 21/24/21 
f 28/32/28 29/33/29 23/26/23 22/25/22 
f 29/33/29 30/34/30 24/27/24 23/26/23 
f 25/29/25 19/22/19 24/28/24 30/35/30 
f 25/29/25 31/36/31 32/37/32 26/30/26 
f 26/30/26 32/37/32 33/38/33 27/31/27 
f 34/39/34 28/32/28 27/31/27 33/38/33 
f 34/39/34 35/40/35 29/33/29 28/32/28 
f 35/40/35 36/41/36 30/34/30 29/33/29 
f 31/36/31 25/29/25 30/35/30 36/42/36 
f 31/36/31 37/43/37 38/44/38 32/37/32 
f 32/37/32 38/44/38 39/45/39 33/38/33 
f 40/46/40 34/39/34 33/38/33 39/45/39 
f 40/46/40 41/47/41 35/40/35 34/39/34 
f 41/47/41 42/48/42 36/41/36 35/40/35 
f 37/43/37 31/36/31 36/42/36 42/49/42 
f 37/43/37 43/50/43 44/51/44 38/44/38 
f 38/44/38 44/51/44 45/52/45 39/45/39 
f 46/53/46 40/46/40 39/45/39 45/52/45 
f 46/53/46 47/54/47 41/47/41 40/46/40 
f 47/54/47 48/55/48 42/48/42 41/47/41 
f 43/50/43 37/43/37 42/49/42 48/56/48 
f 43/50/43 49/57/49 50/58/50 44/51/44 
f 44/51/44 50/58/50 51/59/51 45/52/45 
f 52/60/52 46/53/46 45/52/45 51/59/51 
f 52/60/52 53/61/53 47/54/47 46/53/46 
f 53/61/53 54/62/54 48/55/48 47/54/47 
f 54/63/54 49/57/49 43/50/43 48/56/48 
f 55/64/55 50/58/50 49/57/49 56/65/56 
f 50/58/50 55/64/55 57/66/57 51/59/51 
f 58/67/58 52/60/52 51/59/51 57/66/57 
f 58/67/58 59/68/59 53/61/53 52/60/52 
f 59/68/59 60/69/60 54/62/54 53/61/53 
f 60/70/60 56/65/56 49/57/49 54/63/54 
f 61/71/61 55/64/55 56/65/56 62/72/62 
f 55/64/55 61/71/61 63/73/63 57/66/57 
f 57/66/57 63/73/63 64/74/64 58/67/58 
f 64/74/64 65/75/65 59/68/59 58/67/58 
f 65/75/65 66/76/66 60/69/60 59/68/59 
f 66/77/66 62/72/62 56/65/56 60/70/60 
f 67/78/67 61/71/61 62/72/62 68/79/68 
f 61/71/61 67/78/67 69/80/69 63/73/63 
f 63/73/63 69/80/69 70/81/70 64/74/64 
f 71/82/71 65/75/65 64/74/64 70/81/70 
f 71/82/71 72/83/72 66/76/66 65/75/65 
f 72/84/72 68/79/68 62/72/62 66/77/66 
f 73/85/73 67/78/67 68/79/68 74/86/74 
f 67/78/67 73/85/73 75/87/75 69/80/69 
f 69/80/69 75/87/75 76/88/76 70/81/70 
f 77/89/77 71/82/71 70/81/70 76/88/76 
f 77/89/77 78/90/78 72/83/72 71/82/71 
f 78/91/78 74/86/74 68/79/68 72/84/72 
f 79/92/79 80/93/80 73/85/73 74/86/74 
f 73/85/73 80/93/80 81/94/81 75/87/75 
f 75/87/75 81/94/81 82/95/82 76/88/76 
f 83/96/83 77/89/77 76/88/76 82/95/82 
f 83/96/83 84/97/84 78/90/78 77/89/77 
f 84/98/84 79/92/79 74/86/74 78/91/78 
f 85/99/85 86/100/86 80/93/80 79/92/79 
f 86/100/86 87/101/87 81/94/81 80/93/80 
f 88/102/88 82/95/82 81/94/81 87/101/87 
f 82/95/82 88/102/88 89/103/89 83/96/83 
f 83/96/83 89/103/89 90/104/90 84/97/84 
f 85/99/85 79/92/79 84/98/84 90/105/90 
f 12/106/12 4/4/4 3/3/3 6/107/6 
f 89/108/89 88/102/88 87/101/87 86/109/86 
f 90/110/90 89/108/89 86/109/86 85/111/85 
f 10/112/10 12/106/12 6/107/6 8/113/8 
# 88 polygons

