%YAML 1.1
%TAG !u! tag:unity3d.com,2011:
--- !u!65 &4693085488019102263
BoxCollider:
  m_ObjectHideFlags: 0
  m_CorrespondingSourceObject: {fileID: 0}
  m_PrefabInstance: {fileID: 0}
  m_PrefabAsset: {fileID: 0}
  m_GameObject: {fileID: 4954168309959414598}
  m_Material: {fileID: 0}
  m_IsTrigger: 0
  m_Enabled: 1
  serializedVersion: 2
  m_Size: {x: 6, y: 1, z: 1}
  m_Center: {x: 3, y: -0.027999997, z: 0.027999997}
--- !u!1 &2595449618968432052
GameObject:
  m_ObjectHideFlags: 0
  m_CorrespondingSourceObject: {fileID: 0}
  m_PrefabInstance: {fileID: 0}
  m_PrefabAsset: {fileID: 0}
  serializedVersion: 6
  m_Component:
  - component: {fileID: 4262355758272950296}
  m_Layer: 0
  m_Name: scifi_wires_long
  m_TagString: Untagged
  m_Icon: {fileID: 0}
  m_NavMeshLayer: 0
  m_StaticEditorFlags: 0
  m_IsActive: 1
--- !u!4 &4262355758272950296
Transform:
  m_ObjectHideFlags: 0
  m_CorrespondingSourceObject: {fileID: 0}
  m_PrefabInstance: {fileID: 0}
  m_PrefabAsset: {fileID: 0}
  m_GameObject: {fileID: 2595449618968432052}
  m_LocalRotation: {x: 0, y: 0, z: 0, w: 1}
  m_LocalPosition: {x: 0, y: 0, z: 0}
  m_LocalScale: {x: 1, y: 1, z: 1}
  m_Children:
  - {fileID: 1055959108893527463}
  m_Father: {fileID: 0}
  m_RootOrder: 0
  m_LocalEulerAnglesHint: {x: 0, y: 0, z: 0}
--- !u!1001 &661251015266445900
PrefabInstance:
  m_ObjectHideFlags: 0
  serializedVersion: 2
  m_Modification:
    m_TransformParent: {fileID: 4262355758272950296}
    m_Modifications:
    - target: {fileID: -8679921383154817045, guid: 50fa5f6dbde0bb846bc39eb5a3543850,
        type: 3}
      propertyPath: m_LocalPosition.x
      value: 0
      objectReference: {fileID: 0}
    - target: {fileID: -8679921383154817045, guid: 50fa5f6dbde0bb846bc39eb5a3543850,
        type: 3}
      propertyPath: m_LocalPosition.y
      value: 0
      objectReference: {fileID: 0}
    - target: {fileID: -8679921383154817045, guid: 50fa5f6dbde0bb846bc39eb5a3543850,
        type: 3}
      propertyPath: m_LocalPosition.z
      value: 0
      objectReference: {fileID: 0}
    - target: {fileID: -8679921383154817045, guid: 50fa5f6dbde0bb846bc39eb5a3543850,
        type: 3}
      propertyPath: m_LocalRotation.x
      value: 0
      objectReference: {fileID: 0}
    - target: {fileID: -8679921383154817045, guid: 50fa5f6dbde0bb846bc39eb5a3543850,
        type: 3}
      propertyPath: m_LocalRotation.y
      value: 0
      objectReference: {fileID: 0}
    - target: {fileID: -8679921383154817045, guid: 50fa5f6dbde0bb846bc39eb5a3543850,
        type: 3}
      propertyPath: m_LocalRotation.z
      value: 0
      objectReference: {fileID: 0}
    - target: {fileID: -8679921383154817045, guid: 50fa5f6dbde0bb846bc39eb5a3543850,
        type: 3}
      propertyPath: m_LocalRotation.w
      value: 1
      objectReference: {fileID: 0}
    - target: {fileID: -8679921383154817045, guid: 50fa5f6dbde0bb846bc39eb5a3543850,
        type: 3}
      propertyPath: m_RootOrder
      value: 0
      objectReference: {fileID: 0}
    - target: {fileID: -8679921383154817045, guid: 50fa5f6dbde0bb846bc39eb5a3543850,
        type: 3}
      propertyPath: m_LocalEulerAnglesHint.x
      value: 0
      objectReference: {fileID: 0}
    - target: {fileID: -8679921383154817045, guid: 50fa5f6dbde0bb846bc39eb5a3543850,
        type: 3}
      propertyPath: m_LocalEulerAnglesHint.y
      value: 0
      objectReference: {fileID: 0}
    - target: {fileID: -8679921383154817045, guid: 50fa5f6dbde0bb846bc39eb5a3543850,
        type: 3}
      propertyPath: m_LocalEulerAnglesHint.z
      value: 0
      objectReference: {fileID: 0}
    - target: {fileID: -5660746453528741626, guid: 50fa5f6dbde0bb846bc39eb5a3543850,
        type: 3}
      propertyPath: m_Materials.Array.data[0]
      value: 
      objectReference: {fileID: 2100000, guid: e8d624f2478b98d4fb0f90dfdea7c3c1, type: 2}
    - target: {fileID: 919132149155446097, guid: 50fa5f6dbde0bb846bc39eb5a3543850,
        type: 3}
      propertyPath: m_Name
      value: scifi_wires_long
      objectReference: {fileID: 0}
    - target: {fileID: 919132149155446097, guid: 50fa5f6dbde0bb846bc39eb5a3543850,
        type: 3}
      propertyPath: m_StaticEditorFlags
      value: 4294967295
      objectReference: {fileID: 0}
    - target: {fileID: 5615286834074646794, guid: 50fa5f6dbde0bb846bc39eb5a3543850,
        type: 3}
      propertyPath: m_StaticEditorFlags
      value: 4294967295
      objectReference: {fileID: 0}
    m_RemovedComponents: []
  m_SourcePrefab: {fileID: 100100000, guid: 50fa5f6dbde0bb846bc39eb5a3543850, type: 3}
--- !u!4 &1055959108893527463 stripped
Transform:
  m_CorrespondingSourceObject: {fileID: -8679921383154817045, guid: 50fa5f6dbde0bb846bc39eb5a3543850,
    type: 3}
  m_PrefabInstance: {fileID: 661251015266445900}
  m_PrefabAsset: {fileID: 0}
--- !u!1 &4954168309959414598 stripped
GameObject:
  m_CorrespondingSourceObject: {fileID: 5615286834074646794, guid: 50fa5f6dbde0bb846bc39eb5a3543850,
    type: 3}
  m_PrefabInstance: {fileID: 661251015266445900}
  m_PrefabAsset: {fileID: 0}
