# 3ds Max Wavefront OBJ Exporter v0.97b - (c)2007 guruware
# File Created: 20.10.2020 16:56:14

#
# object portal_exit
#

v  0.5000 -3.0000 -0.0000
v  0.5000 -2.6300 -0.0000
v  0.5000 -2.6300 2.6300
v  0.5000 -3.0000 3.0000
v  0.5000 0.0000 3.0000
v  0.0000 0.0000 3.0000
v  0.0000 -1.3333 3.0000
v  0.5000 -1.3333 3.0000
v  0.0000 -2.6300 -0.0000
v  0.0000 -2.6300 2.6300
v  0.5000 -1.2100 2.6300
v  0.0000 -3.0000 3.0000
v  0.2919 -1.2100 2.6300
v  0.0000 -1.2100 2.6300
v  0.0000 -1.1100 2.1791
v  0.1919 -1.1100 2.1791
v  0.0000 -3.0000 -0.0000
v  0.5000 0.0000 2.6300
v  0.2919 0.0000 2.6300
v  0.0000 0.0000 2.1791
v  0.1919 0.0000 2.1791
v  0.5000 2.6300 2.6300
v  0.5000 2.6300 -0.0000
v  0.5000 3.0000 -0.0000
v  0.5000 3.0000 3.0000
v  0.0000 1.3333 3.0000
v  0.5000 1.3333 3.0000
v  0.0000 2.6300 -0.0000
v  0.0000 2.6300 2.6300
v  0.5000 1.2100 2.6300
v  0.0000 3.0000 3.0000
v  0.2919 1.2100 2.6300
v  0.0000 1.2100 2.6300
v  0.1919 1.1100 2.1791
v  0.0000 1.1100 2.1791
v  0.0000 3.0000 -0.0000
v  0.5000 -3.0000 -3.0000
v  0.5000 -2.6300 -2.6300
v  0.5000 0.0000 -3.0000
v  0.5000 -1.3333 -3.0000
v  0.0000 -1.3333 -3.0000
v  0.0000 0.0000 -3.0000
v  0.0000 -2.6300 -2.6300
v  0.5000 -1.2100 -2.6300
v  0.0000 -3.0000 -3.0000
v  0.2919 -1.2100 -2.6300
v  0.0000 -1.2100 -2.6300
v  0.1919 -1.1100 -2.1791
v  0.0000 -1.1100 -2.1791
v  0.5000 0.0000 -2.6300
v  0.2919 0.0000 -2.6300
v  0.1919 0.0000 -2.1791
v  0.0000 0.0000 -2.1791
v  0.5000 2.6300 -2.6300
v  0.5000 3.0000 -3.0000
v  0.0000 1.3333 -3.0000
v  0.5000 1.3333 -3.0000
v  0.0000 2.6300 -2.6300
v  0.5000 1.2100 -2.6300
v  0.0000 3.0000 -3.0000
v  0.2919 1.2100 -2.6300
v  0.0000 1.2100 -2.6300
v  0.1919 1.1100 -2.1791
v  0.0000 1.1100 -2.1791
v  -0.5000 -3.0000 -0.0000
v  -0.5000 -3.0000 3.0000
v  -0.5000 -2.6300 2.6300
v  -0.5000 -2.6300 -0.0000
v  -0.5000 0.0000 3.0000
v  -0.5000 -1.3333 3.0000
v  -0.5000 -1.2100 2.6300
v  -0.2919 -1.2100 2.6300
v  -0.1919 -1.1100 2.1791
v  -0.5000 0.0000 2.6300
v  -0.2919 0.0000 2.6300
v  -0.1919 0.0000 2.1791
v  -0.5000 2.6300 2.6300
v  -0.5000 3.0000 3.0000
v  -0.5000 3.0000 -0.0000
v  -0.5000 2.6300 -0.0000
v  -0.5000 1.3333 3.0000
v  -0.5000 1.2100 2.6300
v  -0.2919 1.2100 2.6300
v  -0.1919 1.1100 2.1791
v  -0.5000 -2.6300 -2.6300
v  -0.5000 -3.0000 -3.0000
v  -0.5000 0.0000 -3.0000
v  -0.5000 -1.3333 -3.0000
v  -0.5000 -1.2100 -2.6300
v  -0.2919 -1.2100 -2.6300
v  -0.1919 -1.1100 -2.1791
v  -0.5000 0.0000 -2.6300
v  -0.2919 0.0000 -2.6300
v  -0.1919 0.0000 -2.1791
v  -0.5000 2.6300 -2.6300
v  -0.5000 3.0000 -3.0000
v  -0.5000 1.3333 -3.0000
v  -0.5000 1.2100 -2.6300
v  -0.2919 1.2100 -2.6300
v  -0.1919 1.1100 -2.1791
# 100 vertices

vn 0.7071 -0.7071 -0.0000
vn 0.7071 0.7071 -0.0000
vn 0.9045 0.3015 -0.3015
vn 0.5774 -0.5774 0.5774
vn 0.7071 0.0000 0.7071
vn 0.0000 0.0000 1.0000
vn -0.0000 1.0000 -0.0000
vn -0.0000 0.7071 -0.7071
vn 0.7071 0.0000 -0.7071
vn 0.0000 -0.7071 0.7071
vn 0.2357 -0.2357 -0.9428
vn 0.0000 -0.6259 -0.7799
vn 0.5123 -0.5123 -0.6893
vn 0.0000 -1.0000 -0.0000
vn 0.6259 0.0000 -0.7799
vn 0.0000 0.0000 -1.0000
vn 0.9045 -0.3015 -0.3015
vn 0.5774 0.5774 0.5774
vn 0.0000 -0.7071 -0.7071
vn 0.0000 0.7071 0.7071
vn 0.2357 0.2357 -0.9428
vn 0.0000 0.6259 -0.7799
vn 0.5123 0.5123 -0.6893
vn 0.0000 1.0000 -0.0000
vn 0.5774 -0.5774 -0.5774
vn 0.9045 0.3015 0.3015
vn 0.2357 -0.2357 0.9428
vn 0.0000 -0.6259 0.7799
vn 0.5123 -0.5123 0.6893
vn 0.6259 0.0000 0.7799
vn 0.9045 -0.3015 0.3015
vn 0.5774 0.5774 -0.5774
vn 0.0000 0.7071 -0.7071
vn 0.2357 0.2357 0.9428
vn 0.0000 0.6259 0.7799
vn 0.5123 0.5123 0.6893
vn -0.7071 -0.7071 -0.0000
vn -0.5774 -0.5774 0.5774
vn -0.9045 0.3015 -0.3015
vn -0.7071 0.7071 -0.0000
vn -0.7071 0.0000 0.7071
vn -0.7071 0.0000 -0.7071
vn -0.2357 -0.2357 -0.9428
vn -0.5123 -0.5123 -0.6893
vn -0.6259 0.0000 -0.7799
vn -0.9045 -0.3015 -0.3015
vn -0.5774 0.5774 0.5774
vn -0.2357 0.2357 -0.9428
vn -0.5123 0.5123 -0.6893
vn -0.9045 0.3015 0.3015
vn -0.5774 -0.5774 -0.5774
vn -0.2357 -0.2357 0.9428
vn -0.5123 -0.5123 0.6893
vn -0.6259 0.0000 0.7799
vn -0.9045 -0.3015 0.3015
vn -0.5774 0.5774 -0.5774
vn -0.2357 0.2357 0.9428
vn -0.5123 0.5123 0.6893
# 58 vertex normals

vt 1.8343 0.5783 0.0000
vt 1.8343 0.6017 0.0000
vt 1.6651 0.6017 0.0000
vt 1.6409 0.5783 0.0000
vt 1.6409 0.7696 0.0000
vt 1.6086 0.7696 0.0000
vt 1.6086 0.6876 0.0000
vt 1.6409 0.6876 0.0000
vt 1.0117 0.4785 0.0000
vt 1.0117 0.3091 0.0000
vt 1.0439 0.3091 0.0000
vt 1.0439 0.4785 0.0000
vt 1.6651 0.6876 0.0000
vt 1.6086 0.5783 0.0000
vt 1.0251 0.5700 0.0000
vt 1.0117 0.5700 0.0000
vt 1.0439 0.5700 0.0000
vt 1.0672 0.5467 0.0000
vt 1.0672 0.5764 0.0000
vt 1.0549 0.5764 0.0000
vt 1.0484 0.5467 0.0000
vt 1.6409 0.5460 0.0000
vt 1.8343 0.5460 0.0000
vt 1.6651 0.7696 0.0000
vt 1.0251 0.6479 0.0000
vt 1.0117 0.6479 0.0000
vt 1.0672 0.6479 0.0000
vt 1.0549 0.6479 0.0000
vt 1.6651 0.9374 0.0000
vt 1.8343 0.9374 0.0000
vt 1.8343 0.9609 0.0000
vt 1.6409 0.9609 0.0000
vt 1.6086 0.8516 0.0000
vt 1.6409 0.8516 0.0000
vt 1.0439 0.9868 0.0000
vt 1.0117 0.9868 0.0000
vt 1.0117 0.8173 0.0000
vt 1.0439 0.8173 0.0000
vt 1.6651 0.8516 0.0000
vt 1.6086 0.9609 0.0000
vt 1.0251 0.7259 0.0000
vt 1.0117 0.7259 0.0000
vt 1.0439 0.7259 0.0000
vt 1.0549 0.7194 0.0000
vt 1.0672 0.7194 0.0000
vt 1.0672 0.7492 0.0000
vt 1.0484 0.7492 0.0000
vt 1.8343 0.9932 0.0000
vt 1.6409 0.9932 0.0000
# 49 texture coords

o portal_exit
g portal_exit
f 1/1/1 2/2/2 3/3/3 4/4/4 
f 5/5/5 6/6/6 7/7/6 8/8/5 
f 3/9/3 2/10/2 9/11/7 10/12/8 
f 8/8/5 4/4/4 3/3/3 11/13/9 
f 12/14/10 4/4/4 8/8/5 7/7/6 
f 3/9/3 10/12/8 13/15/11 11/16/9 
f 14/17/12 13/15/11 10/12/8 
f 14/18/12 15/19/12 16/20/13 13/21/11 
f 4/4/4 12/22/10 17/23/14 1/1/1 
f 5/5/5 8/8/5 11/13/9 18/24/9 
f 11/16/9 13/15/11 19/25/15 18/26/9 
f 16/20/13 15/19/12 20/27/16 21/28/15 
f 19/25/15 13/15/11 16/20/13 21/28/15 
f 22/29/17 23/30/1 24/31/2 25/32/18 
f 26/33/6 6/6/6 5/5/5 27/34/5 
f 28/35/14 23/36/1 22/37/17 29/38/19 
f 27/34/5 30/39/9 22/29/17 25/32/18 
f 27/34/5 25/32/18 31/40/20 26/33/6 
f 32/41/21 29/38/19 22/37/17 30/42/9 
f 33/43/22 29/38/19 32/41/21 
f 34/44/23 35/45/22 33/46/22 32/47/21 
f 36/48/24 31/49/20 25/32/18 24/31/2 
f 5/5/5 18/24/9 30/39/9 27/34/5 
f 19/25/15 32/41/21 30/42/9 18/26/9 
f 20/27/16 35/45/22 34/44/23 21/28/15 
f 19/25/15 21/28/15 34/44/23 32/41/21 
f 1/1/1 37/4/25 38/3/26 2/2/2 
f 39/5/9 40/8/9 41/7/16 42/6/16 
f 38/9/26 43/12/20 9/11/7 2/10/2 
f 40/8/9 44/13/5 38/3/26 37/4/25 
f 45/14/19 41/7/16 40/8/9 37/4/25 
f 38/9/26 44/16/5 46/15/27 43/12/20 
f 47/17/28 43/12/20 46/15/27 
f 47/18/28 46/21/27 48/20/29 49/19/28 
f 37/4/25 1/1/1 17/23/14 45/22/19 
f 39/5/9 50/24/5 44/13/5 40/8/9 
f 44/16/5 50/26/5 51/25/30 46/15/27 
f 48/20/29 52/28/30 53/27/6 49/19/28 
f 51/25/30 52/28/30 48/20/29 46/15/27 
f 54/29/31 55/32/32 24/31/2 23/30/1 
f 56/33/16 57/34/9 39/5/9 42/6/16 
f 28/35/14 58/38/10 54/37/31 23/36/1 
f 57/34/9 55/32/32 54/29/31 59/39/5 
f 57/34/9 56/33/16 60/40/33 55/32/32 
f 61/41/34 59/42/5 54/37/31 58/38/10 
f 62/43/35 61/41/34 58/38/10 
f 63/44/36 61/47/34 62/46/35 64/45/35 
f 36/48/24 24/31/2 55/32/32 60/49/33 
f 39/5/9 57/34/9 59/39/5 50/24/5 
f 51/25/30 50/26/5 59/42/5 61/41/34 
f 53/27/6 52/28/30 63/44/36 64/45/35 
f 51/25/30 61/41/34 63/44/36 52/28/30 
f 65/1/37 66/4/38 67/3/39 68/2/40 
f 69/5/41 70/8/41 7/7/6 6/6/6 
f 67/9/39 10/12/8 9/11/7 68/10/40 
f 70/8/41 71/13/42 67/3/39 66/4/38 
f 12/14/10 7/7/6 70/8/41 66/4/38 
f 67/9/39 71/16/42 72/15/43 10/12/8 
f 14/17/12 10/12/8 72/15/43 
f 14/18/12 72/21/43 73/20/44 15/19/12 
f 66/4/38 65/1/37 17/23/14 12/22/10 
f 69/5/41 74/24/42 71/13/42 70/8/41 
f 71/16/42 74/26/42 75/25/45 72/15/43 
f 73/20/44 76/28/45 20/27/16 15/19/12 
f 75/25/45 76/28/45 73/20/44 72/15/43 
f 77/29/46 78/32/47 79/31/40 80/30/37 
f 26/33/6 81/34/41 69/5/41 6/6/6 
f 28/35/14 29/38/19 77/37/46 80/36/37 
f 81/34/41 78/32/47 77/29/46 82/39/42 
f 81/34/41 26/33/6 31/40/20 78/32/47 
f 83/41/48 82/42/42 77/37/46 29/38/19 
f 33/43/22 83/41/48 29/38/19 
f 84/44/49 83/47/48 33/46/22 35/45/22 
f 36/48/24 79/31/40 78/32/47 31/49/20 
f 69/5/41 81/34/41 82/39/42 74/24/42 
f 75/25/45 74/26/42 82/42/42 83/41/48 
f 20/27/16 76/28/45 84/44/49 35/45/22 
f 75/25/45 83/41/48 84/44/49 76/28/45 
f 65/1/37 68/2/40 85/3/50 86/4/51 
f 87/5/42 42/6/16 41/7/16 88/8/42 
f 85/9/50 68/10/40 9/11/7 43/12/20 
f 88/8/42 86/4/51 85/3/50 89/13/41 
f 45/14/19 86/4/51 88/8/42 41/7/16 
f 85/9/50 43/12/20 90/15/52 89/16/41 
f 47/17/28 90/15/52 43/12/20 
f 47/18/28 49/19/28 91/20/53 90/21/52 
f 86/4/51 45/22/19 17/23/14 65/1/37 
f 87/5/42 88/8/42 89/13/41 92/24/41 
f 89/16/41 90/15/52 93/25/54 92/26/41 
f 91/20/53 49/19/28 53/27/6 94/28/54 
f 93/25/54 90/15/52 91/20/53 94/28/54 
f 95/29/55 80/30/37 79/31/40 96/32/56 
f 56/33/16 42/6/16 87/5/42 97/34/42 
f 28/35/14 80/36/37 95/37/55 58/38/10 
f 97/34/42 98/39/41 95/29/55 96/32/56 
f 97/34/42 96/32/56 60/40/33 56/33/16 
f 99/41/57 58/38/10 95/37/55 98/42/41 
f 62/43/35 58/38/10 99/41/57 
f 100/44/58 64/45/35 62/46/35 99/47/57 
f 36/48/24 60/49/33 96/32/56 79/31/40 
f 87/5/42 92/24/41 98/39/41 97/34/42 
f 93/25/54 99/41/57 98/42/41 92/26/41 
f 53/27/6 64/45/35 100/44/58 94/28/54 
f 93/25/54 94/28/54 100/44/58 99/41/57 
# 96 polygons - 8 triangles

