%YAML 1.1
%TAG !u! tag:unity3d.com,2011:
--- !u!114 &11400000
MonoBehaviour:
  m_ObjectHideFlags: 0
  m_CorrespondingSourceObject: {fileID: 0}
  m_PrefabInstance: {fileID: 0}
  m_PrefabAsset: {fileID: 0}
  m_GameObject: {fileID: 0}
  m_Enabled: 1
  m_EditorHideFlags: 0
  m_Script: {fileID: 11500000, guid: 91ee9938eedae8c48b2b043617063686, type: 3}
  m_Name: TestGun
  m_EditorClassIdentifier: 
  displayName: Test Gun
  desrcText: This is a test
  projectilePrefab: {fileID: 1568633064938222774, guid: 30e64e87d8fcb76449b4e3bb47b4eddb,
    type: 3}
  shootsPerFire: 1
  ammoPerFire: 1
  autofireRate: 0.1
  bulletSpread: 0
  weaponPrefab: {fileID: 3247945859692496290, guid: 73836d7e3098bf342babf05c36dd26d6,
    type: 3}
  maxAmmo: 100
  weaponSprite: {fileID: 21300000, guid: 3caa4a068dae1c346a8b60e1ab4a579c, type: 3}
  throwDamage: 0
  overrideColor: 0
  color: {r: 1, g: 0.27058828, b: 0.4911517, a: 1}
  type: 0
  fireSFX: {fileID: 11400000, guid: b35a7e7533e7d7b48bad666a40d6eb66, type: 2}
