%YAML 1.1
%TAG !u! tag:unity3d.com,2011:
--- !u!1001 &5450154296800200886
PrefabInstance:
  m_ObjectHideFlags: 0
  serializedVersion: 2
  m_Modification:
    m_TransformParent: {fileID: 4071892475920742849}
    m_Modifications:
    - target: {fileID: 316512402457944889, guid: 08fa55447efaf2c48a7bba00c001eac3,
        type: 3}
      propertyPath: m_Mesh
      value: 
      objectReference: {fileID: 0}
    - target: {fileID: 641008584488458214, guid: 08fa55447efaf2c48a7bba00c001eac3,
        type: 3}
      propertyPath: m_Mesh
      value: 
      objectReference: {fileID: 0}
    - target: {fileID: 824313332302661978, guid: 08fa55447efaf2c48a7bba00c001eac3,
        type: 3}
      propertyPath: m_Mesh
      value: 
      objectReference: {fileID: 0}
    - target: {fileID: 3512198431117280020, guid: 08fa55447efaf2c48a7bba00c001eac3,
        type: 3}
      propertyPath: m_Mesh
      value: 
      objectReference: {fileID: 0}
    - target: {fileID: 3686205845676481960, guid: 08fa55447efaf2c48a7bba00c001eac3,
        type: 3}
      propertyPath: m_Mesh
      value: 
      objectReference: {fileID: 0}
    - target: {fileID: 4291794992207978651, guid: 08fa55447efaf2c48a7bba00c001eac3,
        type: 3}
      propertyPath: m_LocalPosition.x
      value: 0
      objectReference: {fileID: 0}
    - target: {fileID: 4291794992207978651, guid: 08fa55447efaf2c48a7bba00c001eac3,
        type: 3}
      propertyPath: m_LocalPosition.y
      value: 0
      objectReference: {fileID: 0}
    - target: {fileID: 4291794992207978651, guid: 08fa55447efaf2c48a7bba00c001eac3,
        type: 3}
      propertyPath: m_LocalPosition.z
      value: -0.15
      objectReference: {fileID: 0}
    - target: {fileID: 4291794992207978651, guid: 08fa55447efaf2c48a7bba00c001eac3,
        type: 3}
      propertyPath: m_LocalRotation.x
      value: 0
      objectReference: {fileID: 0}
    - target: {fileID: 4291794992207978651, guid: 08fa55447efaf2c48a7bba00c001eac3,
        type: 3}
      propertyPath: m_LocalRotation.y
      value: 0
      objectReference: {fileID: 0}
    - target: {fileID: 4291794992207978651, guid: 08fa55447efaf2c48a7bba00c001eac3,
        type: 3}
      propertyPath: m_LocalRotation.z
      value: 0
      objectReference: {fileID: 0}
    - target: {fileID: 4291794992207978651, guid: 08fa55447efaf2c48a7bba00c001eac3,
        type: 3}
      propertyPath: m_LocalRotation.w
      value: 1
      objectReference: {fileID: 0}
    - target: {fileID: 4291794992207978651, guid: 08fa55447efaf2c48a7bba00c001eac3,
        type: 3}
      propertyPath: m_RootOrder
      value: 0
      objectReference: {fileID: 0}
    - target: {fileID: 4291794992207978651, guid: 08fa55447efaf2c48a7bba00c001eac3,
        type: 3}
      propertyPath: m_LocalEulerAnglesHint.x
      value: 0
      objectReference: {fileID: 0}
    - target: {fileID: 4291794992207978651, guid: 08fa55447efaf2c48a7bba00c001eac3,
        type: 3}
      propertyPath: m_LocalEulerAnglesHint.y
      value: 0
      objectReference: {fileID: 0}
    - target: {fileID: 4291794992207978651, guid: 08fa55447efaf2c48a7bba00c001eac3,
        type: 3}
      propertyPath: m_LocalEulerAnglesHint.z
      value: 0
      objectReference: {fileID: 0}
    - target: {fileID: 4291794992207978651, guid: 08fa55447efaf2c48a7bba00c001eac3,
        type: 3}
      propertyPath: m_LocalScale.x
      value: 0.5
      objectReference: {fileID: 0}
    - target: {fileID: 4291794992207978651, guid: 08fa55447efaf2c48a7bba00c001eac3,
        type: 3}
      propertyPath: m_LocalScale.y
      value: 0.5
      objectReference: {fileID: 0}
    - target: {fileID: 4291794992207978651, guid: 08fa55447efaf2c48a7bba00c001eac3,
        type: 3}
      propertyPath: m_LocalScale.z
      value: 0.5
      objectReference: {fileID: 0}
    - target: {fileID: 4340623891031783371, guid: 08fa55447efaf2c48a7bba00c001eac3,
        type: 3}
      propertyPath: m_Mesh
      value: 
      objectReference: {fileID: 0}
    - target: {fileID: 6901774972061671214, guid: 08fa55447efaf2c48a7bba00c001eac3,
        type: 3}
      propertyPath: m_Mesh
      value: 
      objectReference: {fileID: 0}
    - target: {fileID: 7157098804888584997, guid: 08fa55447efaf2c48a7bba00c001eac3,
        type: 3}
      propertyPath: m_Name
      value: weapon_gunderbuss (1)
      objectReference: {fileID: 0}
    - target: {fileID: 7462609653972454364, guid: 08fa55447efaf2c48a7bba00c001eac3,
        type: 3}
      propertyPath: m_Mesh
      value: 
      objectReference: {fileID: 0}
    - target: {fileID: 7591860735443953775, guid: 08fa55447efaf2c48a7bba00c001eac3,
        type: 3}
      propertyPath: m_IsActive
      value: 0
      objectReference: {fileID: 0}
    - target: {fileID: 7591860735461880079, guid: 08fa55447efaf2c48a7bba00c001eac3,
        type: 3}
      propertyPath: InitialModule.startColor.maxColor.a
      value: 1
      objectReference: {fileID: 0}
    m_RemovedComponents: []
  m_SourcePrefab: {fileID: 100100000, guid: 08fa55447efaf2c48a7bba00c001eac3, type: 3}
--- !u!1001 &8477839524781213962
PrefabInstance:
  m_ObjectHideFlags: 0
  serializedVersion: 2
  m_Modification:
    m_TransformParent: {fileID: 0}
    m_Modifications:
    - target: {fileID: 131541097093470293, guid: 1ebc17de12f45854290960577caf8c59,
        type: 3}
      propertyPath: m_Size.y
      value: 0.425
      objectReference: {fileID: 0}
    - target: {fileID: 131541097093470293, guid: 1ebc17de12f45854290960577caf8c59,
        type: 3}
      propertyPath: m_Center.y
      value: 0.09
      objectReference: {fileID: 0}
    - target: {fileID: 131541097093470293, guid: 1ebc17de12f45854290960577caf8c59,
        type: 3}
      propertyPath: m_Size.z
      value: 1.25
      objectReference: {fileID: 0}
    - target: {fileID: 131541097093470293, guid: 1ebc17de12f45854290960577caf8c59,
        type: 3}
      propertyPath: m_Center.z
      value: 0.4
      objectReference: {fileID: 0}
    - target: {fileID: 131541097093470293, guid: 1ebc17de12f45854290960577caf8c59,
        type: 3}
      propertyPath: m_Size.x
      value: 0.4
      objectReference: {fileID: 0}
    - target: {fileID: 173861711542220420, guid: 1ebc17de12f45854290960577caf8c59,
        type: 3}
      propertyPath: m_LocalPosition.z
      value: 1
      objectReference: {fileID: 0}
    - target: {fileID: 173861711542220420, guid: 1ebc17de12f45854290960577caf8c59,
        type: 3}
      propertyPath: m_LocalPosition.y
      value: 0.25
      objectReference: {fileID: 0}
    - target: {fileID: 3689717950037554390, guid: 1ebc17de12f45854290960577caf8c59,
        type: 3}
      propertyPath: m_LocalPosition.y
      value: 0.25
      objectReference: {fileID: 0}
    - target: {fileID: 3689717950037554390, guid: 1ebc17de12f45854290960577caf8c59,
        type: 3}
      propertyPath: m_LocalPosition.z
      value: 0.4
      objectReference: {fileID: 0}
    - target: {fileID: 3891006446936375133, guid: 1ebc17de12f45854290960577caf8c59,
        type: 3}
      propertyPath: m_LocalPosition.y
      value: 0.25
      objectReference: {fileID: 0}
    - target: {fileID: 3891006446936375133, guid: 1ebc17de12f45854290960577caf8c59,
        type: 3}
      propertyPath: m_LocalPosition.z
      value: 1
      objectReference: {fileID: 0}
    - target: {fileID: 6391825770585902248, guid: 1ebc17de12f45854290960577caf8c59,
        type: 3}
      propertyPath: equipSFX
      value: 
      objectReference: {fileID: 11400000, guid: 604d534227c09e544ab2b86f0ff2bd44,
        type: 2}
    - target: {fileID: 6391825770585902252, guid: 1ebc17de12f45854290960577caf8c59,
        type: 3}
      propertyPath: m_LocalPosition.x
      value: 0
      objectReference: {fileID: 0}
    - target: {fileID: 6391825770585902252, guid: 1ebc17de12f45854290960577caf8c59,
        type: 3}
      propertyPath: m_LocalPosition.y
      value: 0
      objectReference: {fileID: 0}
    - target: {fileID: 6391825770585902252, guid: 1ebc17de12f45854290960577caf8c59,
        type: 3}
      propertyPath: m_LocalPosition.z
      value: 0
      objectReference: {fileID: 0}
    - target: {fileID: 6391825770585902252, guid: 1ebc17de12f45854290960577caf8c59,
        type: 3}
      propertyPath: m_LocalRotation.x
      value: 0
      objectReference: {fileID: 0}
    - target: {fileID: 6391825770585902252, guid: 1ebc17de12f45854290960577caf8c59,
        type: 3}
      propertyPath: m_LocalRotation.y
      value: 0
      objectReference: {fileID: 0}
    - target: {fileID: 6391825770585902252, guid: 1ebc17de12f45854290960577caf8c59,
        type: 3}
      propertyPath: m_LocalRotation.z
      value: 0
      objectReference: {fileID: 0}
    - target: {fileID: 6391825770585902252, guid: 1ebc17de12f45854290960577caf8c59,
        type: 3}
      propertyPath: m_LocalRotation.w
      value: 1
      objectReference: {fileID: 0}
    - target: {fileID: 6391825770585902252, guid: 1ebc17de12f45854290960577caf8c59,
        type: 3}
      propertyPath: m_RootOrder
      value: 0
      objectReference: {fileID: 0}
    - target: {fileID: 6391825770585902252, guid: 1ebc17de12f45854290960577caf8c59,
        type: 3}
      propertyPath: m_LocalEulerAnglesHint.x
      value: 0
      objectReference: {fileID: 0}
    - target: {fileID: 6391825770585902252, guid: 1ebc17de12f45854290960577caf8c59,
        type: 3}
      propertyPath: m_LocalEulerAnglesHint.y
      value: 0
      objectReference: {fileID: 0}
    - target: {fileID: 6391825770585902252, guid: 1ebc17de12f45854290960577caf8c59,
        type: 3}
      propertyPath: m_LocalEulerAnglesHint.z
      value: 0
      objectReference: {fileID: 0}
    - target: {fileID: 6391825770585902255, guid: 1ebc17de12f45854290960577caf8c59,
        type: 3}
      propertyPath: m_Name
      value: Weapon_Base_GunderBuss
      objectReference: {fileID: 0}
    - target: {fileID: 6853336591875885061, guid: 1ebc17de12f45854290960577caf8c59,
        type: 3}
      propertyPath: m_Radius
      value: 0.625
      objectReference: {fileID: 0}
    - target: {fileID: 7895815001077040981, guid: 1ebc17de12f45854290960577caf8c59,
        type: 3}
      propertyPath: m_LocalPosition.y
      value: 0.25
      objectReference: {fileID: 0}
    - target: {fileID: 7895815001077040981, guid: 1ebc17de12f45854290960577caf8c59,
        type: 3}
      propertyPath: m_LocalPosition.z
      value: 0.4
      objectReference: {fileID: 0}
    - target: {fileID: 8015287517464970099, guid: 1ebc17de12f45854290960577caf8c59,
        type: 3}
      propertyPath: m_Radius
      value: 0.625
      objectReference: {fileID: 0}
    m_RemovedComponents: []
  m_SourcePrefab: {fileID: 100100000, guid: 1ebc17de12f45854290960577caf8c59, type: 3}
--- !u!4 &4071892475920742849 stripped
Transform:
  m_CorrespondingSourceObject: {fileID: 5558869670377730251, guid: 1ebc17de12f45854290960577caf8c59,
    type: 3}
  m_PrefabInstance: {fileID: 8477839524781213962}
  m_PrefabAsset: {fileID: 0}
