%YAML 1.1
%TAG !u! tag:unity3d.com,2011:
--- !u!1001 &509019765321245157
PrefabInstance:
  m_ObjectHideFlags: 0
  serializedVersion: 2
  m_Modification:
    m_TransformParent: {fileID: 4811925494231944162}
    m_Modifications:
    - target: {fileID: 5417258221761149914, guid: 447ed489f5641d145b4ce9b69d2fbb71,
        type: 3}
      propertyPath: m_LocalPosition.x
      value: 0
      objectReference: {fileID: 0}
    - target: {fileID: 5417258221761149914, guid: 447ed489f5641d145b4ce9b69d2fbb71,
        type: 3}
      propertyPath: m_LocalPosition.y
      value: 1
      objectReference: {fileID: 0}
    - target: {fileID: 5417258221761149914, guid: 447ed489f5641d145b4ce9b69d2fbb71,
        type: 3}
      propertyPath: m_LocalPosition.z
      value: 0
      objectReference: {fileID: 0}
    - target: {fileID: 5417258221761149914, guid: 447ed489f5641d145b4ce9b69d2fbb71,
        type: 3}
      propertyPath: m_LocalRotation.x
      value: 0
      objectReference: {fileID: 0}
    - target: {fileID: 5417258221761149914, guid: 447ed489f5641d145b4ce9b69d2fbb71,
        type: 3}
      propertyPath: m_LocalRotation.y
      value: 0
      objectReference: {fileID: 0}
    - target: {fileID: 5417258221761149914, guid: 447ed489f5641d145b4ce9b69d2fbb71,
        type: 3}
      propertyPath: m_LocalRotation.z
      value: 0
      objectReference: {fileID: 0}
    - target: {fileID: 5417258221761149914, guid: 447ed489f5641d145b4ce9b69d2fbb71,
        type: 3}
      propertyPath: m_LocalRotation.w
      value: 1
      objectReference: {fileID: 0}
    - target: {fileID: 5417258221761149914, guid: 447ed489f5641d145b4ce9b69d2fbb71,
        type: 3}
      propertyPath: m_RootOrder
      value: 0
      objectReference: {fileID: 0}
    - target: {fileID: 5417258221761149914, guid: 447ed489f5641d145b4ce9b69d2fbb71,
        type: 3}
      propertyPath: m_LocalEulerAnglesHint.x
      value: 0
      objectReference: {fileID: 0}
    - target: {fileID: 5417258221761149914, guid: 447ed489f5641d145b4ce9b69d2fbb71,
        type: 3}
      propertyPath: m_LocalEulerAnglesHint.y
      value: 0
      objectReference: {fileID: 0}
    - target: {fileID: 5417258221761149914, guid: 447ed489f5641d145b4ce9b69d2fbb71,
        type: 3}
      propertyPath: m_LocalEulerAnglesHint.z
      value: 0
      objectReference: {fileID: 0}
    - target: {fileID: 8958010573009837494, guid: 447ed489f5641d145b4ce9b69d2fbb71,
        type: 3}
      propertyPath: m_Name
      value: pickup_armor_small
      objectReference: {fileID: 0}
    m_RemovedComponents: []
  m_SourcePrefab: {fileID: 100100000, guid: 447ed489f5641d145b4ce9b69d2fbb71, type: 3}
--- !u!1001 &605523174175600612
PrefabInstance:
  m_ObjectHideFlags: 0
  serializedVersion: 2
  m_Modification:
    m_TransformParent: {fileID: 0}
    m_Modifications:
    - target: {fileID: 3191085401242214445, guid: 5da7f2f2496053c46b137fceb706a0fb,
        type: 3}
      propertyPath: pType
      value: 2
      objectReference: {fileID: 0}
    - target: {fileID: 3191085401242214445, guid: 5da7f2f2496053c46b137fceb706a0fb,
        type: 3}
      propertyPath: amount
      value: 10
      objectReference: {fileID: 0}
    - target: {fileID: 5377338224815995042, guid: 5da7f2f2496053c46b137fceb706a0fb,
        type: 3}
      propertyPath: m_LocalPosition.x
      value: 0
      objectReference: {fileID: 0}
    - target: {fileID: 5377338224815995042, guid: 5da7f2f2496053c46b137fceb706a0fb,
        type: 3}
      propertyPath: m_LocalPosition.y
      value: 0
      objectReference: {fileID: 0}
    - target: {fileID: 5377338224815995042, guid: 5da7f2f2496053c46b137fceb706a0fb,
        type: 3}
      propertyPath: m_LocalPosition.z
      value: 0
      objectReference: {fileID: 0}
    - target: {fileID: 5377338224815995042, guid: 5da7f2f2496053c46b137fceb706a0fb,
        type: 3}
      propertyPath: m_LocalRotation.x
      value: 0
      objectReference: {fileID: 0}
    - target: {fileID: 5377338224815995042, guid: 5da7f2f2496053c46b137fceb706a0fb,
        type: 3}
      propertyPath: m_LocalRotation.y
      value: 0
      objectReference: {fileID: 0}
    - target: {fileID: 5377338224815995042, guid: 5da7f2f2496053c46b137fceb706a0fb,
        type: 3}
      propertyPath: m_LocalRotation.z
      value: 0
      objectReference: {fileID: 0}
    - target: {fileID: 5377338224815995042, guid: 5da7f2f2496053c46b137fceb706a0fb,
        type: 3}
      propertyPath: m_LocalRotation.w
      value: 1
      objectReference: {fileID: 0}
    - target: {fileID: 5377338224815995042, guid: 5da7f2f2496053c46b137fceb706a0fb,
        type: 3}
      propertyPath: m_RootOrder
      value: 0
      objectReference: {fileID: 0}
    - target: {fileID: 5377338224815995042, guid: 5da7f2f2496053c46b137fceb706a0fb,
        type: 3}
      propertyPath: m_LocalEulerAnglesHint.x
      value: 0
      objectReference: {fileID: 0}
    - target: {fileID: 5377338224815995042, guid: 5da7f2f2496053c46b137fceb706a0fb,
        type: 3}
      propertyPath: m_LocalEulerAnglesHint.y
      value: 0
      objectReference: {fileID: 0}
    - target: {fileID: 5377338224815995042, guid: 5da7f2f2496053c46b137fceb706a0fb,
        type: 3}
      propertyPath: m_LocalEulerAnglesHint.z
      value: 0
      objectReference: {fileID: 0}
    - target: {fileID: 5377338224815995045, guid: 5da7f2f2496053c46b137fceb706a0fb,
        type: 3}
      propertyPath: m_Name
      value: PickUp ARMOR small
      objectReference: {fileID: 0}
    m_RemovedComponents: []
  m_SourcePrefab: {fileID: 100100000, guid: 5da7f2f2496053c46b137fceb706a0fb, type: 3}
--- !u!4 &4811925494231944162 stripped
Transform:
  m_CorrespondingSourceObject: {fileID: 5377338226528199686, guid: 5da7f2f2496053c46b137fceb706a0fb,
    type: 3}
  m_PrefabInstance: {fileID: 605523174175600612}
  m_PrefabAsset: {fileID: 0}
