# 3ds Max Wavefront OBJ Exporter v0.97b - (c)2007 guruware
# File Created: 11.10.2020 17:43:29

#
# object weapon_railgun
#

v  0.0000 0.1637 -0.3766
v  0.0000 0.2780 -0.3766
v  0.0614 0.2780 -0.3766
v  0.0614 0.1637 -0.3766
v  0.0000 -0.1011 -0.2701
v  0.0000 -0.0267 -0.3766
v  0.0306 -0.0267 -0.3766
v  0.0306 -0.1011 -0.2701
v  0.0401 0.0371 -0.2130
v  0.0448 0.0628 -0.3766
v  0.0614 0.1637 -0.1652
v  0.0000 0.0628 -0.3766
v  0.0595 -0.1405 -0.1305
v  0.0604 0.0116 -0.0896
v  0.0000 0.0371 -0.2130
v  0.0000 0.0116 -0.0896
v  0.0614 0.2780 0.0128
v  0.0614 0.1637 0.0128
v  0.0614 0.2780 -0.1652
v  0.0000 0.2780 1.4078
v  0.0000 0.1637 1.4078
v  0.0614 0.1637 1.4078
v  0.0614 0.2780 1.4078
v  0.0614 0.1637 0.7386
v  0.0614 0.1637 0.4647
v  0.0614 0.2780 0.4647
v  0.0614 0.2780 0.7386
v  0.0459 0.0705 0.6986
v  0.0459 0.0705 0.4447
v  0.0000 0.0705 0.6986
v  0.0000 0.0705 0.4447
v  0.0000 0.3385 -0.3270
v  0.0000 0.4657 -0.3270
v  0.0899 0.4284 -0.3270
v  0.1272 0.3385 -0.3270
v  0.0899 0.2485 -0.3270
v  0.0000 0.2113 -0.3270
v  0.0000 0.3385 0.2295
v  0.1272 0.3385 0.2295
v  0.0899 0.4284 0.2295
v  0.0000 0.4657 0.2295
v  0.0000 0.2113 0.2295
v  0.0899 0.2485 0.2295
v  0.0000 0.4657 -0.1415
v  0.0000 0.4657 0.0440
v  0.0899 0.4284 0.0440
v  0.0899 0.4284 -0.1415
v  0.1272 0.3385 0.0440
v  0.1272 0.3385 -0.1415
v  0.0899 0.2485 0.0440
v  0.0899 0.2485 -0.1415
v  0.0000 0.2113 0.0440
v  0.0000 0.2113 -0.1415
v  0.0000 0.4216 0.2471
v  0.0668 0.4755 0.2471
v  0.1565 0.3974 0.2471
v  0.0000 0.3071 0.2471
v  0.1565 0.2167 0.2471
v  0.0000 0.1263 0.2471
v  0.0668 0.4755 0.3374
v  0.1565 0.3974 0.3374
v  0.1565 0.2167 0.3374
v  0.0000 0.1263 0.3374
v  0.0000 0.4216 0.3374
v  0.0000 0.3071 0.3374
v  0.1342 0.3071 1.1154
v  0.1342 0.3071 0.8616
v  0.0671 0.4233 0.8616
v  0.0671 0.4233 1.1154
v  0.0671 0.1908 1.1154
v  0.0671 0.1908 0.8616
v  0.0000 0.1908 1.1154
v  0.0000 0.1908 0.8616
v  0.0580 0.4076 1.3692
v  0.1161 0.3071 1.3692
v  0.1342 0.3071 1.3692
v  0.0671 0.4233 1.3692
v  0.0580 0.2065 1.3692
v  0.0671 0.1908 1.3692
v  0.0000 0.2065 1.3692
v  0.0000 0.1908 1.3692
v  0.0580 0.4076 0.3539
v  0.0671 0.4233 0.3539
v  0.1342 0.3071 0.3539
v  0.1161 0.3071 0.3539
v  0.0671 0.1908 0.3539
v  0.0580 0.2065 0.3539
v  0.0580 0.4076 0.8616
v  0.0580 0.4076 1.1154
v  0.0000 0.2065 0.6077
v  0.0000 0.2065 0.8616
v  0.0580 0.2065 0.8616
v  0.0580 0.2065 0.6077
v  0.1161 0.3071 0.8616
v  0.1161 0.3071 0.6077
v  0.0580 0.4076 0.6077
v  0.0693 0.0564 1.0534
v  0.0693 0.0564 0.8203
v  0.0925 0.1815 0.8203
v  0.0925 0.1815 1.0535
v  0.0000 0.0564 1.0534
v  0.0000 0.0564 0.8203
v  0.0000 0.1637 0.2295
v  0.0000 0.1637 0.0128
v  0.0614 0.1637 0.2295
v  0.0614 0.2780 0.2295
v  0.0000 0.2780 0.0128
v  0.0000 0.2780 0.2295
v  0.0000 0.1637 -0.1652
v  0.0614 0.2780 0.9616
v  0.0614 0.2780 1.1847
v  0.0614 0.1637 1.1847
v  0.0614 0.1637 0.9616
v  0.0459 0.0705 0.2295
v  0.0459 0.0705 1.1315
v  0.0459 0.0705 0.9151
v  0.0000 0.0705 0.2295
v  0.0000 0.2780 0.9616
v  0.0000 0.2780 1.1847
v  0.0459 0.0705 1.3479
v  0.0000 0.0705 0.9151
v  0.0693 0.0564 0.5871
v  0.0693 0.0564 0.3539
v  0.0925 0.1815 0.3539
v  0.0925 0.1815 0.5871
v  0.0925 0.1815 1.2866
v  0.0693 0.0564 1.2866
v  0.0000 0.0564 0.5871
v  0.0000 0.0564 0.3539
v  0.0000 0.1815 1.0535
v  0.0000 0.1815 1.2866
v  0.1342 0.3071 0.6077
v  0.0671 0.4233 0.6077
v  0.0671 0.1908 0.6077
v  0.0000 0.1908 0.6077
v  0.0000 0.1908 0.3539
v  0.0000 0.2065 1.1154
v  0.0580 0.2065 1.1154
v  0.1161 0.3071 1.1154
v  0.0000 0.0705 1.3479
v  0.0000 -0.1405 -0.1305
v  0.0000 0.2780 -0.1652
v  0.0000 0.2780 0.7386
v  0.0000 0.2780 0.4647
v  0.0000 0.2065 0.3539
v  0.0000 0.1815 0.8203
v  0.0000 0.0564 1.2866
v  0.0000 0.1815 0.3539
v  0.0000 0.0705 1.1315
v  0.0000 0.1815 0.5871
v  0.0604 0.0000 -0.0000
v  0.0595 -0.1637 -0.0328
v  0.0000 -0.1637 -0.0328
v  0.0595 -0.1870 0.0650
v  0.0000 -0.1870 0.0650
v  0.0000 -0.0116 0.0896
v  0.0604 -0.0116 0.0896
v  0.0514 0.1637 0.1143
v  0.0000 0.1637 0.1143
v  0.0514 0.1637 0.0328
v  0.0000 0.1637 -0.0488
v  0.0514 0.1637 -0.0488
v  -0.0614 0.1637 -0.3766
v  -0.0614 0.2780 -0.3766
v  -0.0306 -0.1011 -0.2701
v  -0.0306 -0.0267 -0.3766
v  -0.0401 0.0371 -0.2130
v  -0.0614 0.1637 -0.1652
v  -0.0448 0.0628 -0.3766
v  -0.0595 -0.1405 -0.1305
v  -0.0604 0.0116 -0.0896
v  -0.0614 0.2780 0.0128
v  -0.0614 0.2780 -0.1652
v  -0.0614 0.1637 0.0128
v  -0.0614 0.2780 1.4078
v  -0.0614 0.1637 1.4078
v  -0.0614 0.1637 0.7386
v  -0.0614 0.2780 0.7386
v  -0.0614 0.2780 0.4647
v  -0.0614 0.1637 0.4647
v  -0.0459 0.0705 0.6986
v  -0.0459 0.0705 0.4447
v  -0.1272 0.3385 -0.3270
v  -0.0899 0.4284 -0.3270
v  -0.0899 0.2485 -0.3270
v  -0.0899 0.4284 0.2295
v  -0.1272 0.3385 0.2295
v  -0.0899 0.2485 0.2295
v  -0.0899 0.4284 -0.1415
v  -0.0899 0.4284 0.0440
v  -0.1272 0.3385 -0.1415
v  -0.1272 0.3385 0.0440
v  -0.0899 0.2485 -0.1415
v  -0.0899 0.2485 0.0440
v  -0.1565 0.3974 0.2471
v  -0.0668 0.4755 0.2471
v  -0.1565 0.2167 0.2471
v  -0.0668 0.4755 0.3374
v  -0.1565 0.3974 0.3374
v  -0.1565 0.2167 0.3374
v  -0.1342 0.3071 1.1154
v  -0.0671 0.4233 1.1154
v  -0.0671 0.4233 0.8616
v  -0.1342 0.3071 0.8616
v  -0.0671 0.1908 1.1154
v  -0.0671 0.1908 0.8616
v  -0.0580 0.4076 1.3692
v  -0.0671 0.4233 1.3692
v  -0.1342 0.3071 1.3692
v  -0.1161 0.3071 1.3692
v  -0.0671 0.1908 1.3692
v  -0.0580 0.2065 1.3692
v  -0.0580 0.4076 0.3539
v  -0.1161 0.3071 0.3539
v  -0.1342 0.3071 0.3539
v  -0.0671 0.4233 0.3539
v  -0.0580 0.2065 0.3539
v  -0.0671 0.1908 0.3539
v  -0.0580 0.4076 1.1154
v  -0.0580 0.4076 0.8616
v  -0.0580 0.2065 0.6077
v  -0.0580 0.2065 0.8616
v  -0.1161 0.3071 0.6077
v  -0.1161 0.3071 0.8616
v  -0.0580 0.4076 0.6077
v  -0.0693 0.0564 1.0534
v  -0.0925 0.1815 1.0535
v  -0.0925 0.1815 0.8203
v  -0.0693 0.0564 0.8203
v  -0.0614 0.1637 0.2295
v  -0.0614 0.2780 0.2295
v  -0.0614 0.2780 0.9616
v  -0.0614 0.1637 0.9616
v  -0.0614 0.1637 1.1847
v  -0.0614 0.2780 1.1847
v  -0.0459 0.0705 0.2295
v  -0.0459 0.0705 0.9151
v  -0.0459 0.0705 1.1315
v  -0.0459 0.0705 1.3479
v  -0.0693 0.0564 0.5871
v  -0.0925 0.1815 0.5871
v  -0.0925 0.1815 0.3539
v  -0.0693 0.0564 0.3539
v  -0.0693 0.0564 1.2866
v  -0.0925 0.1815 1.2866
v  -0.1342 0.3071 0.6077
v  -0.0671 0.4233 0.6077
v  -0.0671 0.1908 0.6077
v  -0.0580 0.2065 1.1154
v  -0.1161 0.3071 1.1154
v  -0.0595 -0.1637 -0.0328
v  -0.0604 0.0000 -0.0000
v  -0.0595 -0.1870 0.0650
v  -0.0514 0.1637 0.1143
v  -0.0604 -0.0116 0.0896
v  -0.0514 0.1637 0.0328
v  -0.0514 0.1637 -0.0488
# 257 vertices

vn 0.0000 0.0000 -1.0000
vn 0.0000 0.7071 -0.7071
vn 0.5774 0.5774 -0.5774
vn 0.7221 -0.0588 -0.6893
vn 0.0000 -0.9037 -0.4281
vn -0.0000 -0.4622 -0.8868
vn 0.5436 -0.4143 -0.7300
vn 0.6210 -0.6825 -0.3854
vn 0.9344 0.1335 0.3304
vn 0.6986 -0.1128 -0.7066
vn 0.8553 -0.4477 0.2610
vn 0.7182 -0.6524 -0.2421
vn 0.8909 0.3656 -0.2696
vn 0.0000 0.4822 0.8761
vn 0.0000 0.8514 -0.5245
vn 0.7071 0.7071 -0.0000
vn 0.7071 -0.7071 -0.0000
vn 0.0000 0.7071 0.7071
vn 0.0000 -0.2816 0.9595
vn 0.6584 -0.2410 0.7131
vn 0.5774 0.5774 0.5774
vn 0.9966 -0.0819 -0.0000
vn 0.6468 -0.7626 -0.0000
vn 0.0000 -1.0000 -0.0000
vn 0.0000 0.7764 -0.6303
vn 0.5490 0.5490 -0.6303
vn 0.7764 -0.0000 -0.6303
vn 0.5490 -0.5490 -0.6303
vn 0.0000 -0.7764 -0.6303
vn 0.0000 0.0000 1.0000
vn 0.7764 -0.0000 0.6303
vn 0.5490 0.5490 0.6303
vn 0.0000 0.7764 0.6303
vn 0.0000 -0.7764 0.6303
vn 0.5490 -0.5490 0.6303
vn 0.0000 1.0000 -0.0000
vn 1.0000 -0.0000 0.0000
vn 1.0000 -0.0000 -0.0000
vn -0.0000 0.4777 -0.8785
vn 0.0153 0.8093 -0.5872
vn 0.7107 0.3236 -0.6246
vn 0.6862 -0.3961 -0.6100
vn 0.0000 -0.7923 -0.6101
vn 0.0153 0.8093 0.5872
vn 0.7107 0.3236 0.6246
vn 0.6862 -0.3961 0.6100
vn 0.0000 -0.7923 0.6101
vn -0.0000 0.4777 0.8785
vn 1.0000 0.0000 -0.0000
vn 0.5000 -0.8660 -0.0000
vn -0.7924 0.0000 0.6100
vn -0.5447 -0.0000 0.8386
vn 0.7924 0.0000 0.6100
vn 0.0000 0.8320 0.5547
vn -0.2724 0.4717 0.8386
vn 0.3962 -0.6862 0.6100
vn 0.0000 -0.7071 0.7071
vn -0.7924 0.0000 -0.6100
vn 0.0000 0.8320 -0.5547
vn 0.7924 0.0000 -0.6100
vn -0.5447 -0.0000 -0.8386
vn 0.3962 -0.6862 -0.6100
vn -0.2724 0.4717 -0.8386
vn -1.0000 0.0000 -0.0000
vn -0.5000 0.8660 -0.0000
vn -1.0000 -0.0000 -0.0000
vn 0.6392 -0.7690 -0.0000
vn 0.7690 0.6392 -0.0000
vn 0.0000 -0.7071 -0.7071
vn 0.8974 -0.3495 -0.2691
vn 0.0000 -0.8225 0.5687
vn 0.5238 -0.6177 -0.5865
vn 0.5516 -0.7443 0.3765
vn 0.5172 -0.6223 -0.5876
vn 0.6328 0.5259 -0.5683
vn 0.6328 0.5259 0.5683
vn 0.5172 -0.6223 0.5876
vn 0.0000 -0.8776 0.4794
vn 0.0000 -0.9679 -0.2515
vn 0.9997 0.0240 0.0031
vn 0.7051 -0.6898 -0.1641
vn 0.0000 -0.9729 -0.2314
vn 0.5710 -0.6786 0.4621
vn 0.0000 -0.8261 0.5636
vn 0.0000 -0.1394 0.9902
vn 0.7132 -0.0815 0.6962
vn 0.6632 -0.0708 0.7451
vn 0.9985 0.0549 -0.0000
vn 0.0000 0.2596 -0.9657
vn 0.7408 0.2149 -0.6364
vn -0.7221 -0.0588 -0.6893
vn -0.5774 0.5774 -0.5774
vn -0.6210 -0.6825 -0.3854
vn -0.5436 -0.4143 -0.7300
vn -0.9344 0.1335 0.3304
vn -0.8553 -0.4477 0.2610
vn -0.6986 -0.1128 -0.7065
vn -0.7182 -0.6524 -0.2420
vn -0.8909 0.3656 -0.2696
vn -0.7071 0.7071 -0.0000
vn -0.7071 -0.7071 -0.0000
vn -0.5774 0.5774 0.5774
vn -0.6584 -0.2410 0.7131
vn -0.9966 -0.0819 -0.0000
vn -0.6468 -0.7626 -0.0000
vn -0.7764 -0.0000 -0.6303
vn -0.5490 0.5490 -0.6303
vn -0.5490 -0.5490 -0.6303
vn -0.5490 0.5490 0.6303
vn -0.7764 -0.0000 0.6302
vn -0.5489 -0.5490 0.6303
vn -1.0000 -0.0000 0.0000
vn -0.7107 0.3236 -0.6246
vn -0.0153 0.8093 -0.5872
vn -0.6862 -0.3961 -0.6100
vn -0.0153 0.8093 0.5872
vn -0.7107 0.3236 0.6246
vn -0.6862 -0.3961 0.6100
vn -0.0000 1.0000 -0.0000
vn -0.5000 -0.8660 -0.0000
vn -0.0000 0.8320 0.5547
vn 0.5447 -0.0000 0.8386
vn -0.3962 -0.6862 0.6100
vn 0.2724 0.4717 0.8386
vn 0.5447 -0.0000 -0.8386
vn -0.0000 0.8320 -0.5547
vn 0.2724 0.4717 -0.8386
vn -0.3962 -0.6862 -0.6100
vn 0.5000 0.8660 -0.0000
vn -0.6392 -0.7690 -0.0000
vn -0.7690 0.6392 -0.0000
vn -0.8974 -0.3495 -0.2691
vn -0.5238 -0.6177 -0.5865
vn -0.5516 -0.7443 0.3765
vn -0.6328 0.5259 -0.5683
vn -0.5172 -0.6223 -0.5876
vn -0.5172 -0.6223 0.5876
vn -0.6328 0.5259 0.5683
vn -0.7051 -0.6899 -0.1641
vn -0.9997 0.0240 0.0031
vn -0.5710 -0.6786 0.4621
vn -0.6632 -0.0708 0.7451
vn -0.7132 -0.0815 0.6962
vn -0.9985 0.0549 -0.0000
vn -0.7408 0.2149 -0.6364
# 145 vertex normals

vt 0.5462 0.6788 0.0000
vt 0.5462 0.7072 0.0000
vt 0.5337 0.7072 0.0000
vt 0.5337 0.6788 0.0000
vt 0.4903 0.6107 0.0000
vt 0.5337 0.6107 0.0000
vt 0.5337 0.6214 0.0000
vt 0.4903 0.6214 0.0000
vt 0.4905 0.6494 0.0000
vt 0.5337 0.6502 0.0000
vt 0.4900 0.6792 0.0000
vt 0.5462 0.6502 0.0000
vt 0.4578 0.6214 0.0000
vt 0.4578 0.6502 0.0000
vt 0.4905 0.6632 0.0000
vt 0.4578 0.6632 0.0000
vt 0.4448 0.7072 0.0000
vt 0.4448 0.6788 0.0000
vt 0.4903 0.7072 0.0000
vt 0.4889 0.9331 0.0000
vt 0.4889 0.9617 0.0000
vt 0.4748 0.9617 0.0000
vt 0.4748 0.9331 0.0000
vt 0.3122 0.9617 0.0000
vt 0.2467 0.9617 0.0000
vt 0.2467 0.9331 0.0000
vt 0.3122 0.9331 0.0000
vt 0.3122 0.9866 0.0000
vt 0.2467 0.9866 0.0000
vt 0.3122 0.9979 0.0000
vt 0.2467 0.9979 0.0000
vt 0.5180 0.1545 0.0000
vt 0.5180 0.1265 0.0000
vt 0.5444 0.1265 0.0000
vt 0.5444 0.1545 0.0000
vt 0.5444 0.1825 0.0000
vt 0.5180 0.1825 0.0000
vt 0.7072 0.1545 0.0000
vt 0.6808 0.1545 0.0000
vt 0.6808 0.1265 0.0000
vt 0.7072 0.1265 0.0000
vt 0.7072 0.1825 0.0000
vt 0.6808 0.1825 0.0000
vt 0.5900 0.1034 0.0000
vt 0.6353 0.1034 0.0000
vt 0.6353 0.1265 0.0000
vt 0.5900 0.1265 0.0000
vt 0.6353 0.1545 0.0000
vt 0.5900 0.1545 0.0000
vt 0.6353 0.1825 0.0000
vt 0.5900 0.1825 0.0000
vt 0.6353 0.2055 0.0000
vt 0.5900 0.2055 0.0000
vt 0.6536 0.3327 0.0000
vt 0.6670 0.3492 0.0000
vt 0.6476 0.3715 0.0000
vt 0.6252 0.3327 0.0000
vt 0.6028 0.3715 0.0000
vt 0.5804 0.3327 0.0000
vt 0.6771 0.3939 0.0000
vt 0.6476 0.3939 0.0000
vt 0.6771 0.3715 0.0000
vt 0.6028 0.3939 0.0000
vt 0.5580 0.3939 0.0000
vt 0.5580 0.3715 0.0000
vt 0.6536 0.4326 0.0000
vt 0.6252 0.4326 0.0000
vt 0.6670 0.4161 0.0000
vt 0.5804 0.4326 0.0000
vt 0.3705 0.8675 0.0000
vt 0.3075 0.8675 0.0000
vt 0.3075 0.8346 0.0000
vt 0.3705 0.8346 0.0000
vt 0.3705 0.8999 0.0000
vt 0.3075 0.8999 0.0000
vt 0.3705 0.9161 0.0000
vt 0.3075 0.9161 0.0000
vt 0.4374 0.8375 0.0000
vt 0.4374 0.8675 0.0000
vt 0.4334 0.8675 0.0000
vt 0.4334 0.8346 0.0000
vt 0.4374 0.8999 0.0000
vt 0.4334 0.8999 0.0000
vt 0.4374 0.9161 0.0000
vt 0.4334 0.9161 0.0000
vt 0.1776 0.8375 0.0000
vt 0.1816 0.8346 0.0000
vt 0.1816 0.8675 0.0000
vt 0.1776 0.8675 0.0000
vt 0.1816 0.8999 0.0000
vt 0.1776 0.8999 0.0000
vt 0.3075 0.8300 0.0000
vt 0.3705 0.8300 0.0000
vt 0.2445 0.7580 0.0000
vt 0.3075 0.7580 0.0000
vt 0.3075 0.7724 0.0000
vt 0.2445 0.7724 0.0000
vt 0.3075 0.8012 0.0000
vt 0.2445 0.8012 0.0000
vt 0.2445 0.8300 0.0000
vt 0.5220 0.0555 0.0000
vt 0.4643 0.0555 0.0000
vt 0.4643 0.0242 0.0000
vt 0.5220 0.0242 0.0000
vt 0.5220 0.0725 0.0000
vt 0.4643 0.0725 0.0000
vt 0.6984 0.3715 0.0000
vt 0.6984 0.3939 0.0000
vt 0.3912 0.6639 0.0000
vt 0.4448 0.6639 0.0000
vt 0.3912 0.6788 0.0000
vt 0.3912 0.7072 0.0000
vt 0.4448 0.7225 0.0000
vt 0.3912 0.7225 0.0000
vt 0.4900 0.6639 0.0000
vt 0.6808 0.1034 0.0000
vt 0.5444 0.1034 0.0000
vt 0.6808 0.2055 0.0000
vt 0.5444 0.2055 0.0000
vt 0.1905 0.9617 0.0000
vt 0.1905 0.9331 0.0000
vt 0.3664 0.9331 0.0000
vt 0.4206 0.9331 0.0000
vt 0.4206 0.9617 0.0000
vt 0.3664 0.9617 0.0000
vt 0.1905 0.9866 0.0000
vt 0.4206 0.9866 0.0000
vt 0.3664 0.9866 0.0000
vt 0.1905 0.9979 0.0000
vt 0.3664 0.9180 0.0000
vt 0.4206 0.9180 0.0000
vt 0.4748 0.9866 0.0000
vt 0.3664 0.9979 0.0000
vt 0.4748 0.9180 0.0000
vt 0.4065 0.0555 0.0000
vt 0.3488 0.0555 0.0000
vt 0.3488 0.0242 0.0000
vt 0.4065 0.0242 0.0000
vt 0.5798 0.0242 0.0000
vt 0.5798 0.0555 0.0000
vt 0.4065 0.0725 0.0000
vt 0.3488 0.0725 0.0000
vt 0.5220 0.0010 0.0000
vt 0.5798 0.0010 0.0000
vt 0.2445 0.8675 0.0000
vt 0.2445 0.8346 0.0000
vt 0.2445 0.8999 0.0000
vt 0.2445 0.9161 0.0000
vt 0.1816 0.9161 0.0000
vt 0.1816 0.8300 0.0000
vt 0.4334 0.8300 0.0000
vt 0.3705 0.7580 0.0000
vt 0.4334 0.7580 0.0000
vt 0.4334 0.7724 0.0000
vt 0.3705 0.7724 0.0000
vt 0.4334 0.8012 0.0000
vt 0.3705 0.8012 0.0000
vt 0.1816 0.8012 0.0000
vt 0.1816 0.7724 0.0000
vt 0.4889 0.9866 0.0000
vt 0.4770 0.6792 0.0000
vt 0.4769 0.6494 0.0000
vt 0.5462 0.6214 0.0000
vt 0.4578 0.6107 0.0000
vt 0.4903 0.7225 0.0000
vt 0.3122 0.9180 0.0000
vt 0.2467 0.9180 0.0000
vt 0.1776 0.9161 0.0000
vt 0.4643 0.0010 0.0000
vt 0.5998 0.0242 0.0000
vt 0.5998 0.0555 0.0000
vt 0.3288 0.0242 0.0000
vt 0.3288 0.0555 0.0000
vt 0.5337 0.7225 0.0000
vt 0.1776 0.9617 0.0000
vt 0.1776 0.9866 0.0000
vt 0.4206 0.9979 0.0000
vt 0.1905 0.9180 0.0000
vt 0.4748 0.9979 0.0000
vt 0.5798 0.0725 0.0000
vt 0.4065 0.0010 0.0000
vt 0.3488 0.0010 0.0000
vt 0.1816 0.7580 0.0000
vt 0.9557 0.9370 0.0000
vt 0.9557 0.9606 0.0000
vt 0.9142 0.9606 0.0000
vt 0.9142 0.9370 0.0000
vt 0.8995 0.9606 0.0000
vt 0.9142 0.9840 0.0000
vt 0.8995 0.9840 0.0000
vt 0.9557 0.9980 0.0000
vt 0.9557 0.9840 0.0000
vt 0.9972 0.9840 0.0000
vt 0.9972 0.9980 0.0000
vt 0.9972 0.9606 0.0000
vt 0.9557 0.9229 0.0000
vt 0.9972 0.9229 0.0000
vt 0.9972 0.9370 0.0000
vt 0.9142 0.9980 0.0000
vt 0.8995 0.9370 0.0000
# 200 texture coords

o weapon_railgun
g weapon_railgun
s off
f 1/1/1 2/2/2 3/3/3 4/4/4 
f 5/5/5 6/6/6 7/7/7 8/8/8 
f 9/9/9 10/10/10 4/4/4 11/11/11 
f 10/10/10 12/12/1 1/1/1 4/4/4 
f 9/9/9 8/8/8 7/7/7 10/10/10 
f 13/13/12 8/8/8 9/9/9 14/14/13 
f 9/9/9 15/15/14 16/16/15 14/14/13 
f 17/17/16 18/18/17 11/11/11 19/19/16 
f 20/20/18 21/21/19 22/22/20 23/23/21 
f 19/19/16 11/11/11 4/4/4 3/3/3 
f 24/24/22 25/25/22 26/26/16 27/27/16 
f 28/28/23 29/29/23 25/25/22 24/24/22 
f 30/30/24 31/31/24 29/29/23 28/28/23 
f 32/32/1 33/33/25 34/34/26 35/35/27 
f 32/32/1 35/35/27 36/36/28 37/37/29 
f 38/38/30 39/39/31 40/40/32 41/41/33 
f 38/38/30 42/42/34 43/43/35 39/39/31 
f 44/44/36 45/45/36 46/46/16 47/47/16 
f 47/47/16 46/46/16 48/48/37 49/49/38 
f 49/49/38 48/48/37 50/50/17 51/51/17 
f 51/51/17 50/50/17 52/52/24 53/53/24 
f 54/54/39 55/55/40 56/56/41 57/57/1 
f 57/57/1 56/56/41 58/58/42 
f 57/57/1 58/58/42 59/59/43 
f 60/60/44 61/61/45 56/56/41 55/62/40 
f 61/61/45 62/63/46 58/58/42 56/56/41 
f 62/63/46 63/64/47 59/65/43 58/58/42 
f 64/66/48 65/67/30 61/61/45 60/68/44 
f 61/61/45 65/67/30 62/63/46 
f 62/63/46 65/67/30 63/69/47 
f 66/70/49 67/71/49 68/72/36 69/73/36 
f 70/74/50 71/75/50 67/71/49 66/70/49 
f 72/76/24 73/77/24 71/75/50 70/74/50 
f 74/78/51 75/79/52 76/80/53 77/81/54 
f 75/79/52 78/82/55 79/83/56 76/80/53 
f 78/82/55 80/84/18 81/85/57 79/83/56 
f 82/86/58 83/87/59 84/88/60 85/89/61 
f 85/89/61 84/88/60 86/90/62 87/91/63 
f 69/73/36 68/72/36 88/92/64 89/93/64 
f 90/94/36 91/95/36 92/96/65 93/97/65 
f 93/97/65 92/96/65 94/98/66 95/99/66 
f 95/99/66 94/98/66 88/92/64 96/100/64 
f 97/101/67 98/102/67 99/103/68 100/104/68 
f 101/105/24 102/106/24 98/102/67 97/101/67 
f 55/62/40 54/107/39 64/108/48 60/60/44 
f 103/109/69 104/110/24 18/18/17 105/111/70 
f 17/17/16 106/112/16 105/111/70 18/18/17 
f 107/113/36 108/114/36 106/112/16 17/17/16 
f 104/110/24 109/115/71 11/11/11 18/18/17 
f 45/45/36 41/116/33 40/40/32 46/46/16 
f 47/47/16 34/34/26 33/117/25 44/44/36 
f 46/46/16 40/40/32 39/39/31 48/48/37 
f 49/49/38 35/35/27 34/34/26 47/47/16 
f 48/48/37 39/39/31 43/43/35 50/50/17 
f 51/51/17 36/36/28 35/35/27 49/49/38 
f 50/50/17 43/43/35 42/118/34 52/52/24 
f 53/53/24 37/119/29 36/36/28 51/51/17 
f 25/25/22 105/120/70 106/121/16 26/26/16 
f 110/122/16 111/123/16 112/124/22 113/125/22 
f 29/29/23 114/126/72 105/120/70 25/25/22 
f 113/125/22 112/124/22 115/127/23 116/128/23 
f 31/31/24 117/129/69 114/126/72 29/29/23 
f 118/130/36 119/131/36 111/123/16 110/122/16 
f 111/123/16 23/23/21 22/22/20 112/124/22 
f 113/125/22 24/24/22 27/27/16 110/122/16 
f 112/124/22 22/22/20 120/132/73 115/127/23 
f 116/128/23 28/28/23 24/24/22 113/125/22 
f 121/133/24 30/30/24 28/28/23 116/128/23 
f 119/131/36 20/134/18 23/23/21 111/123/16 
f 122/135/67 123/136/74 124/137/75 125/138/68 
f 98/102/67 122/135/67 125/138/68 99/103/68 
f 100/104/68 126/139/76 127/140/77 97/101/67 
f 128/141/24 129/142/69 123/136/74 122/135/67 
f 102/106/24 128/141/24 122/135/67 98/102/67 
f 130/143/36 131/144/18 126/139/76 100/104/68 
f 132/145/49 84/88/60 83/87/59 133/146/36 
f 67/71/49 132/145/49 133/146/36 68/72/36 
f 69/73/36 77/81/54 76/80/53 66/70/49 
f 134/147/50 86/90/62 84/88/60 132/145/49 
f 71/75/50 134/147/50 132/145/49 67/71/49 
f 66/70/49 76/80/53 79/83/56 70/74/50 
f 135/148/24 136/149/69 86/90/62 134/147/50 
f 73/77/24 135/148/24 134/147/50 71/75/50 
f 133/146/36 83/87/59 82/150/58 96/100/64 
f 68/72/36 133/146/36 96/100/64 88/92/64 
f 89/93/64 74/151/51 77/81/54 69/73/36 
f 137/152/36 80/153/18 78/154/55 138/155/65 
f 91/95/36 137/152/36 138/155/65 92/96/65 
f 138/155/65 78/154/55 75/156/52 139/157/66 
f 92/96/65 138/155/65 139/157/66 94/98/66 
f 95/99/66 85/158/61 87/159/63 93/97/65 
f 139/157/66 75/156/52 74/151/51 89/93/64 
f 94/98/66 139/157/66 89/93/64 88/92/64 
f 96/100/64 82/150/58 85/158/61 95/99/66 
f 21/21/19 140/160/78 120/132/73 22/22/20 
f 109/161/71 15/162/14 9/9/9 11/11/11 
f 12/12/1 10/10/10 7/7/7 6/163/6 
f 141/164/79 5/5/5 8/8/8 13/13/12 
f 107/113/36 17/17/16 19/19/16 142/165/36 
f 143/166/36 27/27/16 26/26/16 144/167/36 
f 136/149/69 145/168/2 87/91/63 86/90/62 
f 130/143/36 100/104/68 99/103/68 146/169/36 
f 131/170/18 147/171/57 127/140/77 126/139/76 
f 148/172/2 124/137/75 123/136/74 129/173/69 
f 142/165/36 19/19/16 3/3/3 2/174/2 
f 103/175/69 105/120/70 114/126/72 117/176/69 
f 121/133/24 116/128/23 115/127/23 149/177/24 
f 144/167/36 26/26/16 106/121/16 108/178/36 
f 149/177/24 115/127/23 120/132/73 140/179/78 
f 118/130/36 110/122/16 27/27/16 143/166/36 
f 101/105/24 97/101/67 127/140/77 147/180/57 
f 150/181/36 125/138/68 124/137/75 148/182/2 
f 146/169/36 99/103/68 125/138/68 150/181/36 
f 72/76/24 70/74/50 79/83/56 81/85/57 
f 90/94/36 93/97/65 87/159/63 145/183/2 
f 14/184/13 151/185/80 152/186/81 13/187/12 
f 153/188/82 152/186/81 154/189/83 155/190/84 
f 156/191/85 157/192/86 158/193/87 159/194/85 
f 157/192/86 151/185/80 160/195/88 158/193/87 
f 16/196/15 161/197/89 162/198/90 14/184/13 
f 156/191/85 155/199/84 154/189/83 157/192/86 
f 152/186/81 151/185/80 157/192/86 154/189/83 
f 153/188/82 141/200/79 13/187/12 152/186/81 
f 151/185/80 14/184/13 162/198/90 160/195/88 
f 1/1/1 163/4/91 164/3/92 2/2/2 
f 5/5/5 165/8/93 166/7/94 6/6/6 
f 167/9/95 168/11/96 163/4/91 169/10/97 
f 169/10/97 163/4/91 1/1/1 12/12/1 
f 167/9/95 169/10/97 166/7/94 165/8/93 
f 170/13/98 171/14/99 167/9/95 165/8/93 
f 167/9/95 171/14/99 16/16/15 15/15/14 
f 172/17/100 173/19/100 168/11/96 174/18/101 
f 20/20/18 175/23/102 176/22/103 21/21/19 
f 173/19/100 164/3/92 163/4/91 168/11/96 
f 177/24/104 178/27/100 179/26/100 180/25/104 
f 181/28/105 177/24/104 180/25/104 182/29/105 
f 30/30/24 181/28/105 182/29/105 31/31/24 
f 32/32/1 183/35/106 184/34/107 33/33/25 
f 32/32/1 37/37/29 185/36/108 183/35/106 
f 38/38/30 41/41/33 186/40/109 187/39/110 
f 38/38/30 187/39/110 188/43/111 42/42/34 
f 44/44/36 189/47/100 190/46/100 45/45/36 
f 189/47/100 191/49/66 192/48/112 190/46/100 
f 191/49/66 193/51/101 194/50/101 192/48/112 
f 193/51/101 53/53/24 52/52/24 194/50/101 
f 54/54/39 57/57/1 195/56/113 196/55/114 
f 57/57/1 197/58/115 195/56/113 
f 57/57/1 59/59/43 197/58/115 
f 198/60/116 196/62/114 195/56/113 199/61/117 
f 199/61/117 195/56/113 197/58/115 200/63/118 
f 200/63/118 197/58/115 59/65/43 63/64/47 
f 64/66/48 198/68/116 199/61/117 65/67/30 
f 199/61/117 200/63/118 65/67/30 
f 200/63/118 63/69/47 65/67/30 
f 201/70/64 202/73/119 203/72/119 204/71/64 
f 205/74/120 201/70/64 204/71/64 206/75/120 
f 72/76/24 205/74/120 206/75/120 73/77/24 
f 207/78/53 208/81/121 209/80/51 210/79/122 
f 210/79/122 209/80/51 211/83/123 212/82/124 
f 212/82/124 211/83/123 81/85/57 80/84/18 
f 213/86/60 214/89/125 215/88/58 216/87/126 
f 214/89/125 217/91/127 218/90/128 215/88/58 
f 202/73/119 219/93/49 220/92/49 203/72/119 
f 90/94/36 221/97/129 222/96/129 91/95/36 
f 221/97/129 223/99/38 224/98/38 222/96/129 
f 223/99/38 225/100/49 220/92/49 224/98/38 
f 226/101/130 227/104/131 228/103/131 229/102/130 
f 101/105/24 226/101/130 229/102/130 102/106/24 
f 196/62/114 198/60/116 64/108/48 54/107/39 
f 103/109/69 230/111/132 174/18/101 104/110/24 
f 172/17/100 174/18/101 230/111/132 231/112/100 
f 107/113/36 172/17/100 231/112/100 108/114/36 
f 104/110/24 174/18/101 168/11/96 109/115/71 
f 45/45/36 190/46/100 186/40/109 41/116/33 
f 189/47/100 44/44/36 33/117/25 184/34/107 
f 190/46/100 192/48/112 187/39/110 186/40/109 
f 191/49/66 189/47/100 184/34/107 183/35/106 
f 192/48/112 194/50/101 188/43/111 187/39/110 
f 193/51/101 191/49/66 183/35/106 185/36/108 
f 194/50/101 52/52/24 42/118/34 188/43/111 
f 53/53/24 193/51/101 185/36/108 37/119/29 
f 180/25/104 179/26/100 231/121/100 230/120/132 
f 232/122/100 233/125/104 234/124/104 235/123/100 
f 182/29/105 180/25/104 230/120/132 236/126/133 
f 233/125/104 237/128/105 238/127/105 234/124/104 
f 31/31/24 182/29/105 236/126/133 117/129/69 
f 118/130/36 232/122/100 235/123/100 119/131/36 
f 235/123/100 234/124/104 176/22/103 175/23/102 
f 233/125/104 232/122/100 178/27/100 177/24/104 
f 234/124/104 238/127/105 239/132/134 176/22/103 
f 237/128/105 233/125/104 177/24/104 181/28/105 
f 121/133/24 237/128/105 181/28/105 30/30/24 
f 119/131/36 235/123/100 175/23/102 20/134/18 
f 240/135/130 241/138/131 242/137/135 243/136/136 
f 229/102/130 228/103/131 241/138/131 240/135/130 
f 227/104/131 226/101/130 244/140/137 245/139/138 
f 128/141/24 240/135/130 243/136/136 129/142/69 
f 102/106/24 229/102/130 240/135/130 128/141/24 
f 130/143/36 227/104/131 245/139/138 131/144/18 
f 246/145/64 247/146/119 216/87/126 215/88/58 
f 204/71/64 203/72/119 247/146/119 246/145/64 
f 202/73/119 201/70/64 209/80/51 208/81/121 
f 248/147/120 246/145/64 215/88/58 218/90/128 
f 206/75/120 204/71/64 246/145/64 248/147/120 
f 201/70/64 205/74/120 211/83/123 209/80/51 
f 135/148/24 248/147/120 218/90/128 136/149/69 
f 73/77/24 206/75/120 248/147/120 135/148/24 
f 247/146/119 225/100/49 213/150/60 216/87/126 
f 203/72/119 220/92/49 225/100/49 247/146/119 
f 219/93/49 202/73/119 208/81/121 207/151/53 
f 137/152/36 249/155/129 212/154/124 80/153/18 
f 91/95/36 222/96/129 249/155/129 137/152/36 
f 249/155/129 250/157/38 210/156/122 212/154/124 
f 222/96/129 224/98/38 250/157/38 249/155/129 
f 223/99/38 221/97/129 217/159/127 214/158/125 
f 250/157/38 219/93/49 207/151/53 210/156/122 
f 224/98/38 220/92/49 219/93/49 250/157/38 
f 225/100/49 223/99/38 214/158/125 213/150/60 
f 21/21/19 176/22/103 239/132/134 140/160/78 
f 109/161/71 168/11/96 167/9/95 15/162/14 
f 12/12/1 6/163/6 166/7/94 169/10/97 
f 141/164/79 170/13/98 165/8/93 5/5/5 
f 107/113/36 142/165/36 173/19/100 172/17/100 
f 143/166/36 144/167/36 179/26/100 178/27/100 
f 136/149/69 218/90/128 217/91/127 145/168/2 
f 130/143/36 146/169/36 228/103/131 227/104/131 
f 131/170/18 245/139/138 244/140/137 147/171/57 
f 148/172/2 129/173/69 243/136/136 242/137/135 
f 142/165/36 2/174/2 164/3/92 173/19/100 
f 103/175/69 117/176/69 236/126/133 230/120/132 
f 121/133/24 149/177/24 238/127/105 237/128/105 
f 144/167/36 108/178/36 231/121/100 179/26/100 
f 149/177/24 140/179/78 239/132/134 238/127/105 
f 118/130/36 143/166/36 178/27/100 232/122/100 
f 101/105/24 147/180/57 244/140/137 226/101/130 
f 150/181/36 148/182/2 242/137/135 241/138/131 
f 146/169/36 150/181/36 241/138/131 228/103/131 
f 72/76/24 81/85/57 211/83/123 205/74/120 
f 90/94/36 145/183/2 217/159/127 221/97/129 
f 171/184/99 170/187/98 251/186/139 252/185/140 
f 153/188/82 155/190/84 253/189/141 251/186/139 
f 156/191/85 159/194/85 254/193/142 255/192/143 
f 255/192/143 254/193/142 256/195/144 252/185/140 
f 16/196/15 171/184/99 257/198/145 161/197/89 
f 156/191/85 255/192/143 253/189/141 155/199/84 
f 251/186/139 253/189/141 255/192/143 252/185/140 
f 153/188/82 251/186/139 170/187/98 141/200/79 
f 252/185/140 256/195/144 257/198/145 171/184/99 
# 240 polygons - 8 triangles

