# 3ds Max Wavefront OBJ Exporter v0.97b - (c)2007 guruware
# File Created: 11.10.2020 17:43:28

#
# object weapon_axe
#

v  0.0433 1.0245 -0.0749
v  0.0433 1.2536 -0.0749
v  0.0433 1.2536 0.0753
v  0.0433 1.0245 0.0753
v  0.0000 1.0245 -0.0749
v  0.0000 1.2536 -0.0749
v  0.0271 0.1525 0.0330
v  0.0271 0.1525 -0.0326
v  0.0271 0.5422 -0.0326
v  0.0271 0.5422 0.0330
v  0.0000 0.1525 -0.0326
v  0.0000 0.5422 -0.0326
v  0.0271 0.6164 -0.0467
v  0.0433 0.6164 -0.0749
v  0.0433 0.6164 0.0753
v  0.0271 0.6164 0.0472
v  0.0000 0.6164 -0.0467
v  0.0000 0.6164 -0.0749
v  0.0000 1.2536 0.0753
v  0.0271 -0.6269 0.0330
v  0.0271 -0.6269 -0.0326
v  0.0271 -0.2372 -0.0326
v  0.0271 -0.2372 0.0330
v  0.0000 0.6164 0.0472
v  0.0000 0.5422 0.0330
v  0.0000 -0.6269 -0.0326
v  0.0000 -0.2372 -0.0326
v  0.0320 1.2536 0.4761
v  0.0433 1.2536 0.3429
v  0.0000 1.2536 0.3429
v  0.0000 1.2536 0.4761
v  0.0380 0.7954 0.2096
v  0.0000 0.7954 0.2096
v  0.0000 1.0245 0.2096
v  0.0433 1.0245 0.2096
v  0.0320 0.8628 0.4761
v  0.0417 0.8150 0.3429
v  0.0433 1.0343 0.3429
v  0.0320 1.0582 0.4761
v  0.0433 1.2536 0.2096
v  0.0000 1.2536 0.2096
v  0.0000 0.9253 0.6088
v  0.0000 1.0816 0.6088
v  0.0000 0.3382 0.2096
v  0.0000 0.5663 0.2096
v  0.0287 0.5663 0.2096
v  0.0000 0.4728 0.4761
v  0.0000 0.3771 0.3429
v  0.0342 0.5957 0.3429
v  0.0320 0.6675 0.4761
v  0.0000 0.7690 0.6088
v  0.0000 0.6193 0.5791
v  0.0000 1.2378 0.6088
v  0.0433 0.8204 0.0753
v  0.0433 0.8204 -0.0749
v  0.0000 0.8204 -0.0749
v  0.0000 1.0245 0.0753
v  0.0000 0.1525 0.0330
v  0.0000 0.6164 0.0753
v  0.0000 -0.6269 0.0330
v  0.0000 -0.2372 0.0330
v  0.0000 0.8204 0.0753
v  -0.0433 1.0245 -0.0749
v  -0.0433 1.0245 0.0753
v  -0.0433 1.2536 0.0753
v  -0.0433 1.2536 -0.0749
v  -0.0271 0.1525 0.0330
v  -0.0271 0.5422 0.0330
v  -0.0271 0.5422 -0.0326
v  -0.0271 0.1525 -0.0326
v  -0.0271 0.6164 -0.0467
v  -0.0271 0.6164 0.0472
v  -0.0433 0.6164 0.0753
v  -0.0433 0.6164 -0.0749
v  -0.0271 -0.6269 0.0330
v  -0.0271 -0.2372 0.0330
v  -0.0271 -0.2372 -0.0326
v  -0.0271 -0.6269 -0.0326
v  -0.0320 1.2536 0.4761
v  -0.0433 1.2536 0.3429
v  -0.0380 0.7954 0.2096
v  -0.0433 1.0245 0.2096
v  -0.0320 0.8628 0.4761
v  -0.0320 1.0582 0.4761
v  -0.0433 1.0343 0.3429
v  -0.0417 0.8150 0.3429
v  -0.0433 1.2536 0.2096
v  -0.0287 0.5663 0.2096
v  -0.0320 0.6675 0.4761
v  -0.0342 0.5957 0.3429
v  -0.0433 0.8204 0.0753
v  -0.0433 0.8204 -0.0749
# 92 vertices

vn 0.7071 0.0000 -0.7071
vn 0.5774 0.5774 -0.5774
vn 0.7071 0.7071 -0.0000
vn 0.9045 -0.3015 0.3015
vn 0.0000 0.0000 -1.0000
vn 0.0000 0.7071 -0.7071
vn 0.7071 0.0000 0.7071
vn 0.7290 -0.0644 -0.6815
vn 0.7290 -0.0644 0.6815
vn 0.0000 -0.0941 -0.9956
vn 0.2551 -0.9240 -0.2847
vn 0.5774 -0.5774 -0.5774
vn 0.5774 -0.5774 0.5774
vn 0.2551 -0.9240 0.2847
vn 0.0000 -0.7706 -0.6374
vn 0.0000 -0.7071 -0.7071
vn 0.0000 1.0000 -0.0000
vn 0.0000 -0.7706 0.6374
vn 0.0000 -0.0941 0.9956
vn 0.6990 0.6995 0.1483
vn 0.7158 0.6976 0.0305
vn 0.0000 0.9983 0.0591
vn 0.7007 -0.0230 -0.7131
vn 0.9038 -0.3086 -0.2963
vn 0.9881 0.0000 0.1540
vn 0.9994 -0.0216 0.0283
vn 0.9991 -0.0039 0.0431
vn 0.9871 0.0000 0.1601
vn -0.0000 0.0000 1.0000
vn -0.0000 -0.0000 1.0000
vn 0.0000 -0.8993 -0.4372
vn 0.7058 -0.0628 -0.7056
vn -0.0000 -0.7530 0.6580
vn 0.0000 -0.9163 0.4005
vn 0.9946 -0.0996 0.0275
vn 0.9871 -0.0657 0.1457
vn -0.0000 -0.0556 0.9985
vn -0.0000 -0.3966 0.9180
vn -0.0000 0.4831 0.8755
vn 0.0000 -0.7071 0.7071
vn 0.0000 0.0000 1.0000
vn -0.7071 0.0000 -0.7071
vn -0.9045 -0.3015 0.3015
vn -0.7071 0.7071 -0.0000
vn -0.5774 0.5774 -0.5774
vn -0.7071 0.0000 0.7071
vn -0.7290 -0.0644 0.6815
vn -0.7290 -0.0644 -0.6815
vn -0.2551 -0.9240 -0.2847
vn -0.2551 -0.9240 0.2847
vn -0.5774 -0.5774 0.5774
vn -0.5774 -0.5774 -0.5774
vn -0.6990 0.6996 0.1483
vn -0.7158 0.6977 0.0305
vn -0.7007 -0.0230 -0.7131
vn -0.9038 -0.3086 -0.2963
vn -0.9881 0.0000 0.1540
vn -0.9871 0.0000 0.1601
vn -0.9991 -0.0039 0.0431
vn -0.9994 -0.0216 0.0283
vn -0.7058 -0.0628 -0.7056
vn -0.9871 -0.0657 0.1457
vn -0.9946 -0.0996 0.0275
# 63 vertex normals

vt 0.1665 0.9298 0.0000
vt 0.1665 0.9875 0.0000
vt 0.1417 0.9871 0.0000
vt 0.1411 0.9305 0.0000
vt 0.1748 0.9298 0.0000
vt 0.1748 0.9875 0.0000
vt 0.1411 0.7024 0.0000
vt 0.1665 0.7024 0.0000
vt 0.1665 0.7985 0.0000
vt 0.1411 0.7985 0.0000
vt 0.1748 0.7024 0.0000
vt 0.1748 0.7985 0.0000
vt 0.1665 0.8174 0.0000
vt 0.1665 0.8255 0.0000
vt 0.1411 0.8255 0.0000
vt 0.1411 0.8174 0.0000
vt 0.1748 0.8174 0.0000
vt 0.1748 0.8255 0.0000
vt 0.1665 0.9978 0.0000
vt 0.1417 0.9980 0.0000
vt 0.1411 0.5108 0.0000
vt 0.1665 0.5108 0.0000
vt 0.1665 0.6067 0.0000
vt 0.1411 0.6067 0.0000
vt 0.1324 0.8174 0.0000
vt 0.1324 0.7985 0.0000
vt 0.1748 0.5108 0.0000
vt 0.1748 0.6067 0.0000
vt 0.0371 0.9875 0.0000
vt 0.0691 0.9875 0.0000
vt 0.0691 0.9978 0.0000
vt 0.0357 0.9978 0.0000
vt 0.1018 0.8758 0.0000
vt 0.1112 0.8753 0.0000
vt 0.1134 0.9297 0.0000
vt 0.1028 0.9298 0.0000
vt 0.0357 0.8940 0.0000
vt 0.0691 0.8814 0.0000
vt 0.0691 0.9345 0.0000
vt 0.0360 0.9414 0.0000
vt 0.1028 0.9875 0.0000
vt 0.1028 0.9978 0.0000
vt 0.0014 0.9103 0.0000
vt 0.0017 0.9489 0.0000
vt 0.1004 0.7636 0.0000
vt 0.1085 0.8193 0.0000
vt 0.1016 0.8202 0.0000
vt 0.0350 0.7983 0.0000
vt 0.0682 0.7742 0.0000
vt 0.0691 0.8283 0.0000
vt 0.0359 0.8467 0.0000
vt 0.0015 0.8717 0.0000
vt 0.0093 0.8347 0.0000
vt 0.0034 0.9877 0.0000
vt 0.1411 0.8775 0.0000
vt 0.1665 0.8775 0.0000
vt 0.1748 0.8775 0.0000
vt 0.1324 0.9627 0.0000
vt 0.1324 0.9292 0.0000
vt 0.1411 0.9627 0.0000
vt 0.1324 0.7024 0.0000
vt 0.1324 0.8255 0.0000
vt 0.1411 0.5044 0.0000
vt 0.1665 0.5044 0.0000
vt 0.1324 0.6067 0.0000
vt 0.1324 0.5108 0.0000
vt 0.1324 0.8775 0.0000
# 67 texture coords

o weapon_axe
g weapon_axe
s off
f 1/1/1 2/2/2 3/3/3 4/4/4 
f 5/5/5 6/6/6 2/2/2 1/1/1 
f 7/7/7 8/8/1 9/9/8 10/10/9 
f 8/8/1 11/11/5 12/12/10 9/9/8 
f 13/13/11 14/14/12 15/15/13 16/16/14 
f 13/13/11 17/17/15 18/18/16 14/14/12 
f 2/2/2 6/19/6 19/20/17 3/3/3 
f 20/21/13 21/22/12 22/23/1 23/24/7 
f 23/24/7 22/23/1 8/8/1 7/7/7 
f 13/13/11 16/16/14 10/10/9 9/9/8 
f 16/16/14 24/25/18 25/26/19 10/10/9 
f 21/22/12 26/27/16 27/28/5 22/23/1 
f 22/23/1 27/28/5 11/11/5 8/8/1 
f 28/29/20 29/30/21 30/31/17 31/32/22 
f 32/33/23 33/34/5 34/35/16 35/36/24 
f 36/37/25 37/38/26 38/39/27 39/40/28 
f 40/41/3 41/42/17 30/31/17 29/30/21 
f 42/43/29 36/37/25 39/40/28 43/44/30 
f 44/45/31 45/46/5 46/47/32 
f 47/48/33 48/49/34 49/50/35 50/51/36 
f 50/51/36 49/50/35 37/38/26 36/37/25 
f 29/30/21 28/29/20 39/40/28 38/39/27 
f 51/52/37 52/53/38 50/51/36 
f 51/52/37 50/51/36 36/37/25 42/43/29 
f 28/29/20 53/54/39 43/44/30 39/40/28 
f 40/41/3 29/30/21 38/39/27 35/36/24 
f 35/36/24 38/39/27 37/38/26 32/33/23 
f 48/49/34 44/45/31 46/47/32 49/50/35 
f 49/50/35 46/47/32 32/33/23 37/38/26 
f 54/55/7 55/56/1 1/1/1 4/4/4 
f 55/56/1 56/57/5 5/5/5 1/1/1 
f 35/36/24 4/4/4 3/3/3 40/41/3 
f 34/58/16 57/59/40 4/4/4 35/60/24 
f 52/53/38 47/48/33 50/51/36 
f 15/15/13 14/14/12 55/56/1 54/55/7 
f 14/14/12 18/18/16 56/57/5 55/56/1 
f 7/7/7 10/10/9 25/26/19 58/61/41 
f 16/16/14 15/15/13 59/62/40 24/25/18 
f 21/22/12 20/21/13 60/63/40 26/64/16 
f 20/21/13 23/24/7 61/65/41 60/66/40 
f 23/24/7 7/7/7 58/61/41 61/65/41 
f 13/13/11 9/9/8 12/12/10 17/17/15 
f 53/54/39 28/29/20 31/32/22 
f 33/34/5 32/33/23 46/47/32 45/46/5 
f 54/55/7 4/4/4 57/59/40 62/67/41 
f 40/41/3 3/3/3 19/20/17 41/42/17 
f 15/15/13 54/55/7 62/67/41 59/62/40 
f 63/1/42 64/4/43 65/3/44 66/2/45 
f 5/5/5 63/1/42 66/2/45 6/6/6 
f 67/7/46 68/10/47 69/9/48 70/8/42 
f 70/8/42 69/9/48 12/12/10 11/11/5 
f 71/13/49 72/16/50 73/15/51 74/14/52 
f 71/13/49 74/14/52 18/18/16 17/17/15 
f 66/2/45 65/3/44 19/20/17 6/19/6 
f 75/21/51 76/24/46 77/23/42 78/22/52 
f 76/24/46 67/7/46 70/8/42 77/23/42 
f 71/13/49 69/9/48 68/10/47 72/16/50 
f 72/16/50 68/10/47 25/26/19 24/25/18 
f 78/22/52 77/23/42 27/28/5 26/27/16 
f 77/23/42 70/8/42 11/11/5 27/28/5 
f 79/29/53 31/32/22 30/31/17 80/30/54 
f 81/33/55 82/36/56 34/35/16 33/34/5 
f 83/37/57 84/40/58 85/39/59 86/38/60 
f 87/41/44 80/30/54 30/31/17 41/42/17 
f 42/43/29 43/44/30 84/40/58 83/37/57 
f 44/45/31 88/47/61 45/46/5 
f 47/48/33 89/51/62 90/50/63 48/49/34 
f 89/51/62 83/37/57 86/38/60 90/50/63 
f 80/30/54 85/39/59 84/40/58 79/29/53 
f 51/52/37 89/51/62 52/53/38 
f 51/52/37 42/43/29 83/37/57 89/51/62 
f 79/29/53 84/40/58 43/44/30 53/54/39 
f 87/41/44 82/36/56 85/39/59 80/30/54 
f 82/36/56 81/33/55 86/38/60 85/39/59 
f 48/49/34 90/50/63 88/47/61 44/45/31 
f 90/50/63 86/38/60 81/33/55 88/47/61 
f 91/55/46 64/4/43 63/1/42 92/56/42 
f 92/56/42 63/1/42 5/5/5 56/57/5 
f 82/36/56 87/41/44 65/3/44 64/4/43 
f 34/58/16 82/60/56 64/4/43 57/59/40 
f 52/53/38 89/51/62 47/48/33 
f 73/15/51 91/55/46 92/56/42 74/14/52 
f 74/14/52 92/56/42 56/57/5 18/18/16 
f 67/7/46 58/61/41 25/26/19 68/10/47 
f 72/16/50 24/25/18 59/62/40 73/15/51 
f 78/22/52 26/64/16 60/63/40 75/21/51 
f 75/21/51 60/66/40 61/65/41 76/24/46 
f 76/24/46 61/65/41 58/61/41 67/7/46 
f 71/13/49 17/17/15 12/12/10 69/9/48 
f 53/54/39 31/32/22 79/29/53 
f 33/34/5 45/46/5 88/47/61 81/33/55 
f 91/55/46 62/67/41 57/59/40 64/4/43 
f 87/41/44 41/42/17 19/20/17 65/3/44 
f 73/15/51 59/62/40 62/67/41 91/55/46 
# 86 polygons - 8 triangles

